<svg width="200" height="154" viewBox="0 0 200 154" fill="none" xmlns="http://www.w3.org/2000/svg">
<path d="M200 135.033H0V135.136H200V135.033Z" fill="#EBEBEB"/>
<path d="M34.232 138.959H20.984V139.062H34.232V138.959Z" fill="#EBEBEB"/>
<path d="M90 139.013H68.456V139.116H90V139.013Z" fill="#EBEBEB"/>
<path d="M49.984 141.087H42.308V141.19H49.984V141.087Z" fill="#EBEBEB"/>
<path d="M178.4 141.038H170.708V141.141H178.4V141.038Z" fill="#EBEBEB"/>
<path d="M167.144 141.038H155.028V141.141H167.144V141.038Z" fill="#EBEBEB"/>
<path d="M148.356 140.357H131.332V140.46H148.356V140.357Z" fill="#EBEBEB"/>
<path d="M94.8 116.638H17.564C16.9589 116.637 16.379 116.388 15.9516 115.947C15.5241 115.505 15.284 114.907 15.284 114.283V2.33441C15.2893 1.71411 15.5317 1.121 15.9586 0.683915C16.3855 0.246828 16.9624 0.0010626 17.564 0H94.8C95.4058 0 95.9867 0.248119 96.415 0.689773C96.8434 1.13143 97.084 1.73044 97.084 2.35503V114.283C97.084 114.908 96.8434 115.507 96.415 115.948C95.9867 116.39 95.4058 116.638 94.8 116.638ZM17.564 0.0824882C16.9855 0.0835808 16.431 0.321317 16.0223 0.743516C15.6135 1.16571 15.384 1.73788 15.384 2.33441V114.283C15.384 114.879 15.6135 115.452 16.0223 115.874C16.431 116.296 16.9855 116.534 17.564 116.535H94.8C95.3789 116.534 95.9338 116.296 96.3432 115.874C96.7525 115.452 96.983 114.88 96.984 114.283V2.33441C96.983 1.7375 96.7525 1.16535 96.3432 0.743264C95.9338 0.321183 95.3789 0.0835785 94.8 0.0824882H17.564Z" fill="#EBEBEB"/>
<path d="M181.324 116.638H104.084C103.479 116.637 102.898 116.388 102.47 115.947C102.042 115.506 101.801 114.907 101.8 114.283V2.33441C101.806 1.71373 102.05 1.12063 102.477 0.683657C102.905 0.246684 103.482 0.00105102 104.084 0H181.324C181.925 0.00214654 182.501 0.248391 182.927 0.685363C183.353 1.12233 183.595 1.71482 183.6 2.33441V114.283C183.6 114.906 183.36 115.504 182.934 115.945C182.507 116.387 181.928 116.636 181.324 116.638ZM104.084 0.0824882C103.505 0.0835785 102.95 0.321183 102.541 0.743264C102.131 1.16535 101.901 1.7375 101.9 2.33441V114.283C101.901 114.88 102.131 115.452 102.541 115.874C102.95 116.296 103.505 116.534 104.084 116.535H181.324C181.903 116.534 182.458 116.296 182.867 115.874C183.276 115.452 183.507 114.88 183.508 114.283V2.33441C183.507 1.7375 183.276 1.16535 182.867 0.743264C182.458 0.321183 181.903 0.0835785 181.324 0.0824882H104.084Z" fill="#EBEBEB"/>
<path d="M120.888 135.033H132.216V76.92H120.888V135.033Z" fill="#E6E6E6"/>
<path d="M123.036 135.033H120.884V128.722H125.292L123.036 135.033Z" fill="#F0F0F0"/>
<path d="M163.224 135.033H174.552V76.92H163.224V135.033Z" fill="#E6E6E6"/>
<path d="M120.888 131.16H165.104V76.92H120.888V131.16Z" fill="#F0F0F0"/>
<path d="M122.556 112.724V123.27H142.272V112.724H122.556Z" fill="#E6E6E6"/>
<path d="M143.716 112.724V123.27H163.432V112.724H143.716Z" fill="#E6E6E6"/>
<path d="M151.624 114.489H155.524C156.363 114.49 157.193 114.314 157.963 113.972C158.733 113.63 159.428 113.13 160.004 112.501H147.144C147.72 113.13 148.415 113.63 149.185 113.972C149.955 114.314 150.785 114.49 151.624 114.489Z" fill="#F0F0F0"/>
<path d="M130.264 114.489H134.164C135.003 114.49 135.833 114.314 136.603 113.972C137.373 113.63 138.068 113.13 138.644 112.501H125.784C126.36 113.13 127.055 113.63 127.825 113.972C128.595 114.314 129.425 114.49 130.264 114.489Z" fill="#F0F0F0"/>
<path d="M122.552 96.3294V106.875H142.268V96.3294H122.552Z" fill="#E6E6E6"/>
<path d="M143.716 96.3336V106.88H163.432V96.3336H143.716Z" fill="#E6E6E6"/>
<path d="M151.624 98.0947H155.524C156.362 98.0929 157.192 97.915 157.961 97.5717C158.731 97.2285 159.425 96.7273 160 96.0985H147.144C147.72 96.7278 148.414 97.2293 149.184 97.5726C149.955 97.9158 150.785 98.0934 151.624 98.0947Z" fill="#F0F0F0"/>
<path d="M130.264 98.0947H134.164C135.002 98.095 135.832 97.9193 136.602 97.5782C137.372 97.2372 138.067 96.7379 138.644 96.1108H125.784C126.361 96.7379 127.056 97.2372 127.826 97.5782C128.596 97.9193 129.426 98.095 130.264 98.0947Z" fill="#F0F0F0"/>
<path d="M122.556 79.9391V90.4851H142.272V79.9391H122.556Z" fill="#E6E6E6"/>
<path d="M143.716 79.9391V90.4851H163.432V79.9391H143.716Z" fill="#E6E6E6"/>
<path d="M151.624 81.7043H155.524C156.363 81.7048 157.193 81.5288 157.963 81.1869C158.733 80.8451 159.428 80.3447 160.004 79.7163H147.144C147.72 80.3447 148.415 80.8451 149.185 81.1869C149.955 81.5288 150.785 81.7048 151.624 81.7043Z" fill="#F0F0F0"/>
<path d="M130.264 81.7043H134.164C135.003 81.7048 135.833 81.5288 136.603 81.1869C137.373 80.8451 138.068 80.3447 138.644 79.7163H125.784C126.36 80.3447 127.055 80.8451 127.825 81.1869C128.595 81.5288 129.425 81.7048 130.264 81.7043Z" fill="#F0F0F0"/>
<path d="M162.952 135.033H165.104V128.722H160.696L162.952 135.033Z" fill="#F0F0F0"/>
<path d="M164.816 37.0247L166.548 41.908H164.816L154.188 37.0247H164.816Z" fill="#F5F5F5"/>
<path d="M166.548 37.0247V41.908L155.924 37.0247H166.548Z" fill="#E6E6E6"/>
<path d="M123.148 37.0247L124.88 41.908H123.148L112.524 37.0247H123.148Z" fill="#F5F5F5"/>
<path d="M124.88 37.0247V41.908L114.256 37.0247H124.88Z" fill="#E6E6E6"/>
<path d="M174.348 33.5355H162.792V37.2515H174.348V33.5355Z" fill="#E6E6E6"/>
<path d="M105.34 37.2557L162.792 37.2557V33.5396L105.34 33.5396V37.2557Z" fill="#F5F5F5"/>
<path d="M151.124 20.622C151.124 20.622 151.24 33.5396 155.564 33.5396C159.888 33.5396 160 20.622 160 20.622H151.124Z" fill="#F0F0F0"/>
<path d="M124.312 29.3245C124.312 29.3245 124.616 33.5355 136.248 33.5355C147.88 33.5355 148.184 29.3245 148.184 29.3245H124.312Z" fill="#F0F0F0"/>
<path d="M89.744 135.033H90.516L92.728 123.794L93.128 121.822L95.528 109.573H104.8L109.812 135.033H110.588L105.48 109.107C105.463 109.018 105.417 108.938 105.349 108.881C105.281 108.824 105.196 108.793 105.108 108.793H95.22C95.1328 108.793 95.0481 108.824 94.9808 108.881C94.9136 108.938 94.868 109.018 94.852 109.107L92.732 119.863L92.332 121.831L89.744 135.033Z" fill="#F0F0F0"/>
<path d="M74.892 135.033H75.664L80.68 109.573H89.928L92.328 121.831L92.728 123.794L94.944 135.033H95.716L93.116 121.835L92.716 119.876L90.596 109.119C90.5753 109.032 90.5278 108.955 90.4608 108.898C90.3937 108.842 90.3106 108.809 90.224 108.806H80.372C80.2843 108.805 80.1991 108.836 80.1311 108.893C80.0632 108.95 80.0168 109.03 80 109.119L74.892 135.033Z" fill="#F0F0F0"/>
<path d="M106.184 105.824H79.276C78.6589 105.825 78.0673 106.078 77.631 106.528C77.1946 106.978 76.949 107.588 76.948 108.224V108.307C76.948 108.54 77.0377 108.763 77.1975 108.928C77.3573 109.093 77.574 109.185 77.8 109.185H107.66C107.886 109.185 108.103 109.093 108.262 108.928C108.422 108.763 108.512 108.54 108.512 108.307V108.224C108.511 107.588 108.265 106.978 107.829 106.528C107.393 106.078 106.801 105.825 106.184 105.824Z" fill="#F0F0F0"/>
<path d="M62.74 135.033H63.512L65.724 123.794L66.124 121.822L68.524 109.573H77.772L82.8 135.033H83.576L78.468 109.107C78.4512 109.018 78.4048 108.938 78.3369 108.881C78.269 108.824 78.1838 108.793 78.096 108.793H68.216C68.1288 108.793 68.0441 108.824 67.9768 108.881C67.9096 108.938 67.864 109.018 67.848 109.107L65.728 119.863L65.328 121.831L62.74 135.033Z" fill="#F0F0F0"/>
<path d="M47.888 135.033H48.664L53.676 109.573H62.928L65.328 121.831L65.728 123.794L67.944 135.033H68.716L66.116 121.835L65.716 119.876L63.6 109.107C63.5793 109.02 63.5318 108.943 63.4647 108.886C63.3976 108.83 63.3146 108.797 63.228 108.793H53.368C53.2803 108.793 53.1951 108.824 53.1271 108.881C53.0592 108.938 53.0128 109.018 52.996 109.107L47.888 135.033Z" fill="#F0F0F0"/>
<path d="M79.2 105.824H52.272C51.6549 105.825 51.0634 106.078 50.627 106.528C50.1907 106.978 49.9451 107.588 49.944 108.224V108.307C49.944 108.54 50.0338 108.763 50.1935 108.928C50.3533 109.093 50.57 109.185 50.796 109.185H80.66C80.7717 109.185 80.8823 109.162 80.9854 109.118C81.0886 109.074 81.1823 109.009 81.261 108.928C81.3398 108.846 81.4022 108.749 81.4446 108.643C81.487 108.536 81.5085 108.422 81.508 108.307V108.224C81.507 107.591 81.2641 106.985 80.8321 106.535C80.4 106.086 79.8136 105.83 79.2 105.824Z" fill="#F0F0F0"/>
<path d="M33.732 73.2493H72.392L72.392 9.39123L33.732 9.39123L33.732 73.2493Z" fill="#E6E6E6"/>
<path d="M31.208 73.2493H71.212L71.212 9.39123L31.208 9.39123L31.208 73.2493Z" fill="#F0F0F0"/>
<path d="M33.732 78.0872H72.392V73.2452H33.732V78.0872Z" fill="#E6E6E6"/>
<path d="M27 78.0872H67.004V73.2452H27V78.0872Z" fill="#F0F0F0"/>
<path d="M67.672 69.6033V13.0372L34.74 13.0372V69.6033H67.672Z" fill="#FAFAFA"/>
<path d="M67.956 69.5992L56.372 13.0372H46.572L58.156 69.5992H67.956Z" fill="white"/>
<path d="M65.288 62.8434C65.3548 62.8434 65.4189 62.8161 65.4662 62.7673C65.5135 62.7186 65.54 62.6525 65.54 62.5836V15.4088C65.54 15.3398 65.5135 15.2738 65.4662 15.225C65.4189 15.1763 65.3548 15.1489 65.288 15.1489C65.2212 15.1489 65.1571 15.1763 65.1098 15.225C65.0626 15.2738 65.036 15.3398 65.036 15.4088V62.5836C65.036 62.6525 65.0626 62.7186 65.1098 62.7673C65.1571 62.8161 65.2212 62.8434 65.288 62.8434Z" fill="#F0F0F0"/>
<path d="M56.052 69.5992L44.468 13.0372H40.648L52.228 69.5992H56.052Z" fill="white"/>
<path d="M35.192 69.6033V13.0372H34.744V69.6033H35.192Z" fill="#E6E6E6"/>
<path opacity="0.6" d="M30.368 15.8377H69.028L69.356 14.4519H30.696L30.368 15.8377Z" fill="#F0F0F0"/>
<path opacity="0.6" d="M30.368 19.0588H69.028L69.356 17.6772H30.696L30.368 19.0588Z" fill="#F0F0F0"/>
<path opacity="0.6" d="M30.368 22.2841H69.028L69.356 20.8983H30.696L30.368 22.2841Z" fill="#F0F0F0"/>
<path opacity="0.6" d="M30.368 25.5053H69.028L69.356 24.1236H30.696L30.368 25.5053Z" fill="#F0F0F0"/>
<path opacity="0.6" d="M30.368 28.7306H69.028L69.356 27.3489H30.696L30.368 28.7306Z" fill="#F0F0F0"/>
<path opacity="0.6" d="M30.368 31.9558H69.028L69.356 30.57H30.696L30.368 31.9558Z" fill="#F0F0F0"/>
<path d="M100 153.659C142.833 153.659 177.556 151.568 177.556 148.99C177.556 146.411 142.833 144.321 100 144.321C57.167 144.321 22.444 146.411 22.444 148.99C22.444 151.568 57.167 153.659 100 153.659Z" fill="#F5F5F5"/>
<path d="M97.248 85.6761H72.812C72.4674 85.6761 72.188 85.9642 72.188 86.3195V96.8285C72.188 97.1838 72.4674 97.4719 72.812 97.4719H97.248C97.5926 97.4719 97.872 97.1838 97.872 96.8285V86.3195C97.872 85.9642 97.5926 85.6761 97.248 85.6761Z" fill="#407BFF"/>
<path opacity="0.6" d="M97.248 85.6761H72.812C72.4674 85.6761 72.188 85.9642 72.188 86.3195V96.8285C72.188 97.1838 72.4674 97.4719 72.812 97.4719H97.248C97.5926 97.4719 97.872 97.1838 97.872 96.8285V86.3195C97.872 85.9642 97.5926 85.6761 97.248 85.6761Z" fill="white"/>
<path opacity="0.1" d="M97.244 85.6761H72.8C72.6345 85.6761 72.4758 85.7439 72.3588 85.8646C72.2417 85.9852 72.176 86.1489 72.176 86.3195V89.6891L84.896 92.271C84.9739 92.2875 85.0541 92.2875 85.132 92.271L97.856 89.6891V86.3195C97.856 86.151 97.7919 85.9892 97.6775 85.8689C97.563 85.7486 97.4074 85.6794 97.244 85.6761Z" fill="black"/>
<path d="M97.78 81.362H90.316V80.071C90.3149 79.5376 90.1089 79.0262 89.7431 78.649C89.3773 78.2718 88.8814 78.0594 88.364 78.0583H81.696C81.1786 78.0594 80.6827 78.2718 80.3169 78.649C79.9511 79.0262 79.7451 79.5376 79.744 80.071V81.362H72.284C72.1206 81.362 71.9639 81.4289 71.8484 81.548C71.7329 81.6671 71.668 81.8287 71.668 81.9971V88.3528C71.6688 88.4996 71.7185 88.6415 71.8088 88.7549C71.8992 88.8683 72.0246 88.9463 72.164 88.9756L84.912 91.5616C84.9902 91.574 85.0698 91.574 85.148 91.5616L97.896 88.9756C98.0358 88.9464 98.1617 88.8686 98.2527 88.7553C98.3437 88.642 98.3943 88.4999 98.396 88.3528V81.9971C98.396 81.8287 98.3311 81.6671 98.2156 81.548C98.1001 81.4289 97.9434 81.362 97.78 81.362ZM81.228 80.071C81.229 79.943 81.2785 79.8204 81.366 79.7295C81.4534 79.6386 81.5718 79.5865 81.696 79.5844H88.364C88.4882 79.5865 88.6066 79.6386 88.694 79.7295C88.7815 79.8204 88.831 79.943 88.832 80.071V81.362H81.232L81.228 80.071Z" fill="#407BFF"/>
<path opacity="0.6" d="M97.78 81.362H90.316V80.071C90.3149 79.5376 90.1089 79.0262 89.7431 78.649C89.3773 78.2718 88.8814 78.0594 88.364 78.0583H81.696C81.1786 78.0594 80.6827 78.2718 80.3169 78.649C79.9511 79.0262 79.7451 79.5376 79.744 80.071V81.362H72.284C72.1206 81.362 71.9639 81.4289 71.8484 81.548C71.7329 81.6671 71.668 81.8287 71.668 81.9971V88.3528C71.6688 88.4996 71.7185 88.6415 71.8088 88.7549C71.8992 88.8683 72.0246 88.9463 72.164 88.9756L84.912 91.5616C84.9902 91.574 85.0698 91.574 85.148 91.5616L97.896 88.9756C98.0358 88.9464 98.1617 88.8686 98.2527 88.7553C98.3437 88.642 98.3943 88.4999 98.396 88.3528V81.9971C98.396 81.8287 98.3311 81.6671 98.2156 81.548C98.1001 81.4289 97.9434 81.362 97.78 81.362ZM81.228 80.071C81.229 79.943 81.2785 79.8204 81.366 79.7295C81.4534 79.6386 81.5718 79.5865 81.696 79.5844H88.364C88.4882 79.5865 88.6066 79.6386 88.694 79.7295C88.7815 79.8204 88.831 79.943 88.832 80.071V81.362H81.232L81.228 80.071Z" fill="white"/>
<path d="M86.348 89.8253H83.716C83.389 89.8253 83.124 90.0985 83.124 90.4357V92.1514C83.124 92.4885 83.389 92.7618 83.716 92.7618H86.348C86.6749 92.7618 86.94 92.4885 86.94 92.1514V90.4357C86.94 90.0985 86.6749 89.8253 86.348 89.8253Z" fill="#407BFF"/>
<path opacity="0.3" d="M86.348 89.8253H83.716C83.389 89.8253 83.124 90.0985 83.124 90.4357V92.1514C83.124 92.4885 83.389 92.7618 83.716 92.7618H86.348C86.6749 92.7618 86.94 92.4885 86.94 92.1514V90.4357C86.94 90.0985 86.6749 89.8253 86.348 89.8253Z" fill="white"/>
<path d="M97.248 9.80371H72.812C72.4674 9.80371 72.188 10.0918 72.188 10.4471V20.9561C72.188 21.3114 72.4674 21.5995 72.812 21.5995H97.248C97.5926 21.5995 97.872 21.3114 97.872 20.9561V10.4471C97.872 10.0918 97.5926 9.80371 97.248 9.80371Z" fill="#407BFF"/>
<path opacity="0.6" d="M97.248 9.80371H72.812C72.4674 9.80371 72.188 10.0918 72.188 10.4471V20.9561C72.188 21.3114 72.4674 21.5995 72.812 21.5995H97.248C97.5926 21.5995 97.872 21.3114 97.872 20.9561V10.4471C97.872 10.0918 97.5926 9.80371 97.248 9.80371Z" fill="white"/>
<path opacity="0.1" d="M97.244 9.80371H72.8C72.6345 9.80371 72.4758 9.8715 72.3588 9.99216C72.2417 10.1128 72.176 10.2765 72.176 10.4471V13.8168L84.896 16.3986C84.9739 16.4151 85.0541 16.4151 85.132 16.3986L97.856 13.8168V10.4471C97.856 10.2786 97.7919 10.1168 97.6775 9.99648C97.563 9.87617 97.4074 9.80695 97.244 9.80371Z" fill="black"/>
<path d="M97.78 5.48955H90.316V4.19862C90.3149 3.66515 90.1089 3.15385 89.7431 2.77663C89.3773 2.39941 88.8814 2.187 88.364 2.18591H81.696C81.1786 2.187 80.6827 2.39941 80.3169 2.77663C79.9511 3.15385 79.7451 3.66515 79.744 4.19862V5.48955H72.284C72.1206 5.48955 71.9639 5.55647 71.8484 5.67559C71.7329 5.7947 71.668 5.95626 71.668 6.12471V12.4804C71.668 12.6274 71.7175 12.7697 71.8079 12.8833C71.8984 12.9969 72.0242 13.0746 72.164 13.1032L84.912 15.6727C84.9899 15.6891 85.0701 15.6891 85.148 15.6727L97.896 13.0867C98.0343 13.0596 98.1595 12.9849 98.2511 12.8747C98.3427 12.7645 98.3952 12.6254 98.4 12.4804V6.12471C98.4 6.04095 98.3839 5.95802 98.3527 5.88069C98.3215 5.80336 98.2758 5.73316 98.2182 5.67412C98.1605 5.61509 98.0922 5.56839 98.017 5.53671C97.9418 5.50504 97.8612 5.48901 97.78 5.48955ZM81.228 4.19862C81.228 4.07026 81.2772 3.94709 81.3648 3.85593C81.4525 3.76478 81.5715 3.71303 81.696 3.71194H88.364C88.4878 3.71302 88.6062 3.7642 88.6938 3.85447C88.7813 3.94473 88.831 4.06685 88.832 4.19449V5.48543H81.232L81.228 4.19862Z" fill="#407BFF"/>
<path opacity="0.6" d="M97.78 5.48955H90.316V4.19862C90.3149 3.66515 90.1089 3.15385 89.7431 2.77663C89.3773 2.39941 88.8814 2.187 88.364 2.18591H81.696C81.1786 2.187 80.6827 2.39941 80.3169 2.77663C79.9511 3.15385 79.7451 3.66515 79.744 4.19862V5.48955H72.284C72.1206 5.48955 71.9639 5.55647 71.8484 5.67559C71.7329 5.7947 71.668 5.95626 71.668 6.12471V12.4804C71.668 12.6274 71.7175 12.7697 71.8079 12.8833C71.8984 12.9969 72.0242 13.0746 72.164 13.1032L84.912 15.6727C84.9899 15.6891 85.0701 15.6891 85.148 15.6727L97.896 13.0867C98.0343 13.0596 98.1595 12.9849 98.2511 12.8747C98.3427 12.7645 98.3952 12.6254 98.4 12.4804V6.12471C98.4 6.04095 98.3839 5.95802 98.3527 5.88069C98.3215 5.80336 98.2758 5.73316 98.2182 5.67412C98.1605 5.61509 98.0922 5.56839 98.017 5.53671C97.9418 5.50504 97.8612 5.48901 97.78 5.48955ZM81.228 4.19862C81.228 4.07026 81.2772 3.94709 81.3648 3.85593C81.4525 3.76478 81.5715 3.71303 81.696 3.71194H88.364C88.4878 3.71302 88.6062 3.7642 88.6938 3.85447C88.7813 3.94473 88.831 4.06685 88.832 4.19449V5.48543H81.232L81.228 4.19862Z" fill="white"/>
<path d="M86.348 13.9569H83.716C83.389 13.9569 83.124 14.2302 83.124 14.5674V16.2831C83.124 16.6202 83.389 16.8935 83.716 16.8935H86.348C86.6749 16.8935 86.94 16.6202 86.94 16.2831V14.5674C86.94 14.2302 86.6749 13.9569 86.348 13.9569Z" fill="#407BFF"/>
<path opacity="0.3" d="M86.348 13.9569H83.716C83.389 13.9569 83.124 14.2302 83.124 14.5674V16.2831C83.124 16.6202 83.389 16.8935 83.716 16.8935H86.348C86.6749 16.8935 86.94 16.6202 86.94 16.2831V14.5674C86.94 14.2302 86.6749 13.9569 86.348 13.9569Z" fill="white"/>
<path d="M59.184 85.6761H34.748C34.4033 85.6761 34.124 85.9642 34.124 86.3195V96.8285C34.124 97.1838 34.4033 97.4719 34.748 97.4719H59.184C59.5286 97.4719 59.808 97.1838 59.808 96.8285V86.3195C59.808 85.9642 59.5286 85.6761 59.184 85.6761Z" fill="#407BFF"/>
<path opacity="0.6" d="M59.184 85.6761H34.748C34.4033 85.6761 34.124 85.9642 34.124 86.3195V96.8285C34.124 97.1838 34.4033 97.4719 34.748 97.4719H59.184C59.5286 97.4719 59.808 97.1838 59.808 96.8285V86.3195C59.808 85.9642 59.5286 85.6761 59.184 85.6761Z" fill="white"/>
<path opacity="0.1" d="M59.2 85.6761H34.748C34.5825 85.6761 34.4238 85.7439 34.3067 85.8646C34.1897 85.9852 34.124 86.1489 34.124 86.3195V89.6891L46.844 92.271C46.9232 92.2875 47.0048 92.2875 47.084 92.271L59.808 89.6891V86.3195C59.808 86.1517 59.7445 85.9905 59.6309 85.8703C59.5173 85.7501 59.3627 85.6804 59.2 85.6761Z" fill="black"/>
<path d="M59.712 81.362H52.248V80.071C52.2469 79.5376 52.041 79.0262 51.6751 78.649C51.3093 78.2718 50.8134 78.0594 50.296 78.0583H43.632C43.1146 78.0594 42.6187 78.2718 42.2529 78.649C41.8871 79.0262 41.6811 79.5376 41.68 80.071V81.362H34.216C34.0526 81.362 33.896 81.4289 33.7804 81.548C33.6649 81.6671 33.6 81.8287 33.6 81.9971V88.3528C33.6008 88.4996 33.6505 88.6415 33.7409 88.7549C33.8312 88.8683 33.9566 88.9463 34.096 88.9756L46.844 91.5616C46.9236 91.574 47.0045 91.574 47.084 91.5616L59.832 88.9756C59.9714 88.9463 60.0968 88.8683 60.1872 88.7549C60.2775 88.6415 60.3272 88.4996 60.328 88.3528V81.9971C60.328 81.8287 60.2631 81.6671 60.1476 81.548C60.0321 81.4289 59.8754 81.362 59.712 81.362ZM43.16 80.071C43.1621 79.9426 43.2125 79.8201 43.3005 79.7292C43.3886 79.6384 43.5075 79.5865 43.632 79.5844H50.296C50.4205 79.5865 50.5394 79.6384 50.6275 79.7292C50.7156 79.8201 50.7659 79.9426 50.768 80.071V81.362H43.168L43.16 80.071Z" fill="#407BFF"/>
<path opacity="0.6" d="M59.712 81.362H52.248V80.071C52.2469 79.5376 52.041 79.0262 51.6751 78.649C51.3093 78.2718 50.8134 78.0594 50.296 78.0583H43.632C43.1146 78.0594 42.6187 78.2718 42.2529 78.649C41.8871 79.0262 41.6811 79.5376 41.68 80.071V81.362H34.216C34.0526 81.362 33.896 81.4289 33.7804 81.548C33.6649 81.6671 33.6 81.8287 33.6 81.9971V88.3528C33.6008 88.4996 33.6505 88.6415 33.7409 88.7549C33.8312 88.8683 33.9566 88.9463 34.096 88.9756L46.844 91.5616C46.9236 91.574 47.0045 91.574 47.084 91.5616L59.832 88.9756C59.9714 88.9463 60.0968 88.8683 60.1872 88.7549C60.2775 88.6415 60.3272 88.4996 60.328 88.3528V81.9971C60.328 81.8287 60.2631 81.6671 60.1476 81.548C60.0321 81.4289 59.8754 81.362 59.712 81.362ZM43.16 80.071C43.1621 79.9426 43.2125 79.8201 43.3005 79.7292C43.3886 79.6384 43.5075 79.5865 43.632 79.5844H50.296C50.4205 79.5865 50.5394 79.6384 50.6275 79.7292C50.7156 79.8201 50.7659 79.9426 50.768 80.071V81.362H43.168L43.16 80.071Z" fill="white"/>
<path d="M48.28 89.8253H45.648C45.321 89.8253 45.056 90.0985 45.056 90.4357V92.1514C45.056 92.4885 45.321 92.7618 45.648 92.7618H48.28C48.6069 92.7618 48.872 92.4885 48.872 92.1514V90.4357C48.872 90.0985 48.6069 89.8253 48.28 89.8253Z" fill="#407BFF"/>
<path opacity="0.3" d="M48.28 89.8253H45.648C45.321 89.8253 45.056 90.0985 45.056 90.4357V92.1514C45.056 92.4885 45.321 92.7618 45.648 92.7618H48.28C48.6069 92.7618 48.872 92.4885 48.872 92.1514V90.4357C48.872 90.0985 48.6069 89.8253 48.28 89.8253Z" fill="white"/>
<path d="M59.184 9.80371H34.748C34.4033 9.80371 34.124 10.0918 34.124 10.4471V20.9561C34.124 21.3114 34.4033 21.5995 34.748 21.5995H59.184C59.5286 21.5995 59.808 21.3114 59.808 20.9561V10.4471C59.808 10.0918 59.5286 9.80371 59.184 9.80371Z" fill="#407BFF"/>
<path opacity="0.6" d="M59.184 9.80371H34.748C34.4033 9.80371 34.124 10.0918 34.124 10.4471V20.9561C34.124 21.3114 34.4033 21.5995 34.748 21.5995H59.184C59.5286 21.5995 59.808 21.3114 59.808 20.9561V10.4471C59.808 10.0918 59.5286 9.80371 59.184 9.80371Z" fill="white"/>
<path opacity="0.1" d="M59.2 9.80371H34.748C34.5825 9.80371 34.4238 9.8715 34.3067 9.99216C34.1897 10.1128 34.124 10.2765 34.124 10.4471V13.8168L46.844 16.3986C46.9232 16.4152 47.0048 16.4152 47.084 16.3986L59.808 13.8168V10.4471C59.808 10.2793 59.7445 10.1181 59.6309 9.9979C59.5173 9.8777 59.3627 9.80801 59.2 9.80371Z" fill="black"/>
<path d="M59.712 5.48962H52.248V4.19868C52.2469 3.66521 52.041 3.15391 51.6751 2.77669C51.3093 2.39947 50.8134 2.18706 50.296 2.18597H43.632C43.1146 2.18706 42.6187 2.39947 42.2529 2.77669C41.8871 3.15391 41.6811 3.66521 41.68 4.19868V5.48962H34.216C34.0526 5.48962 33.896 5.55653 33.7804 5.67565C33.6649 5.79476 33.6 5.95632 33.6 6.12477V12.4805C33.6001 12.6274 33.6495 12.7698 33.74 12.8834C33.8304 12.9969 33.9562 13.0746 34.096 13.1033L46.844 15.6728C46.9232 15.6893 47.0048 15.6893 47.084 15.6728L59.832 13.0868C59.9718 13.0581 60.0976 12.9804 60.1881 12.8669C60.2785 12.7533 60.328 12.6109 60.328 12.464V6.12477C60.328 5.95632 60.2631 5.79476 60.1476 5.67565C60.0321 5.55653 59.8754 5.48962 59.712 5.48962ZM43.16 4.19868C43.1611 4.06994 43.2111 3.94678 43.2994 3.85574C43.3877 3.7647 43.5071 3.71308 43.632 3.712H50.296C50.4202 3.71306 50.539 3.76411 50.6272 3.85427C50.7154 3.94442 50.7659 4.06653 50.768 4.19455V5.48549H43.168L43.16 4.19868Z" fill="#407BFF"/>
<path opacity="0.6" d="M59.712 5.48962H52.248V4.19868C52.2469 3.66521 52.041 3.15391 51.6751 2.77669C51.3093 2.39947 50.8134 2.18706 50.296 2.18597H43.632C43.1146 2.18706 42.6187 2.39947 42.2529 2.77669C41.8871 3.15391 41.6811 3.66521 41.68 4.19868V5.48962H34.216C34.0526 5.48962 33.896 5.55653 33.7804 5.67565C33.6649 5.79476 33.6 5.95632 33.6 6.12477V12.4805C33.6001 12.6274 33.6495 12.7698 33.74 12.8834C33.8304 12.9969 33.9562 13.0746 34.096 13.1033L46.844 15.6728C46.9232 15.6893 47.0048 15.6893 47.084 15.6728L59.832 13.0868C59.9718 13.0581 60.0976 12.9804 60.1881 12.8669C60.2785 12.7533 60.328 12.6109 60.328 12.464V6.12477C60.328 5.95632 60.2631 5.79476 60.1476 5.67565C60.0321 5.55653 59.8754 5.48962 59.712 5.48962ZM43.16 4.19868C43.1611 4.06994 43.2111 3.94678 43.2994 3.85574C43.3877 3.7647 43.5071 3.71308 43.632 3.712H50.296C50.4202 3.71306 50.539 3.76411 50.6272 3.85427C50.7154 3.94442 50.7659 4.06653 50.768 4.19455V5.48549H43.168L43.16 4.19868Z" fill="white"/>
<path d="M48.28 13.9569H45.648C45.321 13.9569 45.056 14.2302 45.056 14.5674V16.2831C45.056 16.6202 45.321 16.8935 45.648 16.8935H48.28C48.6069 16.8935 48.872 16.6202 48.872 16.2831V14.5674C48.872 14.2302 48.6069 13.9569 48.28 13.9569Z" fill="#407BFF"/>
<path opacity="0.3" d="M48.28 13.9569H45.648C45.321 13.9569 45.056 14.2302 45.056 14.5674V16.2831C45.056 16.6202 45.321 16.8935 45.648 16.8935H48.28C48.6069 16.8935 48.872 16.6202 48.872 16.2831V14.5674C48.872 14.2302 48.6069 13.9569 48.28 13.9569Z" fill="white"/>
<path d="M56 59.5357H34.748C34.5814 59.5357 34.4217 59.4675 34.3039 59.346C34.1862 59.2246 34.12 59.0599 34.12 58.8881V48.3833C34.1206 48.2967 34.1383 48.2111 34.172 48.1317C34.1883 48.0947 34.207 48.0589 34.228 48.0245C34.2503 47.9892 34.2772 47.9573 34.308 47.9296C34.4245 47.8088 34.5828 47.7406 34.748 47.7399H54.864C54.6966 49.1793 54.6418 50.6303 54.7 52.0788C54.7 52.3139 54.7 52.5489 54.736 52.7799C54.764 53.213 54.796 53.6502 54.844 54.0832C55.0499 55.9363 55.4372 57.7631 56 59.5357Z" fill="#407BFF"/>
<path opacity="0.6" d="M56 59.5357H34.748C34.5814 59.5357 34.4217 59.4675 34.3039 59.346C34.1862 59.2246 34.12 59.0599 34.12 58.8881V48.3833C34.1206 48.2967 34.1383 48.2111 34.172 48.1317C34.1883 48.0947 34.207 48.0589 34.228 48.0245C34.2503 47.9892 34.2772 47.9573 34.308 47.9296C34.4245 47.8088 34.5828 47.7406 34.748 47.7399H54.864C54.6966 49.1793 54.6418 50.6303 54.7 52.0788C54.7 52.3139 54.7 52.5489 54.736 52.7799C54.764 53.213 54.796 53.6502 54.844 54.0832C55.0499 55.9363 55.4372 57.7631 56 59.5357Z" fill="white"/>
<path opacity="0.1" d="M54.864 47.7399C54.6966 49.1793 54.6418 50.6303 54.7 52.0788C54.7 52.3139 54.7 52.5489 54.736 52.7799L48.872 53.9677L47.08 54.3307C47.0026 54.3513 46.9214 54.3513 46.844 54.3307L45.056 53.9719L34.124 51.7529V48.3792C34.1252 48.2944 34.1415 48.2105 34.172 48.1317C34.1882 48.0947 34.2069 48.0589 34.228 48.0245C34.2502 47.9892 34.2772 47.9573 34.308 47.9296C34.4245 47.8088 34.5827 47.7406 34.748 47.7399H54.864Z" fill="black"/>
<path d="M55.7 43.4258H52.252V42.1348C52.2499 41.601 52.043 41.0897 51.6765 40.7126C51.3101 40.3355 50.8138 40.1232 50.296 40.1221H43.632C43.1143 40.1221 42.6178 40.3342 42.2517 40.7116C41.8857 41.0891 41.68 41.601 41.68 42.1348V43.4258H34.216C34.1351 43.4258 34.055 43.4422 33.9803 43.4741C33.9055 43.506 33.8376 43.5528 33.7804 43.6118C33.7232 43.6708 33.6779 43.7408 33.6469 43.8179C33.6159 43.8949 33.6 43.9775 33.6 44.0609V50.4125C33.6001 50.5605 33.65 50.7039 33.7411 50.8183C33.8323 50.9326 33.9592 51.0108 34.1 51.0394H34.124L45.056 53.2625L46.844 53.6213C46.9219 53.6377 47.0021 53.6377 47.08 53.6213L48.872 53.2583L54.7 52.0746C54.6418 50.6261 54.6967 49.1752 54.864 47.7358C55.0301 46.2783 55.3097 44.837 55.7 43.4258ZM43.16 42.1348C43.1621 42.0068 43.2126 41.8847 43.3008 41.7945C43.389 41.7044 43.5078 41.6533 43.632 41.6523H50.296C50.4198 41.6534 50.5382 41.7045 50.6258 41.7948C50.7133 41.8851 50.763 42.0072 50.764 42.1348V43.4258H43.164L43.16 42.1348Z" fill="#407BFF"/>
<path opacity="0.6" d="M55.7 43.4258H52.252V42.1348C52.2499 41.601 52.043 41.0897 51.6765 40.7126C51.3101 40.3355 50.8138 40.1232 50.296 40.1221H43.632C43.1143 40.1221 42.6178 40.3342 42.2517 40.7116C41.8857 41.0891 41.68 41.601 41.68 42.1348V43.4258H34.216C34.1351 43.4258 34.055 43.4422 33.9803 43.4741C33.9055 43.506 33.8376 43.5528 33.7804 43.6118C33.7232 43.6708 33.6779 43.7408 33.6469 43.8179C33.6159 43.8949 33.6 43.9775 33.6 44.0609V50.4125C33.6001 50.5605 33.65 50.7039 33.7411 50.8183C33.8323 50.9326 33.9592 51.0108 34.1 51.0394H34.124L45.056 53.2625L46.844 53.6213C46.9219 53.6377 47.0021 53.6377 47.08 53.6213L48.872 53.2583L54.7 52.0746C54.6418 50.6261 54.6967 49.1752 54.864 47.7358C55.0301 46.2783 55.3097 44.837 55.7 43.4258ZM43.16 42.1348C43.1621 42.0068 43.2126 41.8847 43.3008 41.7945C43.389 41.7044 43.5078 41.6533 43.632 41.6523H50.296C50.4198 41.6534 50.5382 41.7045 50.6258 41.7948C50.7133 41.8851 50.763 42.0072 50.764 42.1348V43.4258H43.164L43.16 42.1348Z" fill="white"/>
<path d="M48.28 51.8891H45.648C45.321 51.8891 45.056 52.1624 45.056 52.4995V54.2152C45.056 54.5523 45.321 54.8256 45.648 54.8256H48.28C48.6069 54.8256 48.872 54.5523 48.872 54.2152V52.4995C48.872 52.1624 48.6069 51.8891 48.28 51.8891Z" fill="#407BFF"/>
<path opacity="0.3" d="M48.28 51.8891H45.648C45.321 51.8891 45.056 52.1624 45.056 52.4995V54.2152C45.056 54.5523 45.321 54.8256 45.648 54.8256H48.28C48.6069 54.8256 48.872 54.5523 48.872 54.2152V52.4995C48.872 52.1624 48.6069 51.8891 48.28 51.8891Z" fill="white"/>
<path d="M110.876 97.4677H135.312C135.657 97.4677 135.936 97.1797 135.936 96.8243V86.3154C135.936 85.96 135.657 85.672 135.312 85.672H110.876C110.531 85.672 110.252 85.96 110.252 86.3154V96.8243C110.252 97.1797 110.531 97.4677 110.876 97.4677Z" fill="#407BFF"/>
<path opacity="0.6" d="M110.876 97.4677H135.312C135.657 97.4677 135.936 97.1797 135.936 96.8243V86.3154C135.936 85.96 135.657 85.672 135.312 85.672H110.876C110.531 85.672 110.252 85.96 110.252 86.3154V96.8243C110.252 97.1797 110.531 97.4677 110.876 97.4677Z" fill="white"/>
<path opacity="0.1" d="M110.88 85.6761H135.312C135.477 85.6761 135.636 85.7439 135.753 85.8646C135.87 85.9852 135.936 86.1489 135.936 86.3195V89.6891L123.2 92.271C123.122 92.2875 123.042 92.2875 122.964 92.271L110.24 89.6891V86.3195C110.24 86.2336 110.257 86.1486 110.289 86.0694C110.321 85.9903 110.369 85.9186 110.428 85.8586C110.488 85.7987 110.559 85.7516 110.636 85.7203C110.714 85.6889 110.797 85.6739 110.88 85.6761Z" fill="black"/>
<path d="M110.348 81.362H117.812V80.071C117.813 79.5376 118.019 79.0262 118.385 78.649C118.751 78.2718 119.247 78.0594 119.764 78.0583H126.432C126.949 78.0594 127.445 78.2718 127.811 78.649C128.177 79.0262 128.383 79.5376 128.384 80.071V81.362H135.844C135.925 81.362 136.005 81.3784 136.08 81.4103C136.154 81.4422 136.222 81.489 136.28 81.548C136.337 81.607 136.382 81.677 136.413 81.7541C136.444 81.8311 136.46 81.9137 136.46 81.9971V88.3528C136.459 88.4996 136.409 88.6415 136.319 88.7549C136.229 88.8683 136.103 88.9463 135.964 88.9756L123.2 91.5616C123.12 91.574 123.04 91.574 122.96 91.5616L110.212 88.9756C110.073 88.9463 109.947 88.8683 109.857 88.7549C109.767 88.6415 109.717 88.4996 109.716 88.3528V81.9971C109.716 81.9123 109.732 81.8283 109.764 81.7502C109.796 81.672 109.843 81.6013 109.902 81.5421C109.961 81.4829 110.031 81.4364 110.107 81.4055C110.184 81.3746 110.266 81.3598 110.348 81.362ZM126.9 80.071C126.899 79.943 126.849 79.8204 126.762 79.7295C126.675 79.6386 126.556 79.5865 126.432 79.5844H119.764C119.639 79.5865 119.521 79.6384 119.433 79.7292C119.344 79.8201 119.294 79.9426 119.292 80.071V81.362H126.892L126.9 80.071Z" fill="#407BFF"/>
<path opacity="0.6" d="M110.348 81.362H117.812V80.071C117.813 79.5376 118.019 79.0262 118.385 78.649C118.751 78.2718 119.247 78.0594 119.764 78.0583H126.432C126.949 78.0594 127.445 78.2718 127.811 78.649C128.177 79.0262 128.383 79.5376 128.384 80.071V81.362H135.844C135.925 81.362 136.005 81.3784 136.08 81.4103C136.154 81.4422 136.222 81.489 136.28 81.548C136.337 81.607 136.382 81.677 136.413 81.7541C136.444 81.8311 136.46 81.9137 136.46 81.9971V88.3528C136.459 88.4996 136.409 88.6415 136.319 88.7549C136.229 88.8683 136.103 88.9463 135.964 88.9756L123.2 91.5616C123.12 91.574 123.04 91.574 122.96 91.5616L110.212 88.9756C110.073 88.9463 109.947 88.8683 109.857 88.7549C109.767 88.6415 109.717 88.4996 109.716 88.3528V81.9971C109.716 81.9123 109.732 81.8283 109.764 81.7502C109.796 81.672 109.843 81.6013 109.902 81.5421C109.961 81.4829 110.031 81.4364 110.107 81.4055C110.184 81.3746 110.266 81.3598 110.348 81.362ZM126.9 80.071C126.899 79.943 126.849 79.8204 126.762 79.7295C126.675 79.6386 126.556 79.5865 126.432 79.5844H119.764C119.639 79.5865 119.521 79.6384 119.433 79.7292C119.344 79.8201 119.294 79.9426 119.292 80.071V81.362H126.892L126.9 80.071Z" fill="white"/>
<path d="M121.78 92.7618H124.412C124.739 92.7618 125.004 92.4886 125.004 92.1514V90.4357C125.004 90.0986 124.739 89.8253 124.412 89.8253H121.78C121.453 89.8253 121.188 90.0986 121.188 90.4357V92.1514C121.188 92.4886 121.453 92.7618 121.78 92.7618Z" fill="#407BFF"/>
<path opacity="0.3" d="M121.78 92.7618H124.412C124.739 92.7618 125.004 92.4886 125.004 92.1514V90.4357C125.004 90.0986 124.739 89.8253 124.412 89.8253H121.78C121.453 89.8253 121.188 90.0986 121.188 90.4357V92.1514C121.188 92.4886 121.453 92.7618 121.78 92.7618Z" fill="white"/>
<path d="M110.876 21.5953L135.312 21.5953C135.657 21.5953 135.936 21.3073 135.936 20.9519V10.443C135.936 10.0876 135.657 9.79956 135.312 9.79956L110.876 9.79956C110.531 9.79956 110.252 10.0876 110.252 10.443V20.9519C110.252 21.3073 110.531 21.5953 110.876 21.5953Z" fill="#407BFF"/>
<path opacity="0.6" d="M110.876 21.5953L135.312 21.5953C135.657 21.5953 135.936 21.3073 135.936 20.9519V10.443C135.936 10.0876 135.657 9.79956 135.312 9.79956L110.876 9.79956C110.531 9.79956 110.252 10.0876 110.252 10.443V20.9519C110.252 21.3073 110.531 21.5953 110.876 21.5953Z" fill="white"/>
<path opacity="0.1" d="M110.88 9.80371H135.312C135.477 9.80371 135.636 9.8715 135.753 9.99216C135.87 10.1128 135.936 10.2765 135.936 10.4471V13.8168L123.2 16.3986C123.122 16.4151 123.042 16.4151 122.964 16.3986L110.256 13.8168V10.4471C110.256 10.2765 110.322 10.1128 110.439 9.99216C110.556 9.8715 110.714 9.80371 110.88 9.80371Z" fill="black"/>
<path d="M110.348 5.48956H117.812V4.19863C117.813 3.66516 118.019 3.15385 118.385 2.77663C118.751 2.39941 119.247 2.18701 119.764 2.18592H126.432C126.69 2.18429 126.945 2.23512 127.183 2.33549C127.422 2.43585 127.639 2.58378 127.821 2.77079C128.004 2.95779 128.15 3.18019 128.249 3.42522C128.348 3.67025 128.399 3.93308 128.4 4.19863V5.48956H135.86C136.023 5.48956 136.18 5.55648 136.296 5.6756C136.411 5.79471 136.476 5.95627 136.476 6.12472V12.4804C136.476 12.6274 136.427 12.7697 136.336 12.8833C136.246 12.9969 136.12 13.0746 135.98 13.1032L123.2 15.6727C123.121 15.6893 123.039 15.6893 122.96 15.6727L110.212 13.0867C110.072 13.0581 109.946 12.9804 109.856 12.8668C109.766 12.7532 109.716 12.6109 109.716 12.4639V6.12472C109.716 6.0399 109.732 5.95594 109.764 5.87778C109.796 5.79963 109.843 5.72886 109.902 5.66966C109.961 5.61046 110.031 5.56402 110.107 5.53309C110.184 5.50216 110.266 5.48736 110.348 5.48956ZM126.9 4.19863C126.9 4.07026 126.851 3.94709 126.763 3.85594C126.676 3.76479 126.556 3.71304 126.432 3.71195H119.764C119.64 3.71301 119.521 3.76406 119.433 3.85421C119.345 3.94436 119.294 4.06648 119.292 4.1945V5.48544H126.892L126.9 4.19863Z" fill="#407BFF"/>
<path opacity="0.6" d="M110.348 5.48956H117.812V4.19863C117.813 3.66516 118.019 3.15385 118.385 2.77663C118.751 2.39941 119.247 2.18701 119.764 2.18592H126.432C126.69 2.18429 126.945 2.23512 127.183 2.33549C127.422 2.43585 127.639 2.58378 127.821 2.77079C128.004 2.95779 128.15 3.18019 128.249 3.42522C128.348 3.67025 128.399 3.93308 128.4 4.19863V5.48956H135.86C136.023 5.48956 136.18 5.55648 136.296 5.6756C136.411 5.79471 136.476 5.95627 136.476 6.12472V12.4804C136.476 12.6274 136.427 12.7697 136.336 12.8833C136.246 12.9969 136.12 13.0746 135.98 13.1032L123.2 15.6727C123.121 15.6893 123.039 15.6893 122.96 15.6727L110.212 13.0867C110.072 13.0581 109.946 12.9804 109.856 12.8668C109.766 12.7532 109.716 12.6109 109.716 12.4639V6.12472C109.716 6.0399 109.732 5.95594 109.764 5.87778C109.796 5.79963 109.843 5.72886 109.902 5.66966C109.961 5.61046 110.031 5.56402 110.107 5.53309C110.184 5.50216 110.266 5.48736 110.348 5.48956ZM126.9 4.19863C126.9 4.07026 126.851 3.94709 126.763 3.85594C126.676 3.76479 126.556 3.71304 126.432 3.71195H119.764C119.64 3.71301 119.521 3.76406 119.433 3.85421C119.345 3.94436 119.294 4.06648 119.292 4.1945V5.48544H126.892L126.9 4.19863Z" fill="white"/>
<path d="M121.78 16.8894H124.412C124.739 16.8894 125.004 16.6161 125.004 16.279V14.5632C125.004 14.2261 124.739 13.9528 124.412 13.9528H121.78C121.453 13.9528 121.188 14.2261 121.188 14.5632V16.279C121.188 16.6161 121.453 16.8894 121.78 16.8894Z" fill="#407BFF"/>
<path opacity="0.3" d="M121.78 16.8894H124.412C124.739 16.8894 125.004 16.6161 125.004 16.279V14.5632C125.004 14.2261 124.739 13.9528 124.412 13.9528H121.78C121.453 13.9528 121.188 14.2261 121.188 14.5632V16.279C121.188 16.6161 121.453 16.8894 121.78 16.8894Z" fill="white"/>
<path d="M114.076 59.5357H135.316C135.482 59.5346 135.641 59.4659 135.757 59.3446C135.874 59.2233 135.94 59.0592 135.94 58.8881V48.3833C135.939 48.2967 135.922 48.2111 135.888 48.1317C135.873 48.0939 135.855 48.0579 135.832 48.0245C135.81 47.9892 135.783 47.9573 135.752 47.9296C135.695 47.8694 135.626 47.8217 135.551 47.7891C135.475 47.7565 135.394 47.7398 135.312 47.7399H115.2C115.367 49.1793 115.422 50.6303 115.364 52.0788C115.364 52.3139 115.364 52.5489 115.328 52.7799C115.304 53.213 115.268 53.6502 115.22 54.0832C115.018 55.9358 114.635 57.7626 114.076 59.5357Z" fill="#407BFF"/>
<path opacity="0.6" d="M114.076 59.5357H135.316C135.482 59.5346 135.641 59.4659 135.757 59.3446C135.874 59.2233 135.94 59.0592 135.94 58.8881V48.3833C135.939 48.2967 135.922 48.2111 135.888 48.1317C135.873 48.0939 135.855 48.0579 135.832 48.0245C135.81 47.9892 135.783 47.9573 135.752 47.9296C135.695 47.8694 135.626 47.8217 135.551 47.7891C135.475 47.7565 135.394 47.7398 135.312 47.7399H115.2C115.367 49.1793 115.422 50.6303 115.364 52.0788C115.364 52.3139 115.364 52.5489 115.328 52.7799C115.304 53.213 115.268 53.6502 115.22 54.0832C115.018 55.9358 114.635 57.7626 114.076 59.5357Z" fill="white"/>
<path opacity="0.1" d="M115.2 47.7399C115.367 49.1793 115.422 50.6303 115.364 52.0788C115.364 52.3139 115.364 52.5489 115.328 52.7799L121.2 53.9677L122.992 54.3307C123.069 54.3513 123.151 54.3513 123.228 54.3307L125.016 53.9719L135.948 51.7529V48.3792C135.947 48.2944 135.93 48.2105 135.9 48.1317C135.885 48.0939 135.867 48.0579 135.844 48.0245C135.822 47.9892 135.795 47.9573 135.764 47.9296C135.707 47.8694 135.638 47.8217 135.563 47.7891C135.487 47.7565 135.406 47.7398 135.324 47.7399H115.2Z" fill="black"/>
<path d="M114.36 43.4258H117.812V42.1348C117.813 41.6014 118.019 41.0901 118.385 40.7128C118.751 40.3356 119.247 40.1232 119.764 40.1221H126.428C126.946 40.1221 127.443 40.3341 127.81 40.7114C128.176 41.0887 128.383 41.6007 128.384 42.1348V43.4258H135.844C136.007 43.4258 136.164 43.4927 136.28 43.6118C136.395 43.7309 136.46 43.8925 136.46 44.0609V50.4125C136.46 50.5599 136.411 50.7029 136.32 50.8171C136.23 50.9314 136.104 51.0099 135.964 51.0394H135.936L125.004 53.2625L123.2 53.6172C123.122 53.6336 123.042 53.6336 122.964 53.6172L121.172 53.2542L115.344 52.0705C115.457 49.1471 115.12 46.2236 114.344 43.4093L114.36 43.4258ZM126.9 42.1348C126.898 42.0068 126.847 41.8847 126.759 41.7945C126.671 41.7044 126.552 41.6533 126.428 41.6523H119.764C119.64 41.6534 119.522 41.7045 119.434 41.7948C119.347 41.8851 119.297 42.0072 119.296 42.1348V43.4258H126.896L126.9 42.1348Z" fill="#407BFF"/>
<path opacity="0.6" d="M114.36 43.4258H117.812V42.1348C117.813 41.6014 118.019 41.0901 118.385 40.7128C118.751 40.3356 119.247 40.1232 119.764 40.1221H126.428C126.946 40.1221 127.443 40.3341 127.81 40.7114C128.176 41.0887 128.383 41.6007 128.384 42.1348V43.4258H135.844C136.007 43.4258 136.164 43.4927 136.28 43.6118C136.395 43.7309 136.46 43.8925 136.46 44.0609V50.4125C136.46 50.5599 136.411 50.7029 136.32 50.8171C136.23 50.9314 136.104 51.0099 135.964 51.0394H135.936L125.004 53.2625L123.2 53.6172C123.122 53.6336 123.042 53.6336 122.964 53.6172L121.172 53.2542L115.344 52.0705C115.457 49.1471 115.12 46.2236 114.344 43.4093L114.36 43.4258ZM126.9 42.1348C126.898 42.0068 126.847 41.8847 126.759 41.7945C126.671 41.7044 126.552 41.6533 126.428 41.6523H119.764C119.64 41.6534 119.522 41.7045 119.434 41.7948C119.347 41.8851 119.297 42.0072 119.296 42.1348V43.4258H126.896L126.9 42.1348Z" fill="white"/>
<path d="M121.78 54.8297H124.412C124.739 54.8297 125.004 54.5564 125.004 54.2193V52.5036C125.004 52.1664 124.739 51.8931 124.412 51.8931H121.78C121.453 51.8931 121.188 52.1664 121.188 52.5036V54.2193C121.188 54.5564 121.453 54.8297 121.78 54.8297Z" fill="#407BFF"/>
<path opacity="0.3" d="M121.78 54.8297H124.412C124.739 54.8297 125.004 54.5564 125.004 54.2193V52.5036C125.004 52.1664 124.739 51.8931 124.412 51.8931H121.78C121.453 51.8931 121.188 52.1664 121.188 52.5036V54.2193C121.188 54.5564 121.453 54.8297 121.78 54.8297Z" fill="white"/>
<path d="M103.88 45.1786H68.768C68.2731 45.1786 67.872 45.5923 67.872 46.1025V61.2019C67.872 61.7121 68.2731 62.1258 68.768 62.1258H103.88C104.375 62.1258 104.776 61.7121 104.776 61.2019V46.1025C104.776 45.5923 104.375 45.1786 103.88 45.1786Z" fill="#407BFF"/>
<path d="M91.112 42.4813H81.532C80.8056 42.4802 80.1093 42.1822 79.5957 41.6526C79.0821 41.123 78.7931 40.405 78.792 39.6561V37.1196C78.7931 36.3706 79.0821 35.6526 79.5957 35.123C80.1093 34.5934 80.8056 34.2954 81.532 34.2943H91.112C91.8387 34.2943 92.5356 34.592 93.0495 35.1218C93.5633 35.6517 93.852 36.3703 93.852 37.1196V39.6437C93.8536 40.0157 93.7839 40.3844 93.6469 40.7286C93.5099 41.0728 93.3083 41.3858 93.0537 41.6494C92.7991 41.9131 92.4965 42.1223 92.1633 42.265C91.8301 42.4078 91.4728 42.4813 91.112 42.4813ZM81.532 36.3689C81.3392 36.371 81.1548 36.4507 81.0181 36.5909C80.8814 36.7311 80.8031 36.9208 80.8 37.1196V39.6437C80.8 39.846 80.878 40.0401 81.0167 40.1832C81.1555 40.3263 81.3437 40.4067 81.54 40.4067H91.12C91.3163 40.4067 91.5045 40.3263 91.6433 40.1832C91.782 40.0401 91.86 39.846 91.86 39.6437V37.1196C91.86 36.9172 91.782 36.7231 91.6433 36.58C91.5045 36.4369 91.3163 36.3565 91.12 36.3565L81.532 36.3689Z" fill="#407BFF"/>
<path opacity="0.2" d="M103.876 45.1786H68.772C68.654 45.1781 68.537 45.2016 68.4279 45.2478C68.3187 45.294 68.2195 45.3619 68.1358 45.4478C68.0522 45.5336 67.9858 45.6356 67.9406 45.748C67.8953 45.8604 67.872 45.9808 67.872 46.1025V50.9487L86.152 54.6606C86.264 54.6857 86.38 54.6857 86.492 54.6606L104.776 50.9487V46.1025C104.776 45.9808 104.753 45.8604 104.707 45.748C104.662 45.6356 104.596 45.5336 104.512 45.4478C104.429 45.3619 104.329 45.294 104.22 45.2478C104.111 45.2016 103.994 45.1781 103.876 45.1786Z" fill="black"/>
<path d="M104.8 49.9052L86.484 53.6172C86.3702 53.6378 86.2538 53.6378 86.14 53.6172L67.824 49.9052C67.6227 49.8643 67.4415 49.7527 67.3109 49.5896C67.1804 49.4264 67.1087 49.2217 67.108 49.0102V39.8953C67.108 39.7756 67.1308 39.6571 67.1753 39.5465C67.2197 39.4359 67.2848 39.3354 67.3669 39.2508C67.449 39.1662 67.5464 39.099 67.6537 39.0532C67.7609 39.0074 67.8759 38.9838 67.992 38.9838H104.64C104.756 38.9838 104.871 39.0074 104.978 39.0532C105.086 39.099 105.183 39.1662 105.265 39.2508C105.347 39.3354 105.412 39.4359 105.457 39.5465C105.501 39.6571 105.524 39.7756 105.524 39.8953V49.0267C105.52 49.2368 105.446 49.4389 105.314 49.599C105.182 49.7591 105 49.8672 104.8 49.9052Z" fill="#407BFF"/>
<path d="M88.22 51.1466H84.432C83.9636 51.1466 83.584 51.5381 83.584 52.021V54.4915C83.584 54.9744 83.9636 55.3659 84.432 55.3659H88.22C88.6883 55.3659 89.068 54.9744 89.068 54.4915V52.021C89.068 51.5381 88.6883 51.1466 88.22 51.1466Z" fill="#407BFF"/>
<path opacity="0.4" d="M88.22 51.1466H84.432C83.9636 51.1466 83.584 51.5381 83.584 52.021V54.4915C83.584 54.9744 83.9636 55.3659 84.432 55.3659H88.22C88.6883 55.3659 89.068 54.9744 89.068 54.4915V52.021C89.068 51.5381 88.6883 51.1466 88.22 51.1466Z" fill="black"/>
<path d="M154.962 53.258C155.422 54.2355 155.762 55.1594 156.162 56.1245C156.562 57.0896 156.854 58.0506 157.166 59.0363C157.798 61.0349 158.265 63.0852 158.562 65.1652C158.602 65.425 158.622 65.7055 158.65 65.99L158.69 66.4025C158.69 66.4767 158.69 66.5303 158.69 66.617V66.885C158.703 67.5104 158.651 68.1355 158.534 68.7493C158.335 69.816 158.053 70.8643 157.69 71.8838C157.007 73.8219 156.155 75.6923 155.146 77.4724L153.114 76.5856C153.566 74.7049 154.022 72.787 154.366 70.9352C154.534 70.0479 154.653 69.1515 154.722 68.2502C154.745 67.8818 154.737 67.5119 154.698 67.1449L154.654 66.885L154.598 66.5551C154.554 66.3365 154.526 66.1179 154.474 65.8952C154.075 64.0746 153.559 62.2834 152.93 60.5335C152.626 59.6385 152.29 58.7476 151.954 57.8526C151.618 56.9576 151.246 56.0585 150.902 55.2336L154.962 53.258Z" fill="#7F3E3B"/>
<path d="M153.202 76.037L151.642 77.6043L155.046 79.2541C155.046 79.2541 155.87 77.7693 155.302 76.4247L153.202 76.037Z" fill="#7F3E3B"/>
<path d="M150.386 79.9428L153.258 81.1554L155.046 79.2376L151.642 77.6043L150.386 79.9428Z" fill="#7F3E3B"/>
<path opacity="0.2" d="M92.1257 78.2519C97.7859 77.5982 103.131 75.2288 107.485 71.4431C111.84 67.6574 115.007 62.6255 116.588 56.9836C118.169 51.3417 118.092 45.3431 116.367 39.7463C114.642 34.1495 111.346 29.2057 106.897 25.5401C102.447 21.8745 97.0427 19.6516 91.3677 19.1525C85.6927 18.6534 80.0017 19.9005 75.0141 22.7361C70.0264 25.5718 65.9662 29.8686 63.3468 35.0833C60.7273 40.2981 59.6662 46.1966 60.2977 52.0331C60.7171 55.9098 61.8732 59.6633 63.6999 63.0793C65.5266 66.4952 67.9881 69.5066 70.9437 71.9414C73.8994 74.3762 77.2914 76.1866 80.9259 77.2694C84.5603 78.3522 88.3661 78.686 92.1257 78.2519Z" fill="#39B7FD"/>
<path opacity="0.1" d="M71.1697 25.3482L114.97 61.4202C115.158 61.0077 115.334 60.5953 115.506 60.1829C116.603 57.4899 117.304 54.6428 117.586 51.7361L79.7537 20.5887C76.649 21.6562 73.7453 23.2662 71.1697 25.3482Z" fill="white"/>
<path opacity="0.1" d="M61.0657 41.157L102.242 75.0802C106.154 72.9762 109.545 69.9734 112.154 66.3035L67.1857 29.2499C64.2877 32.6829 62.1938 36.7568 61.0657 41.157Z" fill="white"/>
<path d="M159.87 82.0917C159.817 81.3411 159.579 80.6169 159.178 79.9882C158.886 79.5258 158.478 79.1537 157.998 78.9118L155.266 77.5301C153.45 76.6021 151.622 75.6988 149.794 74.7956C147.966 73.8924 146.126 73.0056 144.294 72.1106C142.462 71.2156 140.614 70.3454 138.762 69.4916C135.066 67.7649 131.346 66.0849 127.602 64.4516C125.73 63.6267 123.854 62.8349 121.962 62.0595C121.409 61.8352 120.96 61.4028 120.706 60.8499C120.451 60.2969 120.409 59.6649 120.59 59.0817C123.122 50.8486 122.546 41.933 118.975 34.1197C115.404 26.3064 109.104 20.1718 101.334 16.9441C93.5639 13.7165 84.8984 13.6338 77.0719 16.7127C69.2455 19.7916 62.8356 25.8049 59.1255 33.5488C55.4154 41.2926 54.6788 50.1957 57.0632 58.4756C59.4476 66.7556 64.777 73.8015 71.9846 78.2028C79.1922 82.6041 87.746 84.036 95.9338 82.212C104.122 80.3879 111.339 75.4425 116.142 68.3657C116.482 67.8627 116.994 67.5117 117.576 67.3838C118.157 67.2559 118.764 67.3607 119.274 67.6769C121.023 68.7492 122.78 69.8037 124.546 70.8403C128.074 72.9135 131.628 74.9345 135.21 76.9032C136.998 77.9013 138.81 78.8623 140.59 79.8397C142.37 80.8172 144.19 81.77 146.002 82.7268C147.814 83.6837 149.602 84.6199 151.438 85.5438L154.162 86.9378C154.64 87.186 155.176 87.2944 155.71 87.2513C156.437 87.1982 157.138 86.9524 157.746 86.5378C158.47 86.0788 159.054 85.4177 159.43 84.631C159.806 83.8442 159.958 82.9639 159.87 82.0917ZM77.3217 72.9685C72.6717 70.6026 68.8066 66.8681 66.2152 62.2371C63.6238 57.6062 62.4224 52.2869 62.7631 46.9519C63.1038 41.6169 64.9711 36.5059 68.129 32.2653C71.2869 28.0247 75.5935 24.8449 80.5042 23.128C85.4149 21.4112 90.709 21.2345 95.7171 22.6202C100.725 24.0059 105.222 26.8918 108.64 30.9129C112.057 34.934 114.241 39.9098 114.916 45.2108C115.59 50.5119 114.725 55.9002 112.43 60.6943C110.906 63.8773 108.79 66.7197 106.201 69.0591C103.612 71.3986 100.601 73.1894 97.3413 74.3292C94.0811 75.4689 90.6352 75.9354 87.2002 75.702C83.7652 75.4685 80.4085 74.5397 77.3217 72.9685Z" fill="#39B7FD"/>
<path d="M139.878 40.5095C139.878 40.7529 139.754 40.9508 139.598 40.9508C139.442 40.9508 139.318 40.7529 139.318 40.5095C139.318 40.2662 139.442 40.0641 139.598 40.0641C139.754 40.0641 139.878 40.2621 139.878 40.5095Z" fill="#263238"/>
<path d="M139.774 40.9508C139.493 41.6979 139.113 42.4016 138.646 43.0419C138.807 43.1612 138.993 43.2426 139.188 43.2804C139.384 43.3182 139.585 43.3114 139.778 43.2605L139.774 40.9508Z" fill="#630F0F"/>
<path d="M140.718 39.1485C140.747 39.1476 140.775 39.1375 140.798 39.1195C140.821 39.1014 140.838 39.0764 140.847 39.0479C140.856 39.0193 140.856 38.9886 140.847 38.9601C140.838 38.9316 140.821 38.9066 140.798 38.8886C140.621 38.752 140.415 38.6606 140.198 38.6219C139.98 38.5832 139.757 38.5983 139.546 38.6659C139.527 38.6712 139.509 38.6806 139.494 38.6933C139.479 38.7061 139.466 38.722 139.458 38.74C139.449 38.758 139.444 38.7777 139.443 38.7979C139.442 38.818 139.445 38.8382 139.452 38.857C139.459 38.8759 139.47 38.893 139.483 38.9072C139.497 38.9215 139.514 38.9326 139.532 38.9399C139.55 38.9472 139.57 38.9504 139.59 38.9494C139.609 38.9483 139.628 38.9431 139.646 38.934C139.814 38.8825 139.991 38.8725 140.163 38.9047C140.335 38.937 140.498 39.0106 140.638 39.1196C140.66 39.1386 140.689 39.1488 140.718 39.1485Z" fill="#263238"/>
<path d="M147.97 42.349C147.546 44.5679 147.126 48.6304 148.63 50.107C148.63 50.107 148.042 52.3548 144.05 52.3548C139.65 52.3548 141.95 50.107 141.95 50.107C144.35 49.5172 144.286 47.6818 143.866 45.9826L147.97 42.349Z" fill="#7F3E3B"/>
<path d="M149.402 48.7171C149.734 48.8284 149.302 50.8659 149.302 50.8659C149.302 50.8659 148.754 52.2888 141.946 51.7939C141.422 51.7526 141.622 49.7977 142.122 49.5131C143.734 48.6057 148.33 48.3541 149.402 48.7171Z" fill="#263238"/>
<path d="M163.23 133.931C163.598 133.894 164.134 133.197 164.286 132.941C164.292 132.93 164.296 132.917 164.296 132.904C164.296 132.891 164.292 132.878 164.286 132.867C164.279 132.855 164.269 132.845 164.257 132.839C164.245 132.833 164.231 132.832 164.218 132.834C164.178 132.834 163.21 133.024 162.974 133.412C162.949 133.452 162.932 133.498 162.925 133.545C162.919 133.593 162.921 133.642 162.934 133.688C162.986 133.869 163.086 133.919 163.166 133.931H163.23ZM164.074 133.012C163.814 133.383 163.386 133.816 163.182 133.787C163.162 133.787 163.102 133.787 163.066 133.647C163.058 133.62 163.056 133.591 163.06 133.563C163.064 133.536 163.074 133.509 163.09 133.486C163.365 133.232 163.708 133.067 164.074 133.012Z" fill="#407BFF"/>
<path d="M164.034 133.011C164.105 133.005 164.176 132.993 164.246 132.974C164.258 132.97 164.268 132.963 164.277 132.954C164.285 132.945 164.291 132.933 164.294 132.921C164.296 132.908 164.295 132.895 164.291 132.882C164.287 132.87 164.279 132.859 164.27 132.851C164.246 132.826 163.598 132.257 163.158 132.302C163.105 132.306 163.053 132.321 163.006 132.346C162.959 132.372 162.918 132.407 162.886 132.451C162.848 132.488 162.825 132.538 162.819 132.592C162.814 132.645 162.828 132.699 162.858 132.743C163.002 132.978 163.634 133.053 164.034 133.011ZM164.066 132.867C163.666 132.917 163.082 132.834 162.97 132.665C162.97 132.665 162.938 132.611 162.994 132.537C163.016 132.51 163.044 132.488 163.075 132.471C163.105 132.455 163.139 132.445 163.174 132.442C163.505 132.49 163.816 132.637 164.066 132.867Z" fill="#407BFF"/>
<path d="M135.73 144.778C136.033 144.777 136.335 144.75 136.634 144.696C136.647 144.692 136.659 144.685 136.669 144.675C136.679 144.665 136.686 144.652 136.69 144.638C136.692 144.623 136.69 144.608 136.683 144.595C136.677 144.582 136.667 144.571 136.654 144.564C136.61 144.535 135.586 143.933 135.094 144.069C135.002 144.093 134.922 144.154 134.874 144.238C134.842 144.284 134.826 144.339 134.826 144.395C134.826 144.451 134.842 144.506 134.874 144.552C135.002 144.733 135.354 144.778 135.73 144.778ZM136.41 144.589C135.862 144.667 135.118 144.663 134.982 144.469C134.962 144.444 134.946 144.399 134.982 144.308C134.996 144.283 135.016 144.261 135.039 144.244C135.063 144.227 135.09 144.215 135.118 144.209C135.434 144.123 136.05 144.399 136.41 144.589Z" fill="#407BFF"/>
<path d="M136.602 144.696C136.616 144.7 136.631 144.7 136.646 144.696C136.655 144.688 136.662 144.678 136.667 144.666C136.672 144.655 136.674 144.642 136.674 144.63C136.674 144.597 136.59 143.78 136.218 143.463C136.163 143.415 136.099 143.38 136.03 143.359C135.961 143.337 135.889 143.331 135.818 143.339C135.626 143.36 135.574 143.459 135.558 143.541C135.506 143.883 136.21 144.539 136.562 144.704L136.602 144.696ZM135.886 143.459C135.975 143.461 136.061 143.495 136.13 143.553C136.352 143.815 136.491 144.14 136.53 144.486C136.166 144.263 135.69 143.747 135.73 143.541C135.73 143.541 135.73 143.475 135.866 143.463L135.886 143.459Z" fill="#407BFF"/>
<path d="M139.85 144.626H136.914L136.618 137.606H139.558L139.85 144.626Z" fill="#7F3E3B"/>
<path d="M166.854 130.722L164.562 132.616L158.73 128.442L161.026 126.549L166.854 130.722Z" fill="#7F3E3B"/>
<path d="M164.142 132.496L166.486 130.1C166.528 130.058 166.582 130.032 166.64 130.026C166.698 130.02 166.756 130.034 166.806 130.067L169.058 131.56C169.112 131.596 169.158 131.645 169.192 131.702C169.225 131.76 169.246 131.824 169.252 131.891C169.257 131.958 169.248 132.025 169.225 132.088C169.202 132.15 169.165 132.207 169.118 132.253C168.286 133.077 167.842 133.432 166.81 134.484C166.178 135.136 164.63 137.074 163.754 137.969C162.878 138.864 161.902 138.089 162.186 137.639C163.446 135.635 163.874 133.981 163.93 132.974C163.942 132.794 164.017 132.624 164.142 132.496Z" fill="#263238"/>
<path d="M136.93 144.275H140.13C140.188 144.275 140.244 144.295 140.289 144.333C140.334 144.37 140.366 144.423 140.378 144.481L140.958 147.175C140.972 147.239 140.972 147.307 140.958 147.371C140.944 147.436 140.915 147.497 140.875 147.548C140.834 147.6 140.783 147.642 140.724 147.67C140.666 147.698 140.602 147.712 140.538 147.711C139.378 147.711 137.706 147.624 136.25 147.624C134.55 147.624 133.082 147.719 131.086 147.719C129.886 147.719 129.546 146.461 130.05 146.346C132.35 145.83 134.226 145.772 136.21 144.51C136.424 144.364 136.673 144.283 136.93 144.275Z" fill="#263238"/>
<path d="M154.422 51.0144C156.97 52.2517 158.022 60.7314 158.022 60.7314L152.162 63.103C151.252 60.807 150.515 58.4422 149.958 56.0296C149.138 52.2022 151.802 49.7275 154.422 51.0144Z" fill="#407BFF"/>
<path opacity="0.3" d="M154.422 51.0144C156.97 52.2517 158.022 60.7314 158.022 60.7314L152.162 63.103C151.252 60.807 150.515 58.4422 149.958 56.0296C149.138 52.2022 151.802 49.7275 154.422 51.0144Z" fill="white"/>
<path opacity="0.2" d="M150.626 53.5014C150.426 53.4014 150.217 53.3226 150.002 53.2663C149.768 54.1706 149.76 55.1211 149.978 56.0296C150.533 58.4424 151.268 60.8073 152.178 63.103L154.11 62.3234C153.754 60.1086 152.662 54.5077 150.626 53.5014Z" fill="black"/>
<path d="M137.43 50.9484C137.43 50.9484 134.302 54.5902 137.254 77.1383H152.974C153.082 74.6637 151.566 62.5132 153.894 50.7916C152.155 50.4469 150.397 50.2182 148.63 50.107C146.405 49.9749 144.175 49.9749 141.95 50.107C140.424 50.2655 138.913 50.5468 137.43 50.9484Z" fill="#407BFF"/>
<path opacity="0.3" d="M137.43 50.9484C137.43 50.9484 134.302 54.5902 137.254 77.1383H152.974C153.082 74.6637 151.566 62.5132 153.894 50.7916C152.155 50.4469 150.397 50.2182 148.63 50.107C146.405 49.9749 144.175 49.9749 141.95 50.107C140.424 50.2655 138.913 50.5468 137.43 50.9484Z" fill="white"/>
<path opacity="0.2" d="M140.602 55.7822C139.89 53.5797 138.178 52.8745 136.434 54.1819C136.082 56.3183 135.834 59.7622 136.118 65.2229L139.186 65.194C139.186 65.194 141.654 59.0611 140.602 55.7822Z" fill="black"/>
<path d="M140.026 54.8789C139.898 55.9842 139.722 56.9865 139.526 58.0299C139.33 59.0734 139.102 60.0921 138.842 61.1191C138.328 63.2181 137.629 65.2641 136.754 67.2315C136.526 67.7388 136.262 68.2378 135.982 68.7369C135.838 68.9885 135.694 69.2401 135.53 69.4875C135.317 69.8314 135.066 70.1484 134.782 70.432C134.23 70.9598 133.575 71.3604 132.862 71.6075C132.282 71.8168 131.683 71.962 131.074 72.0405C129.987 72.1795 128.888 72.1933 127.798 72.0818C127.264 72.0378 126.744 71.9677 126.238 71.8714C125.718 71.7766 125.226 71.6776 124.69 71.5332L124.95 69.273C126.775 69.194 128.588 68.9175 130.358 68.4482C130.718 68.3383 131.067 68.1947 131.402 68.0192C131.621 67.9154 131.814 67.7583 131.962 67.5614C131.93 67.5903 132.222 67.0912 132.394 66.7365C132.566 66.3818 132.758 65.9117 132.922 65.4992C133.258 64.6496 133.546 63.7505 133.81 62.8307C134.074 61.911 134.306 60.9748 134.522 60.0261C134.738 59.0775 134.922 58.1207 135.122 57.1391C135.322 56.1575 135.466 55.1841 135.61 54.2726L140.026 54.8789Z" fill="#7F3E3B"/>
<path d="M141.358 53.1714C142.186 55.9389 138.826 64.1877 138.826 64.1877L131.75 62.3523C132.183 59.745 132.912 57.1993 133.922 54.7676C136.202 49.6203 140.362 49.8348 141.358 53.1714Z" fill="#407BFF"/>
<path opacity="0.3" d="M141.358 53.1714C142.186 55.9389 138.826 64.1877 138.826 64.1877L131.75 62.3523C132.183 59.745 132.912 57.1993 133.922 54.7676C136.202 49.6203 140.362 49.8348 141.358 53.1714Z" fill="white"/>
<path d="M125.05 69.2854L121.722 69.1988L123.322 72.7664C123.322 72.7664 124.674 72.952 125.786 71.0672L126.958 69.6278L125.61 69.3473C125.425 69.3102 125.238 69.2895 125.05 69.2854Z" fill="#7F3E3B"/>
<path d="M119.622 69.8629L121.53 72.82L123.326 72.7664L121.722 69.1988L119.622 69.8629Z" fill="#7F3E3B"/>
<path opacity="0.2" d="M136.622 137.61L136.77 141.227H139.71L139.558 137.61H136.622Z" fill="black"/>
<path opacity="0.2" d="M161.026 126.549L158.73 128.442L161.738 130.595L164.034 128.702L161.026 126.549Z" fill="black"/>
<path d="M147.802 39.9734C147.626 42.9759 147.674 44.7412 146.202 46.2837C143.994 48.6016 140.398 47.2323 139.702 44.2215C139.074 41.5241 139.47 37.0698 142.318 35.8696C142.946 35.6017 143.63 35.5043 144.305 35.5867C144.98 35.669 145.623 35.9284 146.173 36.34C146.723 36.7516 147.161 37.3017 147.447 37.9378C147.732 38.5738 147.854 39.2747 147.802 39.9734Z" fill="#7F3E3B"/>
<path d="M150.154 37.1852C150.154 37.1852 151.686 37.6554 151.206 39.4578C150.482 42.1964 148.778 45.3474 146.578 45.5454C143.838 45.797 142.602 42.881 142.242 39.8661C140.602 38.7071 139.386 37.6224 139.778 36.4181C140.378 34.5621 142.554 32.9618 146.018 33.3743C149.482 33.7867 151.206 36.0964 150.154 37.1852Z" fill="#263238"/>
<path d="M143.91 40.4848C143.856 41.2294 143.567 41.9353 143.086 42.4933C142.446 43.2192 141.774 42.7656 141.662 41.8829C141.562 41.0828 141.77 39.7424 142.554 39.3423C143.338 38.9422 143.962 39.5856 143.91 40.4848Z" fill="#7F3E3B"/>
<path d="M142.83 77.1383C142.83 77.1383 141.838 97.5623 143.77 106.215C146.83 119.917 160.282 130.896 160.282 130.896L164.602 127.328C164.602 127.328 153.534 118.836 152.538 107.428C151.646 97.1828 152.966 85.4159 152.966 77.1383H142.83Z" fill="#407BFF"/>
<path opacity="0.2" d="M142.83 77.1383C142.83 77.1383 141.838 97.5623 143.77 106.215C146.83 119.917 160.282 130.896 160.282 130.896L164.602 127.328C164.602 127.328 153.534 118.836 152.538 107.428C151.646 97.1828 152.966 85.4159 152.966 77.1383H142.83Z" fill="#39B7FD"/>
<path opacity="0.2" d="M144.306 83.1888C143.906 82.3928 143.126 84.7643 142.582 87.8081C142.582 92.0067 142.654 96.7828 143.01 100.829C145.726 95.6527 145.15 84.8385 144.306 83.1888Z" fill="black"/>
<path d="M158.322 130.017L159.962 131.329L164.95 127.159L163.454 125.761L158.322 130.017Z" fill="#2C6BDB"/>
<path opacity="0.4" d="M158.322 130.017L159.962 131.329L164.95 127.159L163.454 125.761L158.322 130.017Z" fill="#FAFAFA"/>
<path d="M137.254 77.1383C137.254 77.1383 132.83 96.4817 132.518 105.72C132.17 116.085 135.674 140.526 135.674 140.526H140.654C140.654 140.526 141.266 115.895 141.49 106.454C141.73 96.1641 147.586 77.1383 147.586 77.1383H137.254Z" fill="#407BFF"/>
<path opacity="0.2" d="M137.254 77.1383C137.254 77.1383 132.83 96.4817 132.518 105.72C132.17 116.085 135.674 140.526 135.674 140.526H140.654C140.654 140.526 141.266 115.895 141.49 106.454C141.73 96.1641 147.586 77.1383 147.586 77.1383H137.254Z" fill="#39B7FD"/>
<path d="M134.718 138.48C134.694 138.48 134.998 140.613 134.998 140.613H141.054L141.218 138.711L134.718 138.48Z" fill="#2C6BDB"/>
<path opacity="0.4" d="M134.718 138.48C134.694 138.48 134.998 140.613 134.998 140.613H141.054L141.218 138.711L134.718 138.48Z" fill="#FAFAFA"/>
</svg>
