<svg width="450" height="241" viewBox="0 0 450 241" fill="none" xmlns="http://www.w3.org/2000/svg">
<g clip-path="url(#clip0)">
<path d="M397.997 239.483C397.997 239.483 459.504 174.047 416.375 113.007C400.281 90.23 359.195 77.4396 321.426 87.8154C299.118 93.9444 265.284 93.0399 232.227 39.016C187.144 -34.6574 -0.00105286 -1.15723 36.5289 127.922C51.9161 182.294 -5.43594 184.769 22.973 239.6L397.997 239.483Z" fill="#E0E0E0"/>
<path d="M65.0097 108.396L198.983 220.599L269.472 160.484C282.666 172.115 303.041 190.067 323.539 208.081C337.546 220.392 348.888 230.339 358.081 238.39L422.104 238.315C404.35 223.183 332.864 160.297 284.704 117.797L269.978 104.803L198.722 165.572L94.134 77.9791L65.0097 108.396Z" fill="white"/>
<path d="M111.095 64.1807L47.2881 128.251L29.2636 55.0593L111.095 64.1807Z" fill="white"/>
<path d="M320.266 199.181C320.504 193.315 321.018 188.211 321.633 184.652C322.613 178.978 323.496 175.715 323.505 175.68C323.634 175.181 325.499 173.162 329.646 173.225C333.793 173.288 333.399 175.935 333.399 175.935C333.399 176.024 333.388 176.108 333.369 176.17C333.33 176.306 329.523 190.123 329.688 207.961C329.69 208.211 329.718 208.644 329.701 208.933C329.701 208.934 320.091 209.182 320.089 208.933C319.754 207.375 319.918 203.055 320.266 199.181Z" fill="#B7D3F3"/>
<path d="M319.059 207.874C319.061 208.122 319.192 208.321 319.352 208.321H319.356C319.516 208.318 319.643 208.118 319.645 207.874H327.88C327.883 208.122 328.013 208.321 328.174 208.321H328.177C328.34 208.318 328.469 208.112 328.467 207.861C328.42 202.755 328.71 197.986 329.15 193.778C330.245 183.282 332.268 176.268 332.297 176.171C332.316 176.108 332.328 176.025 332.328 175.935C332.328 175.935 332.721 173.288 328.574 173.225C324.427 173.162 322.562 175.181 322.433 175.68C322.425 175.706 321.926 177.554 321.262 180.877C321.042 181.978 320.804 183.24 320.56 184.65C319.946 188.209 319.432 193.314 319.193 199.179C318.846 203.054 318.723 206.316 319.059 207.874Z" fill="#D2E3FC"/>
<path d="M329.076 208.321H296.791C296.791 208.321 297.542 205.275 316.24 205.729C329.472 206.051 329.076 208.321 329.076 208.321Z" fill="#C5DCF8"/>
<path d="M331.704 240.136C327.961 221.165 328.923 209.523 328.927 209.377C328.937 209.085 328.399 208.82 328.11 208.811C327.817 208.805 326.524 208.725 326.375 208.975C326.178 209.302 325.425 223.645 331.004 240.137H331.704V240.136Z" fill="#B7D3F3"/>
<path d="M301.559 240.136C305.302 221.165 304.34 209.523 304.335 209.377C304.326 209.085 304.864 208.82 305.153 208.811C305.446 208.805 306.738 208.725 306.888 208.975C307.084 209.302 307.838 223.645 302.259 240.137H301.559V240.136Z" fill="#B7D3F3"/>
<path d="M295.585 240.136C299.329 221.165 298.366 209.523 298.362 209.377C298.352 209.085 298.89 208.82 299.179 208.811C299.472 208.805 300.764 208.725 300.914 208.975C301.111 209.302 301.864 223.645 296.285 240.137H295.585V240.136Z" fill="#B7D3F3"/>
<path d="M325.69 240.136C321.946 221.165 322.908 209.523 322.913 209.377C322.922 209.085 322.384 208.82 322.095 208.811C321.803 208.805 320.51 208.725 320.36 208.975C320.164 209.302 319.41 223.645 324.989 240.137H325.69V240.136Z" fill="#B7D3F3"/>
<path d="M296.771 209.293H329.056C329.42 209.293 329.718 208.995 329.718 208.632V208.197C329.718 207.833 329.421 207.534 329.056 207.534H296.771C296.407 207.534 296.109 207.832 296.109 208.197V208.632C296.11 208.995 296.407 209.293 296.771 209.293Z" fill="#B7D3F3"/>
<path d="M297.905 180.105L287.174 177.777L286.542 179.32C286.542 179.32 298.384 186.375 299.493 186.028C300.602 185.684 297.905 180.105 297.905 180.105Z" fill="#FFB27D"/>
<path d="M307.663 228.695C307.931 229.003 307.966 229.348 307.832 229.716C307.832 229.717 307.831 229.719 307.83 229.72C307.584 230.4 306.771 231.161 305.827 231.92C305.706 232.018 305.599 232.106 305.505 232.188C305.481 232.209 305.456 232.231 305.433 232.254C305.414 232.27 305.396 232.287 305.377 232.304C304.497 233.116 304.828 233.302 303.246 234.951C301.443 236.829 300.201 236.863 299.848 236.692C299.55 236.547 300.156 235.549 300.83 234.43C300.862 234.376 300.895 234.322 300.927 234.267C301.016 234.118 301.106 233.967 301.194 233.817C301.983 232.47 301.781 231.837 301.594 229.832C301.442 228.202 299.061 220.727 299.061 220.727L302.517 220.13C302.517 220.13 303.557 226.083 304.705 227C305.318 227.488 306.004 227.495 306.594 227.857C306.636 227.882 306.677 227.908 306.717 227.935C307.052 228.157 307.393 228.386 307.663 228.695Z" fill="#FFB27D"/>
<path d="M307.663 228.695C307.931 229.003 307.966 229.348 307.832 229.716C307.832 229.717 307.831 229.719 307.83 229.72C307.529 230.4 306.736 231.156 305.823 231.913C305.703 232.012 305.599 232.104 305.505 232.188C305.481 232.209 305.456 232.231 305.433 232.254C305.414 232.27 305.396 232.287 305.377 232.304C304.497 233.116 304.828 233.302 303.246 234.951C301.443 236.829 300.201 236.863 299.848 236.692C299.55 236.547 300.156 235.549 300.829 234.43C301.18 234.301 302.812 233.638 304.044 232.058C305.13 230.671 305.854 228.889 306.594 227.856C306.636 227.881 306.677 227.907 306.717 227.934C307.052 228.157 307.393 228.386 307.663 228.695Z" fill="#1C468A"/>
<path d="M279.795 226.534C279.581 227.602 278.061 227.423 276.362 227.008C274.663 226.593 275.067 227.087 272.649 226.819C270.232 226.551 269.499 225.648 269.426 225.289C269.359 224.969 270.554 224.856 271.835 224.709C271.997 224.69 272.158 224.67 272.321 224.65C273.768 224.469 274.827 223.534 276.141 222.767C277.386 222.041 279.244 219.078 279.244 219.078L282.56 219.341C282.56 219.341 280.82 221.987 280.147 223.137C279.751 223.813 279.772 224.707 279.822 225.399C279.846 225.774 279.87 226.158 279.795 226.534Z" fill="#FFB27D"/>
<path d="M276.362 227.008C274.663 226.593 275.067 227.087 272.649 226.819C270.232 226.551 269.499 225.648 269.426 225.289C269.359 224.969 270.554 224.856 271.835 224.709L271.847 224.733C271.847 224.733 273.297 225.762 275.31 225.811C276.951 225.85 278.688 225.381 279.82 225.398C279.846 225.774 279.87 226.157 279.795 226.534C279.581 227.602 278.061 227.424 276.362 227.008Z" fill="#1C468A"/>
<path d="M287.173 177.779C287.173 177.779 286.383 175.841 285.513 175.762C284.644 175.683 281.879 175.248 281.682 175.643C281.485 176.038 281.682 177.462 282.274 177.976C282.866 178.49 286.541 179.32 286.541 179.32L287.173 177.779Z" fill="#FFB27D"/>
<path d="M292.503 205.308L299.65 224.561C299.65 224.561 300.747 224.668 301.8 224.363C302.769 224.084 303.879 223.351 303.879 223.351C303.879 223.351 302.106 204.864 298.857 201.019C295.605 197.174 292.503 205.308 292.503 205.308Z" fill="#172233"/>
<path d="M320.769 197.519C320.769 197.519 300.234 190.568 295.655 192.047C291.075 193.525 277.325 220.913 277.325 220.913C277.325 220.913 277.635 221.326 278.483 221.644C279.271 221.939 281.178 221.921 281.178 221.921C281.178 221.921 293.588 211.273 295.065 208.167C296.542 205.06 297.133 202.103 298.61 202.399C300.087 202.696 317.668 209.647 321.656 205.506C325.645 201.365 324.601 195.984 324.601 195.984L320.769 197.519Z" fill="#172233"/>
<path d="M309.062 148.504C309.949 148 311.013 147.944 311.757 147.988C311.566 147.791 311.19 147.718 311.19 147.718C311.651 147.65 312.681 148.108 312.681 148.108C319.098 145.633 320.107 155.093 319.972 157.29C319.839 159.487 319.823 162.017 323.026 163.988C329.329 167.867 324.01 174.637 324.01 174.637C323.96 174.666 321.077 179.562 321.077 179.562C321.238 177.786 313.053 168.413 308.782 165.607C307.743 164.074 307.374 161.368 307.346 161.155C307.526 163.301 307.891 164.506 308.22 165.184C304.604 161.85 306.709 149.842 309.062 148.504Z" fill="#172233"/>
<path d="M309.035 165.746C309.014 165.755 311.098 166.839 312.664 166.41C314.138 166.008 315.102 164.094 315.081 164.09C314.456 163.965 314.276 163.107 314.29 159.416L314.008 159.472L309.263 160.412C309.263 160.412 309.371 161.907 309.374 163.315C309.378 164.499 309.306 165.619 309.035 165.746Z" fill="#FFB27D"/>
<path d="M309.263 160.412C309.263 160.412 309.371 161.907 309.374 163.315C312.029 163.241 313.433 160.816 314.008 159.472L309.263 160.412Z" fill="#ED975D"/>
<path d="M314.498 158.954C314.498 158.954 315.889 156.754 316.224 154.872C316.462 153.528 315.779 148.547 310.78 149.265C310.78 149.265 309.328 149.408 307.962 150.331C306.876 151.064 305.31 152.649 307.062 156.996L307.517 158.464L314.498 158.954Z" fill="#29B67F"/>
<path d="M308.377 161.746C308.377 161.746 314.659 161.849 314.664 157.932C314.669 154.014 315.482 151.389 311.472 151.157C307.461 150.926 306.68 152.42 306.361 153.727C306.04 155.034 306.742 161.618 308.377 161.746Z" fill="#FFB27D"/>
<path d="M308.609 151.062C308.609 151.062 310.329 155.658 312.969 156.338C315.608 157.018 316.753 156.31 316.753 156.31C316.753 156.31 314.728 154.7 314.309 151.889C314.309 151.889 309.906 148.874 308.609 151.062Z" fill="#172233"/>
<path d="M309.035 151.435C309.035 151.435 307.751 152.462 307.437 153.459C307.124 154.457 306.983 156.511 306.385 156.441C306.385 156.441 305.089 153.317 306.545 151.55C308.09 149.675 309.035 151.435 309.035 151.435Z" fill="#172233"/>
<path d="M323.024 182.666C323.643 180.065 321.536 175.017 319.336 170.839C317.34 167.052 315.267 163.98 315.081 164.091C309.816 167.219 309.34 164.618 309.34 164.618C309.337 164.618 304.556 165.254 303.202 167.588C301.523 170.484 299.708 178.575 297.904 180.106C298.181 180.953 298.062 181.406 297.768 182.457C297.706 182.682 297.636 182.896 297.559 183.098C297.288 183.838 296.947 184.438 296.655 184.958C297.571 185.515 299.341 186.576 300.644 185.814C302.631 184.649 304.182 181.105 305.054 179.693C305.058 179.687 305.061 179.683 305.064 179.677C306.961 190.427 304.381 192.874 305.687 194.008C307.066 195.205 309.036 193.438 313.369 195.318C316.212 196.553 320.156 198.337 322.812 198.648C324.204 198.811 325.244 198.568 325.583 197.627C326.571 194.891 321.843 187.624 323.024 182.666Z" fill="#29B67F"/>
<path d="M309.773 159.372C309.773 159.372 309.655 159.869 308.419 159.793C308.419 159.793 307.38 159.729 307.412 159.181C307.413 159.181 308.42 158.792 309.773 159.372Z" fill="white"/>
<path d="M325.586 197.627C325.247 198.569 324.208 198.812 322.815 198.648C320.977 197.847 313.038 194.767 313.127 192.68C313.259 189.591 314.654 189.493 313.668 185.679C312.877 182.618 320.213 176.925 321.383 175.688C323.584 179.867 323.645 180.064 323.026 182.666C321.843 187.624 326.571 194.891 325.586 197.627Z" fill="#269B69"/>
<path d="M326.483 186.486C325.075 184.506 323.607 183.46 322.643 182.933C322.865 182.36 316.721 174.819 316.721 173.65C316.721 172.467 315.081 164.088 315.081 164.088C315.081 164.088 320.201 164.405 321.973 166.88C324.191 169.976 328.795 181.887 326.483 186.486Z" fill="#29B67F"/>
<path d="M322.643 182.933L312.412 185.606L313.373 187.331C313.373 187.331 325.824 187.244 326.484 186.485C327.144 185.727 322.643 182.933 322.643 182.933Z" fill="#FFB27D"/>
<path d="M305.057 179.692C304.183 181.104 302.633 184.649 300.646 185.813C299.342 186.576 297.573 185.515 296.657 184.957C296.951 184.437 297.29 183.837 297.562 183.097C298.293 183.265 299.185 183.479 299.761 183.653C300.881 183.993 305.057 179.692 305.057 179.692Z" fill="#163560"/>
<path d="M312.412 185.606C312.412 185.606 309.199 184.696 308.434 184.909C307.668 185.121 305.046 186.859 305.416 187.331C305.784 187.803 308.095 187.049 309.157 187.192C310.22 187.335 311.042 187.859 311.807 187.746C312.573 187.632 313.373 187.331 313.373 187.331L312.412 185.606Z" fill="#FFB27D"/>
<path d="M312.412 185.606C312.412 185.606 310.84 184.798 310.393 184.338C310.336 184.28 310.241 184.292 310.198 184.36C310.078 184.549 309.966 184.914 310.517 185.277C311.311 185.8 312.412 185.606 312.412 185.606Z" fill="#FFB27D"/>
<path d="M297.564 190.132H312.554C312.554 189.472 312.019 188.936 311.359 188.936H297.564V190.132Z" fill="#ED7D2B"/>
<path d="M297.607 173.789H274.432L279.991 190.132H303.316L297.607 173.789Z" fill="#ED7D2B"/>
<path d="M274.091 173.789L279.65 190.131H302.974L297.265 173.789H274.091Z" fill="#F99746"/>
<path d="M286.585 181.809C286.729 182.433 287.351 182.939 287.975 182.939C288.599 182.939 288.988 182.433 288.844 181.809C288.7 181.185 288.077 180.679 287.454 180.679C286.83 180.678 286.441 181.184 286.585 181.809Z" fill="#F9DDBF"/>
<path d="M274.09 173.789L279.65 190.131H295.097C284.865 186.635 282.141 175.974 281.684 173.789H274.09Z" fill="#ED893E"/>
<path d="M341.372 240.136C341.079 240.136 340.828 239.931 340.778 239.649L337.868 223.133L333.682 199.38L332.511 192.738L335.493 192.653L336.011 196.509L339.644 223.606L341.798 239.668C341.828 239.916 341.63 240.136 341.372 240.136Z" fill="#95C0F4"/>
<path d="M336.009 196.506C334.076 197.36 333.68 199.378 333.68 199.378L332.51 192.736L335.492 192.651L336.009 196.506Z" fill="#78ACEA"/>
<path d="M267.197 240.136C267.49 240.136 267.741 239.931 267.791 239.649L270.701 223.133L274.888 199.38L276.058 192.738L273.076 192.653L272.558 196.509L268.926 223.606L266.771 239.668C266.741 239.916 266.94 240.136 267.197 240.136Z" fill="#95C0F4"/>
<path d="M272.561 196.506C274.494 197.36 274.89 199.378 274.89 199.378L276.06 192.736L273.078 192.651L272.561 196.506Z" fill="#78ACEA"/>
<path d="M343.361 195.344H266.995C265.995 195.344 265.176 194.524 265.176 193.523V191.949C265.176 190.948 265.995 190.128 266.995 190.128H343.361C344.361 190.128 345.18 190.948 345.18 191.949V193.523C345.18 194.524 344.361 195.344 343.361 195.344Z" fill="#78ACEA"/>
<path d="M0.509797 239.979H449.49C449.77 239.979 450 239.75 450 239.468V239.294C450 239.013 449.77 238.784 449.49 238.784H0.509797C0.228762 238.784 -2.39688e-06 239.014 -2.39688e-06 239.294V239.468C-2.39688e-06 239.749 0.228762 239.979 0.509797 239.979Z" fill="#2E3552"/>
<path d="M153.679 187.349C153.679 187.349 155.66 189.809 155.041 190.145C154.422 190.48 152.784 191.107 152.399 190.712C152.013 190.317 151.891 187.417 151.891 187.417L153.679 187.349Z" fill="#FFB27D"/>
<path d="M153.597 187.389C153.597 187.389 154.407 187.671 154.726 188.093C155.044 188.515 155.749 189.158 155.576 189.336C155.403 189.513 154.392 188.726 154.392 188.726L153.597 187.389Z" fill="#FFB27D"/>
<path d="M146.189 154.504C146.189 154.504 148.423 175.313 148.621 175.906C148.664 176.035 148.839 176.693 149.086 177.641C149.437 178.995 149.933 180.94 150.405 182.789C151.116 185.583 151.767 188.161 151.767 188.161L153.705 187.522C153.705 187.522 153.805 177.41 153.307 175.081C152.808 172.752 151.213 158.445 150.407 156.52C149.605 154.595 146.189 154.504 146.189 154.504Z" fill="white"/>
<path d="M150.833 204.403L163.011 201.206C164.596 200.79 165.553 199.152 165.137 197.565L163.753 192.283C163.337 190.696 161.701 189.738 160.116 190.154L147.938 193.351C146.353 193.767 145.396 195.405 145.812 196.992L147.196 202.275C147.611 203.862 149.248 204.82 150.833 204.403Z" fill="#239E69"/>
<path d="M162.147 192.7L163.546 198.044C163.817 199.079 163.507 200.136 162.82 200.863C162.593 201.105 162.325 201.311 162.02 201.467C162.019 201.467 162.019 201.467 162.019 201.468H162.018C161.829 201.566 161.627 201.645 161.412 201.7L149.255 204.892C147.664 205.309 146.022 204.349 145.604 202.756L144.204 197.412C143.787 195.819 144.747 194.174 146.338 193.757L150.523 192.658L150.225 191.518C150.087 190.991 150.404 190.45 150.929 190.312L151.387 190.191L153.933 189.523L154.566 189.356C154.819 189.289 155.086 189.326 155.314 189.46C155.541 189.594 155.704 189.808 155.77 190.061L156.069 191.201L158.493 190.564C158.59 190.539 158.685 190.52 158.78 190.504C158.781 190.504 158.781 190.504 158.783 190.504H158.784C159.758 190.348 160.724 190.695 161.386 191.367V191.368C161.743 191.726 162.01 192.179 162.147 192.7ZM151.123 192.499L155.473 191.357L155.174 190.217C155.123 190.02 154.921 189.903 154.725 189.954L153.632 190.241L151.628 190.767L151.087 190.908C151.049 190.919 151.016 190.934 150.986 190.953C150.852 191.036 150.782 191.199 150.824 191.358L151.123 192.499Z" fill="#29B67F"/>
<path d="M152.521 190.766C152.521 190.766 151.98 189.854 152.183 189.536C152.385 189.217 153.115 190.481 153.115 190.481C153.115 190.481 152.617 189.396 152.803 189.217C152.989 189.038 153.753 190.285 153.753 190.285C153.753 190.285 153.278 189.231 153.444 189.196C153.611 189.16 154.177 190.082 154.177 190.082C154.177 190.082 153.883 189.293 154.151 189.331C154.42 189.369 155.003 190.089 155.003 190.089L152.521 190.766Z" fill="#FFB27D"/>
<path d="M149.087 177.641C149.439 178.995 149.935 180.94 150.406 182.789C150.71 181.935 151.096 180.573 151.34 178.708C151.788 175.264 150.41 167.927 150.41 167.927L149.087 177.641Z" fill="#172233"/>
<path d="M123.543 186.493C123.543 186.493 121.384 188.249 121.117 188.797C120.85 189.346 120.178 191.376 120.214 192.03C120.25 192.685 121.868 190.533 122.344 190.359C122.819 190.185 121.847 191.242 121.956 191.469C122.066 191.696 123.078 190.955 123.465 190.713C123.852 190.47 124.122 188.829 124.698 187.936C125.274 187.042 123.543 186.493 123.543 186.493Z" fill="#FFB27D"/>
<path d="M151.873 239.062H141.109C140.338 238.538 141.317 233.42 141.317 233.42C141.317 233.42 144.255 232.304 144.762 234.573C145.271 236.841 148.504 237.562 150.214 237.839C151.385 238.029 151.755 238.673 151.873 239.062Z" fill="#172233"/>
<path d="M135.908 239.062H125.144C124.373 238.538 125.352 233.42 125.352 233.42C125.352 233.42 128.29 232.304 128.798 234.573C129.306 236.841 132.539 237.562 134.25 237.839C135.422 238.029 135.791 238.673 135.908 239.062Z" fill="#172233"/>
<path d="M148.977 186.842C148.977 186.842 148.492 192.885 147.924 200.149C147.152 210.016 145.068 234.48 145.068 234.48C145.068 234.48 143.701 235.647 140.674 235.009C140.674 235.009 138.097 226.569 137.327 216.936C137.316 216.778 137.303 216.618 137.291 216.46C136.575 206.654 135.46 186.005 135.46 186.005L148.977 186.842Z" fill="#1F2E44"/>
<path d="M149.141 184.754C149.141 184.754 148.492 192.885 147.924 200.149L137.326 216.936C137.315 216.778 137.302 216.618 137.29 216.46C136.574 206.654 135.459 186.005 135.459 186.005L149.141 184.754Z" fill="#233862"/>
<path d="M146.052 184.754C146.052 184.754 138.366 203.908 135.908 211.168C134.158 216.341 129.222 234.483 129.222 234.483C129.222 234.483 127.074 235.138 125.271 233.873C125.271 233.873 123.435 215.337 127.144 210.11C129.112 207.338 127.633 181.285 135.613 181.062C143.594 180.838 146.052 184.754 146.052 184.754Z" fill="#1F2E44"/>
<path d="M131.405 186.493C134.61 188.303 148.341 188.263 148.976 186.842C150.397 183.669 150.753 167.547 150.083 162.601C150.083 162.601 149.736 155.002 148.976 155.337C143.905 153.005 135.696 155.123 135.696 155.123C133.482 155.776 133.672 160.839 133.054 167.949C132.975 168.865 132.887 169.821 132.788 170.807C132.351 175.198 131.716 180.242 130.75 185.563C130.685 185.915 130.929 186.225 131.405 186.493Z" fill="white"/>
<path d="M139.488 154.268C139.572 155.627 141.343 155.474 143.473 154.987C145.602 154.502 144.831 153.244 144.831 153.244C144.831 153.244 144.799 152.278 144.665 151.121C144.616 150.7 144.554 150.253 144.473 149.819C144.436 149.606 144.394 149.397 144.346 149.195C144.068 147.999 140.093 149.153 140.122 149.475C140.199 150.342 139.572 153.201 139.488 154.268Z" fill="#FFB27D"/>
<path d="M144.053 156.64L144.221 154.762L141.864 155.208L142.77 156.884L144.053 156.64Z" fill="#172233"/>
<path d="M144.782 152.359L146.191 154.504C146.191 154.504 146.191 155.824 144.969 156.781L143.043 154.986C143.042 154.986 144.287 154.51 144.782 152.359Z" fill="#172233"/>
<path d="M143.042 154.986C143.042 154.986 142.643 156.419 141.872 157.077C141.872 157.077 138.864 156.268 138.147 154.725L139.714 152.701C139.714 152.701 139.789 154.232 143.042 154.986Z" fill="#172233"/>
<path d="M140.099 150.149C140.099 150.149 142.013 151.423 144.666 151.121C144.617 150.7 144.555 150.253 144.474 149.819C143.95 149.692 143.513 149.612 143.513 149.612L140.099 150.149Z" fill="#E2915A"/>
<path d="M138.885 148.702C139.821 151.279 143.234 150.621 144.688 150.208C145.098 150.091 145.351 149.995 145.351 149.995C145.8 149.79 145.94 149.005 145.9 148.015C145.822 146.053 145.049 143.282 144.604 142.615C143.935 141.61 142.822 140.59 139.51 142.012C136.198 143.433 137.685 145.399 138.885 148.702Z" fill="#FFB27D"/>
<path d="M136.328 147.378C137.373 148.231 139.619 149.811 139.619 149.811C139.619 149.811 139.369 149.516 139.064 148.664C139.029 148.567 139.018 148.425 139.023 148.275C139.036 147.858 138.935 147.441 138.716 147.085C138.579 146.863 138.529 146.631 138.702 146.469C138.987 146.2 139.471 146.447 139.788 146.664C139.997 146.807 140.273 146.816 140.489 146.681C140.49 146.68 140.491 146.68 140.493 146.679C141.386 146.119 140.4 145.133 141.126 144.313C141.853 143.495 144.994 143.382 144.868 142.868C145.94 142.261 145.264 140.023 145.244 139.905C145.244 139.905 143.705 140.041 141.783 139.561C140.224 139.169 138.504 140.172 137.959 140.585C137.959 140.486 137.975 140.349 138.046 140.204C138.046 140.204 137.811 140.437 137.814 140.709C137.79 140.734 137.78 140.75 137.787 140.755C137.787 140.755 137.476 140.749 137.295 140.869C137.295 140.869 137.428 140.827 137.491 140.906C137.498 140.915 137.507 140.921 137.518 140.927C135.429 142.402 135.46 146.669 136.328 147.378Z" fill="#172233"/>
<path d="M143.823 148.329C143.823 148.329 143.991 148.653 144.834 148.385C144.834 148.385 145.543 148.159 145.425 147.785C145.426 147.785 144.66 147.691 143.823 148.329Z" fill="white"/>
<path d="M144.053 156.64C144.053 156.64 145.933 180.432 145.907 182.414C145.882 184.396 143.824 186.492 143.824 186.492C143.824 186.492 142.184 184.695 141.865 182.799C141.544 180.902 142.772 156.883 142.772 156.883L144.053 156.64Z" fill="#29B67F"/>
<path d="M135.695 155.124C135.695 155.124 132.659 155.852 130.259 160.467C127.858 165.082 125.963 174.392 124.817 176.849C123.671 179.306 122.885 187.043 122.885 187.043L124.699 187.935C124.699 187.935 129.08 180.004 129.728 177.403C130.079 175.996 135.435 164.732 135.435 164.732L135.695 155.124Z" fill="white"/>
<path d="M131.405 186.493C131.406 186.493 131.406 186.493 131.408 186.493C137.124 185.67 135.487 166.73 135.039 166.655C134.59 166.581 132.946 170.041 132.946 170.041L132.789 170.809C132.353 175.2 131.717 180.244 130.751 185.565C130.685 185.915 130.929 186.225 131.405 186.493Z" fill="#172233"/>
<path d="M60.0811 227.867C60.0811 227.867 57.7004 230.041 58.165 231.586C58.6295 233.131 60.7779 234.161 61.0682 236.049C61.3585 237.937 62.5198 238.967 63.565 238.967C64.6102 238.967 68.547 238.967 68.547 238.967C68.547 238.967 69.3158 237.639 67.4589 237.237C65.6008 236.836 64.9005 234.618 65.0166 232.558C65.1328 230.498 64.8424 227.751 64.8424 227.751L60.8952 226.835L60.0811 227.867Z" fill="#172233"/>
<path d="M89.2821 233.491C89.2821 233.491 88.8547 238.44 89.8999 238.955L103.272 238.927C103.272 238.927 103.272 237.382 101.124 237.039C98.9755 236.696 95.2024 235.437 94.5637 232.633C93.9261 229.829 89.2821 233.491 89.2821 233.491Z" fill="#172233"/>
<path d="M100.572 163.586C100.572 163.586 99.8674 172.261 99.0382 182.688C97.9117 196.853 96.5565 214.251 96.4229 217.547C96.1918 223.271 95.2616 232.426 95.2616 232.426C95.2616 232.426 93.0563 234.601 88.6434 233.684C88.6434 233.684 84.7112 220.614 83.5871 206.787C83.5697 206.56 83.5523 206.332 83.5348 206.103C82.4897 192.026 80.865 162.384 80.865 162.384L100.572 163.586Z" fill="#172233"/>
<path d="M100.572 163.586C100.572 163.586 99.8674 172.261 99.0382 182.688L83.5871 206.787C83.5697 206.56 83.5523 206.332 83.5348 206.103C82.4897 192.026 80.865 162.384 80.865 162.384L100.572 163.586Z" fill="#1F2E44"/>
<path d="M97.3508 164.616C97.3508 164.616 84.6369 196.032 76.2778 210.795C67.9188 225.558 65.3058 229.679 65.3058 229.679C65.3058 229.679 60.5166 227.791 60.0811 226.502C60.0811 226.502 63.2782 198 68.8757 191.053C72.039 187.127 74.767 178.417 74.6311 174.294C74.3953 167.187 77.0617 158.95 77.0617 158.95L97.3508 164.616Z" fill="#172233"/>
<path d="M107.504 165.078C107.504 165.078 109.878 168.296 110.052 169.155C110.226 170.014 110.432 173.079 110.147 173.977C109.863 174.874 108.383 171.298 107.784 170.887C107.185 170.474 108.158 172.294 107.924 172.57C107.691 172.847 106.547 171.453 106.098 170.976C105.647 170.501 105.859 168.119 105.378 166.669C104.898 165.219 107.504 165.078 107.504 165.078Z" fill="#FFB27D"/>
<path d="M97.0349 118.319C97.0349 118.319 100.242 148.212 100.528 149.063C100.591 149.248 100.842 150.195 101.196 151.556C101.701 153.501 102.414 156.295 103.091 158.951C104.112 162.964 105.215 166.435 105.215 166.435C105.215 166.435 105.699 166.749 106.868 166.649C107.664 166.581 108.094 165.9 108.094 165.9C108.094 165.9 107.977 151.222 107.261 147.878C106.544 144.531 104.254 123.979 103.095 121.212C101.94 118.448 97.0349 118.319 97.0349 118.319Z" fill="white"/>
<path d="M101.197 151.556C101.702 153.501 102.415 156.295 103.092 158.951C103.529 157.723 104.083 155.768 104.434 153.087C105.078 148.14 103.097 137.601 103.097 137.601L101.197 151.556Z" fill="#DCEAFF"/>
<path d="M75.7936 164.272C80.3981 166.873 100.124 166.814 101.038 164.773C103.08 160.215 103.59 137.054 102.628 129.95C102.628 129.95 102.13 119.032 101.038 119.514C93.752 116.162 81.9578 119.206 81.9578 119.206C78.7781 120.144 79.0511 127.418 78.1638 137.632C78.05 138.948 77.9234 140.321 77.7817 141.738C77.1546 148.046 76.2407 155.294 74.853 162.937C74.76 163.442 75.1107 163.887 75.7936 164.272Z" fill="white"/>
<path d="M87.4066 117.978C87.5285 119.931 90.0729 119.709 93.133 119.01C96.1906 118.314 95.0839 116.506 95.0839 116.506C95.0839 116.506 95.0386 115.119 94.8459 113.456C94.775 112.851 94.6868 112.208 94.5706 111.584C94.5172 111.278 94.4568 110.977 94.3883 110.686C93.9888 108.968 88.2776 110.626 88.3182 111.089C88.4297 112.338 87.5274 116.445 87.4066 117.978Z" fill="#FFB27D"/>
<path d="M93.9644 121.387L94.2048 118.688L90.8185 119.329L92.1215 121.736L93.9644 121.387Z" fill="#233862"/>
<path d="M95.0108 115.237L97.0349 118.317C97.0349 118.317 97.0349 120.212 95.279 121.588L92.5128 119.008C92.5117 119.008 94.3012 118.325 95.0108 115.237Z" fill="#DCEAFF"/>
<path d="M92.5116 119.008C92.5116 119.008 91.9379 121.068 90.8301 122.013C90.8301 122.013 86.5101 120.851 85.48 118.635L87.7306 115.727C87.7306 115.727 87.8397 117.927 92.5116 119.008Z" fill="#DCEAFF"/>
<path d="M88.2857 112.061C88.2857 112.061 91.0356 113.89 94.8459 113.457C94.775 112.852 94.6868 112.209 94.5706 111.585C93.8181 111.403 93.1887 111.289 93.1887 111.289L88.2857 112.061Z" fill="#E2915A"/>
<path d="M86.5403 109.981C87.8839 113.685 92.7892 112.738 94.8773 112.144C95.4649 111.978 95.8295 111.838 95.8295 111.838C96.4752 111.545 96.6749 110.418 96.618 108.994C96.5066 106.174 95.3952 102.195 94.7565 101.236C93.7961 99.7932 92.1946 98.3261 87.4368 100.369C82.6789 102.414 84.8169 105.236 86.5403 109.981Z" fill="#FFB27D"/>
<path d="M82.866 108.08C84.3675 109.306 87.5936 111.575 87.5936 111.575C87.5936 111.575 87.2336 111.15 86.7958 109.926C86.7458 109.787 86.7307 109.583 86.7365 109.368C86.7551 108.768 86.61 108.168 86.2952 107.658C86.099 107.338 86.027 107.007 86.2767 106.772C86.6843 106.385 87.3799 106.741 87.8363 107.053C88.1371 107.259 88.5319 107.272 88.842 107.079C88.8443 107.078 88.8455 107.077 88.8478 107.075C90.131 106.271 88.7142 104.854 89.7571 103.677C90.8011 102.501 95.3139 102.339 95.1327 101.602C96.6738 100.731 95.7017 97.5158 95.6739 97.3449C95.6739 97.3449 93.4628 97.5402 90.7024 96.8496C88.4611 96.2858 85.991 97.7274 85.2083 98.3214C85.2083 98.1796 85.2315 97.982 85.3326 97.7727C85.3326 97.7727 84.9934 98.1087 84.9993 98.4993C84.9644 98.5342 84.9505 98.5574 84.9609 98.5644C84.9609 98.5644 84.5138 98.5563 84.2537 98.7283C84.2537 98.7283 84.4453 98.6679 84.5347 98.7818C84.5452 98.7946 84.558 98.8027 84.5731 98.812C81.5758 100.933 81.6199 107.06 82.866 108.08Z" fill="#BC3F3F"/>
<path d="M93.6335 109.446C93.6335 109.446 93.875 109.912 95.0874 109.525C95.0874 109.525 96.1059 109.201 95.9375 108.664C95.9375 108.664 94.8378 108.529 93.6335 109.446Z" fill="white"/>
<path d="M93.9644 121.387C93.9644 121.387 96.6656 155.566 96.6285 158.414C96.5913 161.261 93.6346 164.273 93.6346 164.273C93.6346 164.273 91.2795 161.692 90.8197 158.967C90.3598 156.242 92.1226 121.738 92.1226 121.738L93.9644 121.387Z" fill="#2A4E96"/>
<path d="M75.7936 164.272C75.7959 164.272 75.7959 164.272 75.7982 164.272C84.0098 163.089 81.657 135.88 81.0124 135.772C80.3679 135.664 78.007 140.635 78.007 140.635L77.7817 141.738C77.1546 148.046 76.2407 155.294 74.8529 162.937C74.76 163.442 75.1107 163.887 75.7936 164.272Z" fill="#DCEAFF"/>
<path d="M51.6523 184.541L69.0185 189.601C71.2784 190.259 73.666 188.946 74.3233 186.684L76.5135 179.15C77.1708 176.888 75.8597 174.498 73.5998 173.84L56.2336 168.78C53.9737 168.122 51.5861 169.435 50.9288 171.697L48.7386 179.231C48.0813 181.493 49.3912 183.883 51.6523 184.541Z" fill="#239E69"/>
<path d="M74.2258 178.478L72.0101 186.099C71.5804 187.574 70.4202 188.647 69.0371 189.037C68.5784 189.167 68.0953 189.222 67.6064 189.189C67.6052 189.189 67.6052 189.189 67.6041 189.189H67.6029C67.2975 189.17 66.9897 189.118 66.6843 189.029L49.3495 183.977C47.0815 183.317 45.7646 180.919 46.4254 178.647L48.6399 171.025C49.3007 168.755 51.6965 167.438 53.9657 168.098L59.9348 169.837L60.4075 168.211C60.6258 167.46 61.4143 167.027 62.1645 167.245L62.8195 167.435L66.4497 168.493L67.3521 168.756C67.7144 168.861 68.0152 169.104 68.1975 169.435C68.3798 169.769 68.4228 170.152 68.3159 170.514L67.8433 172.14L71.3017 173.147C71.4387 173.186 71.5711 173.233 71.7 173.285C71.7011 173.286 71.7023 173.286 71.7035 173.286H71.7046C73.0204 173.815 73.9552 174.955 74.2757 176.273V176.274C74.4453 176.979 74.4418 177.734 74.2258 178.478ZM60.7872 170.084L66.9897 171.891L67.4624 170.265C67.5437 169.985 67.3823 169.691 67.1024 169.609L65.5451 169.156L62.6871 168.322L61.916 168.098C61.8626 168.083 61.8103 168.077 61.7581 168.077C61.5328 168.08 61.3261 168.23 61.2599 168.458L60.7872 170.084Z" fill="#29B67F"/>
<path d="M65.9898 165.218C65.9898 165.218 66.5287 169.727 65.5195 169.662C64.5103 169.597 62.039 169.112 61.8706 168.336C61.7022 167.56 63.7624 163.938 63.7624 163.938L65.9898 165.218Z" fill="#FFB27D"/>
<path d="M65.861 165.207C65.861 165.207 66.6332 166.167 66.6994 166.924C66.7656 167.681 67.1349 169.001 66.7888 169.087C66.4428 169.172 65.8111 167.441 65.8111 167.441L65.861 165.207Z" fill="#FFB27D"/>
<path d="M81.9566 119.207C81.9566 119.207 77.5947 120.252 74.1468 126.883C70.6989 133.514 67.9745 146.888 66.3289 150.418C64.6822 153.947 63.4292 164.539 63.4292 164.539C63.4292 164.539 63.6858 165.066 64.5731 165.258C65.2617 165.407 65.9678 165.349 65.9678 165.349C65.9678 165.349 72.4525 154.951 73.3838 151.214C73.8878 149.193 81.5826 133.011 81.5826 133.011L81.9566 119.207Z" fill="white"/>
<path d="M369.205 234.653L369.859 229.941L367.113 227.645L366.248 233.883L369.205 234.653Z" fill="#FFB27D"/>
<path d="M360.088 238.861H371.28C371.28 238.861 371.548 237.154 370.964 235.859C370.404 234.616 369.532 233.849 369.453 232.896C368.742 233.63 367.867 234.101 366.249 233.883C366.051 234.205 364.969 235.927 364.307 236.404C363.575 236.929 360.314 236.741 360.088 238.861Z" fill="#172233"/>
<path d="M362.337 171.026C363.068 176.921 363.668 182.478 364.154 187.656C366.759 215.249 366.248 232.115 366.248 232.115C366.248 232.115 366.436 232.614 368.051 232.622C368.964 232.627 369.858 232.428 369.858 232.428C369.858 232.428 375.691 214.409 375.24 204.155C375.187 202.921 375.041 201.8 374.785 200.835C373.385 195.589 379.962 175.526 372.813 168.054C365.666 160.584 362 168.321 362.337 171.026Z" fill="#29B67F"/>
<path d="M362.337 171.026C363.068 176.921 363.668 182.478 364.154 187.656L375.239 204.155C375.185 202.921 375.04 201.8 374.784 200.835C373.384 195.589 379.961 175.526 372.812 168.054C365.666 160.584 362 168.321 362.337 171.026Z" fill="#269B69"/>
<path d="M353.529 114.806C353.529 114.806 353.799 113.46 354.103 112.433C354.238 111.978 353.301 108.991 352.653 108.624C352.005 108.257 350.316 110.268 350.793 111.812C351.039 112.605 351.443 115.187 351.443 115.187L353.529 114.806Z" fill="#FFB27D"/>
<path d="M353.529 114.806C353.529 114.806 353.883 114.025 354.201 113.9C354.519 113.773 354.86 112.496 355.094 111.99C355.094 111.99 354.868 111.658 354.474 112.085C354.232 112.345 353.696 113.107 353.696 113.107L353.529 114.806Z" fill="#FFB27D"/>
<path d="M399.73 119.337C399.798 119.479 399.893 119.732 399.978 119.971C399.979 119.905 399.98 119.841 399.982 119.778C399.986 119.303 401.755 116.722 402.483 116.561C403.21 116.399 404.237 118.817 403.328 120.154C402.862 120.841 401.721 123.191 401.721 123.191L399.836 122.217C399.836 122.217 399.727 121.367 399.46 121.153C399.193 120.939 399.239 119.618 399.164 119.065C399.164 119.064 399.476 118.814 399.73 119.337Z" fill="#FFB27D"/>
<path d="M387.974 233.241C388.132 231.73 388.171 227.757 388.171 227.757C388.171 227.757 384.126 226.463 384.275 227.351C385.007 231.72 384.808 233.883 384.808 233.883L386.443 234.861L387.974 233.241Z" fill="#FFB27D"/>
<path d="M365.715 170.745C365.715 170.745 381.339 213.62 384.415 232.219C384.415 232.219 385.129 232.709 386.457 232.546C387.964 232.362 388.378 231.314 388.378 231.314C388.378 231.314 391.201 209.023 385.591 201.284C381.736 195.968 387.254 172.618 378.276 170.745C369.298 168.873 365.715 170.745 365.715 170.745Z" fill="#29B67F"/>
<path d="M368.49 129.501C368.49 129.5 368.49 129.5 368.49 129.5C368.493 129.481 368.497 129.463 368.503 129.444C368.595 129.066 368.694 128.696 368.802 128.327C368.802 128.326 368.802 128.326 368.802 128.326C369.129 127.198 369.518 126.125 369.937 125.178C370.179 124.635 370.43 124.13 370.685 123.681C370.725 123.612 370.763 123.548 370.799 123.481L370.801 123.48C371.405 122.464 372.025 121.762 372.586 121.546C373.608 121.151 374.744 121.261 375.527 121.424C375.355 121.184 374.966 121.048 374.966 121.048C375.466 121.048 376.486 121.696 376.486 121.696C383.683 120.084 383.262 130.275 382.772 132.585C382.283 134.895 384.601 136.017 387.868 138.381C394.104 142.89 394 147.671 394 147.671C393.944 147.694 393.882 147.722 393.818 147.754C393.568 147.136 393.036 145.965 392.477 145.718C392.493 145.772 392.946 147.289 393.075 148.138C392.125 148.662 390.811 149.474 389.383 150.389C389.383 150.389 389.383 150.389 389.382 150.39C387.472 151.614 385.364 153.022 383.676 154.165C383.756 153.7 383.836 153.036 383.717 152.662L383.18 154.331L383.109 154.548C382.031 155.28 381.18 155.866 380.748 156.164C380.704 156.195 380.664 156.222 380.63 156.246C380.503 156.333 380.436 156.379 380.436 156.379C380.58 155.79 379.95 154.252 378.895 152.313C378.823 152.178 378.746 152.04 378.667 151.901C378.326 151.289 377.946 150.643 377.536 149.977C377.388 149.737 377.24 149.496 377.084 149.251C377.084 149.249 377.083 149.249 377.083 149.249C376.959 149.052 376.833 148.857 376.704 148.657L376.703 148.654C376.398 148.181 376.081 147.704 375.758 147.227C374.922 145.99 374.036 144.762 373.16 143.636C371.89 141.995 370.642 140.57 369.598 139.637C369.565 139.567 369.532 139.496 369.503 139.422C369.339 139.042 369.214 138.62 369.118 138.19C369.087 138.061 369.061 137.931 369.036 137.802C368.776 136.43 368.772 135.07 368.774 134.747C368.69 136.072 368.724 137.071 368.812 137.826C368.832 137.992 368.854 138.146 368.88 138.288V138.289C368.935 138.612 368.999 138.878 369.069 139.099C368.898 138.888 368.747 138.654 368.615 138.399C368.528 138.233 368.449 138.059 368.379 137.876C367.534 135.723 367.76 132.513 368.49 129.501Z" fill="#163560"/>
<path d="M369.842 139.826C369.818 139.833 371.857 141.31 373.586 141.102C375.213 140.908 376.536 139.032 376.515 139.024C375.873 138.793 375.817 137.854 376.413 133.943L376.105 133.957L370.925 134.205C370.925 134.205 370.804 135.807 370.585 137.302C370.402 138.556 370.149 139.734 369.842 139.826Z" fill="#FFB27D"/>
<path d="M370.923 134.205C370.923 134.205 370.803 135.807 370.584 137.302C373.412 137.641 375.283 135.292 376.104 133.957L370.923 134.205Z" fill="#ED975D"/>
<path d="M376.706 133.486C376.706 133.486 378.528 131.372 379.179 129.429C379.644 128.042 379.704 122.651 374.289 122.623C374.289 122.623 372.727 122.546 371.134 123.309C369.867 123.916 367.956 125.35 369.128 130.235L369.379 131.863L376.706 133.486Z" fill="#163560"/>
<path d="M361.684 169.922C361.684 169.922 368.425 173.933 376.889 171.87C376.989 171.846 383.858 170.749 383.858 170.749C383.74 170.425 382.852 165.112 382.736 164.816C381.235 160.937 378.49 139.884 376.198 138.846C375.613 139.484 373.939 139.921 372.507 139.793C370.858 139.648 370.307 138.934 370.443 138.167C368.618 139.031 367.215 139.834 367.215 139.834C365.548 142.336 361.684 169.922 361.684 169.922Z" fill="white"/>
<path d="M369.774 135.48C369.774 135.48 376.42 136.582 377.042 132.428C377.664 128.275 378.941 125.619 374.723 124.739C370.507 123.86 369.443 125.322 368.898 126.658C368.353 127.993 368.061 135.086 369.774 135.48Z" fill="#FFB27D"/>
<path d="M371.704 124.186C371.704 124.186 372.804 129.331 375.497 130.47C378.189 131.607 379.515 131.037 379.515 131.037C379.515 131.037 377.621 129.009 377.618 125.962C377.618 125.961 373.425 122.071 371.704 124.186Z" fill="#163560"/>
<path d="M372.097 124.649C372.097 124.649 370.574 125.533 370.084 126.542C369.595 127.55 369.121 129.707 368.499 129.538C368.499 129.538 367.616 126.02 369.439 124.377C371.372 122.633 372.097 124.649 372.097 124.649Z" fill="#163560"/>
<path d="M351.396 114.903C351.667 114.808 352.065 114.582 352.584 114.536C353.046 114.494 353.628 114.645 353.628 114.645C353.628 114.645 355.504 126.313 355.643 126.932C355.782 127.55 363.686 136.463 365.816 136.428C367.74 136.395 370.02 137.882 370.443 138.168C370.443 138.168 365.961 147.653 365.738 149.435C365.495 151.375 363.175 181.231 363.175 181.231C363.175 181.231 363.313 182.621 360.72 181.873C358.128 181.127 357.479 180.508 357.479 180.508C357.479 180.508 359.86 157.003 360.36 149.694C360.428 148.712 360.588 147.804 360.815 146.966C361.035 146.158 360.862 145.294 360.369 144.618C357.092 140.114 351.916 132.817 351.627 131.266C351.204 128.986 351.396 114.903 351.396 114.903Z" fill="#172233"/>
<path d="M378.648 238.861H389.84C389.84 238.861 390.108 237.154 389.524 235.859C388.964 234.616 388.092 233.849 388.013 232.896C387.302 233.63 386.427 234.101 384.809 233.883C384.611 234.205 383.529 235.927 382.867 236.404C382.136 236.929 378.874 236.741 378.648 238.861Z" fill="#172233"/>
<path d="M370.961 150.356C371.338 148.032 376.154 138.703 376.154 138.703C376.154 138.703 379.198 137.791 381.202 138.518C383.205 139.245 393.572 133.385 393.904 132.846C394.237 132.306 399.789 121.948 399.789 121.948C399.789 121.948 400.249 121.681 400.987 122.065C401.717 122.447 401.72 123.19 401.72 123.19C401.72 123.19 397.435 136.231 396.294 138.248C395.607 139.464 389.827 143.701 385.346 146.872C384.49 147.478 384.04 148.509 384.181 149.548C384.784 154.008 384.937 156.519 385.63 164.171C386.205 170.518 386.426 182.809 386.426 182.809C386.426 182.809 381.411 184.546 377.949 184.777C374.489 185.007 373.734 181.355 373.734 181.355C373.734 181.355 370.574 152.745 370.961 150.356Z" fill="#172233"/>
<path d="M371.951 133.426C371.951 133.426 371.144 133.9 370.191 133.757C369.538 133.66 369.389 132.884 369.389 132.884C369.389 132.884 369.843 132.741 370.568 132.886C371.292 133.032 371.951 133.426 371.951 133.426Z" fill="white"/>
<path d="M159.672 54.2409C159.672 54.2409 162.782 48.7083 159.672 47.583C156.562 46.4576 155.155 47.4958 155.007 48.756C154.86 50.0162 156.192 54.9826 156.192 54.9826L159.672 54.2409Z" fill="#FFB27D"/>
<path d="M157.179 89.6245C162.849 90.6475 168.063 91.1218 172.767 91.2276C177.233 91.3288 181.241 91.0951 184.749 90.6882C185.691 90.5801 186.596 90.458 187.466 90.3266C196.646 88.9327 201.715 86.4611 201.715 86.4611C201.715 86.4611 193.327 68.8845 186.552 69.5588C178.602 70.3516 165.131 77.4932 163.792 75.4901C162.285 73.2336 161.023 53.8817 161.023 53.8817C157.498 51.4648 155.394 54.0119 155.394 54.0119C155.394 54.0119 148.51 88.0597 157.179 89.6245Z" fill="#F99746"/>
<path d="M157.179 89.6244C162.85 90.6475 168.063 91.1218 172.767 91.2276C177.233 91.3287 181.241 91.0951 184.749 90.6882C186.864 83.9547 188.385 77.077 184.131 81.2238C176.628 88.5363 157.179 89.6244 157.179 89.6244Z" fill="#ED7D2B"/>
<path d="M202.352 231.543C202.352 231.543 202.956 238.53 201.48 239.258L182.597 239.22C182.597 239.22 182.597 237.038 185.631 236.553C188.664 236.068 193.992 234.29 194.893 230.331C195.794 226.372 202.352 231.543 202.352 231.543Z" fill="#233862"/>
<path d="M188.49 146.973C188.583 151.542 188.802 156.255 189.232 160.491C191.271 180.59 191.988 204.874 192.281 209.556C192.789 217.683 194.393 230.668 194.393 230.668C194.393 230.668 197.573 233.691 203.775 232.248C203.775 232.248 208.912 213.547 210.06 193.856C210.077 193.532 210.096 193.208 210.112 192.884C210.246 190.281 210.385 187.303 210.527 184.094C211.472 162.593 212.497 130.656 212.497 130.656L188.802 125.086C188.802 125.085 188.256 135.583 188.49 146.973Z" fill="#172233"/>
<path d="M188.49 146.973C194.495 157.346 205.941 176.453 210.527 184.094C211.472 162.593 212.497 130.656 212.497 130.656L188.802 125.086C188.802 125.086 188.256 135.583 188.49 146.973Z" fill="#22324D"/>
<path d="M248.486 126.881C248.486 126.881 252.342 131.421 252.689 132.679C253.036 133.938 253.654 138.472 253.323 139.834C252.992 141.197 250.429 136.035 249.497 135.484C248.564 134.933 250.197 137.537 249.877 137.972C249.559 138.406 247.717 136.451 247 135.79C246.282 135.128 246.353 131.568 245.491 129.463C244.628 127.358 248.486 126.881 248.486 126.881Z" fill="#FFB27D"/>
<path d="M249.391 223.602C249.391 223.602 252.752 226.672 252.096 228.854C251.439 231.036 248.407 232.491 247.997 235.157C247.587 237.823 245.948 239.278 244.473 239.278C242.997 239.278 237.439 239.278 237.439 239.278C237.439 239.278 236.353 237.401 238.975 236.836C241.599 236.271 242.587 233.137 242.423 230.229C242.259 227.32 242.669 223.442 242.669 223.442L248.244 222.149L249.391 223.602Z" fill="#233862"/>
<path d="M192.536 131.14C192.536 131.14 214.717 178.651 226.521 199.497C238.325 220.343 242.014 226.162 242.014 226.162C242.014 226.162 248.777 223.495 249.392 221.678C249.392 221.678 244.878 181.433 236.973 171.622C232.507 166.079 227.26 149.443 227.014 143.625C226.768 137.808 221.586 123.922 221.586 123.922L192.536 131.14Z" fill="#172233"/>
<path d="M186.051 133.382C186.051 133.382 194.872 139.285 207.356 138.738C212.835 138.498 223.703 136.943 225.458 132.581C225.87 131.557 225.567 130.257 224.95 128.262C223.346 123.077 219.609 113.203 220.738 91.3124C220.844 89.2757 220.786 87.3609 220.592 85.5671C219.415 74.7844 213.243 68.3985 207.276 66.3117C192.725 61.2209 187.874 68.2741 187.874 68.2741C187.874 68.2741 181.443 73.3754 180.473 84.0209C178.535 105.315 186.051 133.382 186.051 133.382Z" fill="#F99746"/>
<path d="M203.012 65.0876C203.012 65.0876 196.336 69.153 189.094 68.0033C189.094 68.0033 187.662 67.6394 188.366 65.956C187.924 64.5981 187.978 64.7202 187.722 63.7111C187.087 61.3895 186.893 60.0491 186.893 60.0491L191.003 55.7255L194.896 51.5938C195.971 61.4697 203.012 65.0876 203.012 65.0876Z" fill="#FFB27D"/>
<path d="M195.519 55.3396C195.519 55.3396 193.283 61.3233 187.723 63.7123C187.088 61.3907 186.675 58.961 186.675 58.961L191.003 55.7267L195.519 55.3396Z" fill="#ED985F"/>
<path d="M182.283 59.841C182.283 59.841 195.027 61.436 195.922 53.5958C196.816 45.7555 199.064 40.6821 190.965 39.3324C182.866 37.9827 180.94 40.8007 179.996 43.3467C179.052 45.8915 178.99 59.2237 182.283 59.841Z" fill="#FFB27D"/>
<path d="M199.945 38.057C200.055 37.921 200.317 37.8047 200.905 37.7501C200.905 37.7501 200.422 37.4722 199.79 37.4804C199.636 36.6631 199.145 35.2262 197.719 34.9263C197.719 34.9263 198.493 35.3029 198.626 36.1725C196.927 34.5519 193.374 33.4603 183.696 34.5949C170.941 36.09 175.467 44.1302 177.16 45.0451C178.853 45.9601 182.921 43.1223 186.016 43.2501C189.111 43.378 189.867 47.8201 190.937 48.3933C192.006 48.9664 191.555 47.8992 192.946 47.204C194.338 46.5099 194.561 48.8537 194.21 50.3964C193.859 51.9391 195.882 53.8805 195.882 53.8805C195.882 53.8805 195.882 53.8805 197.767 51.6856C199.653 49.4907 201.168 40.4402 200.202 38.5592C200.117 38.3953 200.032 38.2267 199.945 38.057Z" fill="#2C3A64"/>
<path d="M161.024 50.5708L182.659 50.7638L182.808 47.5051L161.239 45.8322L161.024 50.5708Z" fill="#2A4E96"/>
<path d="M144.693 51.1149L168.248 51.4555L168.517 45.5323L145.028 43.7094L144.693 51.1149Z" fill="#2A4E96"/>
<path d="M128.808 51.5799L148.672 51.6043L149.036 43.6071L129.252 41.8051L128.808 51.5799Z" fill="#233862"/>
<path d="M128.525 52.9296C127.912 52.9017 127.438 52.382 127.466 51.7682L127.931 41.4947C127.959 40.8809 128.478 40.4066 129.092 40.4345C129.705 40.4624 130.179 40.982 130.151 41.5958L129.685 51.8693C129.657 52.4832 129.138 52.9575 128.525 52.9296Z" fill="#233862"/>
<path d="M182.726 51.459C183.271 51.4834 183.733 51.0614 183.758 50.5162L183.878 47.8504C183.903 47.3052 183.481 46.8425 182.937 46.8181C182.392 46.7937 181.93 47.2157 181.905 47.7609L181.784 50.4267C181.76 50.9731 182.182 51.4346 182.726 51.459Z" fill="#2A4E96"/>
<path d="M224.949 128.261C223.345 123.076 219.608 113.202 220.737 91.3113C220.843 89.2745 220.784 87.3598 220.591 85.5659H220.589C215.801 85.1544 208.48 90.3359 208.48 90.3359C208.48 90.3359 212.989 117.85 224.949 128.261Z" fill="#ED7D2B"/>
<path d="M203.012 65.0875C203.012 65.0875 215.29 67.1999 221.695 75.0274C228.1 82.8537 238.4 93.8898 240.837 97.7542C243.272 101.618 250.034 127.918 250.034 127.918C250.034 127.918 249.588 128.763 247.723 129.256C245.938 129.727 244.643 128.997 244.643 128.997C244.643 128.997 235.685 113.649 232.314 105.982C230.913 102.796 206.687 90.1801 197.579 91.4868C194 92.0007 203.012 65.0875 203.012 65.0875Z" fill="#F99746"/>
<path d="M161.153 44.8986C161.153 44.8986 158.512 46.5157 156.933 45.8322C155.353 45.1474 155.493 44.522 155.493 44.522C155.493 44.522 160.264 43.1955 161.153 44.8986Z" fill="#FFB27D"/>
<path d="M191.097 73.6626C191.097 73.6626 196.485 107.72 234.718 117.636L238.882 125.862L231.566 127.102C231.566 127.102 188.039 114.479 188.626 73.0615L191.097 73.6626Z" fill="#BC3F3F"/>
<path d="M191.932 68.2264L193.697 68.3997V70.9561L191.097 73.6625L188.625 73.0603V69.5111L190.401 68.2264H191.932Z" fill="#A02E2E"/>
<path d="M198.857 61.4534C198.857 61.4534 200.565 61.8394 204.471 65.0876C204.471 65.0876 200.587 73.3405 192.392 74.3287C192.392 74.3287 192.524 70.4981 191.932 68.2253C191.932 68.2265 198.426 65.899 198.857 61.4534Z" fill="#ED7D2B"/>
<path d="M191.932 68.2265C191.932 68.2265 187.934 70.3516 187.637 73.6626C187.637 73.6626 186.109 71.2386 186.552 69.5599C186.995 67.8812 188.366 65.9572 188.366 65.9572C188.366 65.9572 188.23 67.9788 191.932 68.2265Z" fill="#ED7D2B"/>
</g>
<defs>
<clipPath id="clip0">
<rect width="450" height="239.587" fill="white" transform="translate(0 0.548218)"/>
</clipPath>
</defs>
</svg>
