<svg width="500" height="360" viewBox="0 0 500 360" fill="none" xmlns="http://www.w3.org/2000/svg">
<path d="M500 315.965H0V316.206H500V315.965Z" fill="#EBEBEB"/>
<path d="M449.9 331.493H416.78V331.734H449.9V331.493Z" fill="#EBEBEB"/>
<path d="M331.22 334.118H322.53V334.359H331.22V334.118Z" fill="#EBEBEB"/>
<path d="M415.78 322.537H396.59V322.778H415.78V322.537Z" fill="#EBEBEB"/>
<path d="M95.65 324.158H52.46V324.399H95.65V324.158Z" fill="#EBEBEB"/>
<path d="M110.89 324.158H104.56V324.399H110.89V324.158Z" fill="#EBEBEB"/>
<path d="M225.15 328.231H131.47V328.472H225.15V328.231Z" fill="#EBEBEB"/>
<path d="M237 272.923H43.91C42.3974 272.92 40.9476 272.339 39.8789 271.305C38.8102 270.272 38.21 268.872 38.21 267.412V5.46232C38.2232 4.01087 38.8292 2.62305 39.8965 1.6003C40.9637 0.577556 42.406 0.0024864 43.91 0H237C238.514 0 239.967 0.580577 241.038 1.61401C242.108 2.64744 242.71 4.04908 242.71 5.51057V267.412C242.71 268.874 242.108 270.275 241.038 271.309C239.967 272.342 238.514 272.923 237 272.923ZM43.91 0.193015C42.4637 0.195572 41.0775 0.751855 40.0557 1.73976C39.0339 2.72767 38.46 4.06648 38.46 5.46232V267.412C38.46 268.808 39.0339 270.147 40.0557 271.135C41.0775 272.123 42.4637 272.679 43.91 272.682H237C238.447 272.679 239.835 272.123 240.858 271.135C241.881 270.148 242.457 268.809 242.46 267.412V5.46232C242.457 4.0656 241.881 2.72681 240.858 1.73918C239.835 0.751542 238.447 0.195567 237 0.193015H43.91Z" fill="#EBEBEB"/>
<path d="M453.31 272.923H260.21C258.696 272.92 257.246 272.339 256.175 271.306C255.105 270.273 254.503 268.873 254.5 267.412V5.46232C254.516 4.00999 255.124 2.62218 256.193 1.5997C257.262 0.577219 258.705 0.00245929 260.21 0H453.31C454.812 0.00502272 456.252 0.581215 457.317 1.60369C458.382 2.62617 458.987 4.01254 459 5.46232V267.412C459 268.87 458.401 270.269 457.335 271.302C456.268 272.335 454.821 272.918 453.31 272.923ZM260.21 0.193015C258.763 0.195567 257.375 0.751542 256.352 1.73918C255.329 2.72681 254.753 4.0656 254.75 5.46232V267.412C254.753 268.809 255.329 270.148 256.352 271.135C257.375 272.123 258.763 272.679 260.21 272.682H453.31C454.757 272.679 456.145 272.123 457.168 271.135C458.191 270.148 458.767 268.809 458.77 267.412V5.46232C458.767 4.0656 458.191 2.72681 457.168 1.73918C456.145 0.751542 454.757 0.195567 453.31 0.193015H260.21Z" fill="#EBEBEB"/>
<path d="M200.39 57.0649H69.95V63.5322H200.39V57.0649Z" fill="#E0E0E0"/>
<path d="M81.7 33.2271H75.95V57.0645H81.7V33.2271Z" fill="#EBEBEB"/>
<path d="M109.49 33.2271H103.74V57.0645H109.49V33.2271Z" fill="#EBEBEB"/>
<path d="M141.028 32.625L135.361 33.5676L139.557 57.0581L145.223 56.1155L141.028 32.625Z" fill="#EBEBEB"/>
<path d="M88.82 36.3633H83.07V57.0649H88.82V36.3633Z" fill="#EBEBEB"/>
<path d="M102.03 36.3633H96.28V57.0649H102.03V36.3633Z" fill="#EBEBEB"/>
<path d="M135.37 36.3633H129.62V57.0649H135.37V36.3633Z" fill="#EBEBEB"/>
<path d="M117.044 35.6508L111.431 36.8547L116.085 57.0625L121.698 55.8586L117.044 35.6508Z" fill="#EBEBEB"/>
<path d="M93.79 32.0405H90.92V57.0649H93.79V32.0405Z" fill="#EBEBEB"/>
<path d="M127.97 32.0405H125.1V57.0649H127.97V32.0405Z" fill="#EBEBEB"/>
<path d="M187.87 38.1973H159.87V56.8525H187.87V38.1973Z" fill="#EBEBEB"/>
<path d="M69.95 111.823L200.39 111.823V105.356L69.95 105.356V111.823Z" fill="#E0E0E0"/>
<path d="M188.63 105.347H194.38V81.5103H188.63V105.347Z" fill="#EBEBEB"/>
<path d="M160.85 105.347H166.6V81.5103H160.85V105.347Z" fill="#EBEBEB"/>
<path d="M125.108 104.405L130.775 105.348L134.971 81.8571L129.304 80.9145L125.108 104.405Z" fill="#EBEBEB"/>
<path d="M181.51 105.347H187.26V84.6465H181.51V105.347Z" fill="#EBEBEB"/>
<path d="M168.3 105.347H174.05V84.6465H168.3V105.347Z" fill="#EBEBEB"/>
<path d="M134.96 105.347H140.71V84.6465H134.96V105.347Z" fill="#EBEBEB"/>
<path d="M148.654 104.134L154.267 105.338L158.921 85.1302L153.308 83.9263L148.654 104.134Z" fill="#EBEBEB"/>
<path d="M176.55 105.357H179.42V80.333H176.55V105.357Z" fill="#EBEBEB"/>
<path d="M142.37 105.357H145.24V80.333H142.37V105.357Z" fill="#EBEBEB"/>
<path d="M82.47 105.135H110.47V86.4805H82.47V105.135Z" fill="#EBEBEB"/>
<path d="M426.76 34.5879H295.84V174.398H426.76V34.5879Z" fill="#E9E9E9"/>
<path d="M421.34 40.1274H301.6V169.148H421.34V40.1274Z" fill="#F4F4F4"/>
<path d="M335.44 40.1274L301.6 162.441V96.2272L317.09 40.1274H335.44Z" fill="white"/>
<path d="M350.57 40.1274L314.88 169.148H308.15L343.83 40.1274H350.57Z" fill="white"/>
<path d="M421.34 75.3145V141.538L413.76 169.148H395.4L421.34 75.3145Z" fill="white"/>
<path d="M363.62 34.5879H358.97V174.398H363.62V34.5879Z" fill="#E9E9E9"/>
<path d="M424.24 62.9614H298.11V67.4497H424.24V62.9614Z" fill="#E9E9E9"/>
<path d="M443.63 248.246C441.83 245.351 438.86 247.879 438.86 247.879C439.29 242.397 434.06 238.643 434.06 238.643C434.06 238.643 440.13 238.643 440.98 233.055C441.83 227.468 438.86 230.064 436.08 230.025C433.3 229.987 430.39 237.833 434.08 242.243C437.77 246.653 436.76 254.171 428.3 261.419C426.269 263.244 424.749 265.535 423.88 268.078C424.51 261.429 424.88 252.058 422.88 245.794C419.43 235.179 426 232.283 427.88 226.995C429.76 221.706 422.88 217.19 422.88 217.19C422.88 217.19 429.38 214.294 426.21 211.061C423.04 207.828 416.47 208.234 416.47 212.509C416.47 216.784 420.92 218.415 420.92 218.415C420.92 218.415 426 223.521 426 226.184C426 228.848 420.92 234.561 420.92 234.561C420.92 234.561 423.24 229.658 418.59 229.456C413.94 229.253 412.45 235.169 414.35 237.833C416.25 240.496 419.43 238.238 419.43 238.238C419.629 241.34 420.117 244.418 420.89 247.435C421.37 248.96 421.14 254.953 420.74 261.187C419.859 258.937 418.449 256.915 416.62 255.281C408.15 248.043 407.16 240.515 410.83 236.105C414.5 231.695 411.59 223.858 408.83 223.897C406.07 223.936 403.09 221.33 403.93 226.927C404.77 232.525 410.85 232.515 410.85 232.515C410.85 232.515 405.63 236.269 406.05 241.751C406.05 241.751 403.05 239.261 401.29 242.118C398.07 247.223 405.52 250.398 406.77 247.908C406.77 247.908 422.56 258.697 418.77 274.225L419.66 275.49C419.54 276.744 419.47 277.497 419.47 277.497L420.71 276.986L422.11 278.983C422.06 281.241 422.181 283.498 422.47 285.739L426.25 280.363C422.44 264.826 438.25 254.036 438.25 254.036C439.39 256.526 446.84 253.361 443.63 248.246Z" fill="#E0E0E0"/>
<path opacity="0.2" d="M443.63 248.246C441.83 245.351 438.86 247.879 438.86 247.879C439.29 242.397 434.06 238.643 434.06 238.643C434.06 238.643 440.13 238.643 440.98 233.055C441.83 227.468 438.86 230.064 436.08 230.025C433.3 229.987 430.39 237.833 434.08 242.243C437.77 246.653 436.76 254.171 428.3 261.419C426.269 263.244 424.749 265.535 423.88 268.078C424.51 261.429 424.88 252.058 422.88 245.794C419.43 235.179 426 232.283 427.88 226.995C429.76 221.706 422.88 217.19 422.88 217.19C422.88 217.19 429.38 214.294 426.21 211.061C423.04 207.828 416.47 208.234 416.47 212.509C416.47 216.784 420.92 218.415 420.92 218.415C420.92 218.415 426 223.521 426 226.184C426 228.848 420.92 234.561 420.92 234.561C420.92 234.561 423.24 229.658 418.59 229.456C413.94 229.253 412.45 235.169 414.35 237.833C416.25 240.496 419.43 238.238 419.43 238.238C419.629 241.34 420.117 244.418 420.89 247.435C421.37 248.96 421.14 254.953 420.74 261.187C419.859 258.937 418.449 256.915 416.62 255.281C408.15 248.043 407.16 240.515 410.83 236.105C414.5 231.695 411.59 223.858 408.83 223.897C406.07 223.936 403.09 221.33 403.93 226.927C404.77 232.525 410.85 232.515 410.85 232.515C410.85 232.515 405.63 236.269 406.05 241.751C406.05 241.751 403.05 239.261 401.29 242.118C398.07 247.223 405.52 250.398 406.77 247.908C406.77 247.908 422.56 258.697 418.77 274.225L419.66 275.49C419.54 276.744 419.47 277.497 419.47 277.497L420.71 276.986L422.11 278.983C422.06 281.241 422.181 283.498 422.47 285.739L426.25 280.363C422.44 264.826 438.25 254.036 438.25 254.036C439.39 256.526 446.84 253.361 443.63 248.246Z" fill="#E0E0E0"/>
<path d="M440.54 314.498H404.36L400.46 276.271H444.44L440.54 314.498Z" fill="#E6E6E6"/>
<path d="M446.37 272.054H398.53V280.489H446.37V272.054Z" fill="#F0F0F0"/>
<path d="M250 359.548C357.082 359.548 443.89 354.657 443.89 348.623C443.89 342.59 357.082 337.699 250 337.699C142.917 337.699 56.11 342.59 56.11 348.623C56.11 354.657 142.917 359.548 250 359.548Z" fill="#F5F5F5"/>
<path d="M66.46 347.311H242.48L242.48 134.223L66.46 134.223L66.46 347.311Z" fill="#407BFF"/>
<g filter="url(#filter0_i)">
<path d="M242.57 134.213H66.45V346.751H242.57V134.213Z" fill="url(#paint0_linear)"/>
</g>
<path opacity="0.2" d="M237.27 140.901H97.68V180.151H237.27V140.901Z" fill="black"/>
<path opacity="0.5" d="M105.61 147.261H97.68V180.16H105.61V147.261Z" fill="white"/>
<path opacity="0.5" d="M143.95 147.261H136.02V180.16H143.95V147.261Z" fill="white"/>
<path opacity="0.5" d="M187.482 146.433L179.667 147.733L185.458 180.154L193.273 178.854L187.482 146.433Z" fill="white"/>
<path opacity="0.5" d="M115.43 151.594H107.5V180.16H115.43V151.594Z" fill="white"/>
<path opacity="0.5" d="M133.66 151.594H125.73V180.16H133.66V151.594Z" fill="white"/>
<path opacity="0.5" d="M179.67 151.594H171.74V180.16H179.67V151.594Z" fill="white"/>
<path opacity="0.5" d="M154.375 150.604L146.634 152.264L153.056 180.15L160.797 178.49L154.375 150.604Z" fill="white"/>
<path opacity="0.5" d="M122.29 145.629H118.33V180.16H122.29V145.629Z" fill="white"/>
<path opacity="0.5" d="M169.45 145.629H165.49V180.16H169.45V145.629Z" fill="white"/>
<path opacity="0.2" d="M97.6801 225.625L237.27 225.625V186.375H97.6801V225.625Z" fill="black"/>
<path opacity="0.5" d="M229.34 225.625H237.27V192.725H229.34V225.625Z" fill="white"/>
<path opacity="0.5" d="M190.99 225.625H198.92V192.725H190.99V225.625Z" fill="white"/>
<path opacity="0.5" d="M141.679 224.322L149.494 225.622L155.284 193.2L147.47 191.9L141.679 224.322Z" fill="white"/>
<path opacity="0.5" d="M219.52 225.625H227.45V197.059H219.52V225.625Z" fill="white"/>
<path opacity="0.5" d="M201.28 225.625H209.21V197.059H201.28V225.625Z" fill="white"/>
<path opacity="0.5" d="M155.28 225.625H163.21V197.059H155.28V225.625Z" fill="white"/>
<path opacity="0.5" d="M174.174 223.955L181.915 225.616L188.337 197.73L180.596 196.069L174.174 223.955Z" fill="white"/>
<path opacity="0.5" d="M212.66 225.625H216.62V191.094H212.66V225.625Z" fill="white"/>
<path opacity="0.5" d="M165.5 225.625H169.46V191.094H165.5V225.625Z" fill="white"/>
<path opacity="0.5" d="M105.61 192.725H97.68V225.625H105.61V192.725Z" fill="white"/>
<path opacity="0.5" d="M115.43 197.059H107.5V225.625H115.43V197.059Z" fill="white"/>
<path opacity="0.5" d="M133.66 197.059H125.73V225.625H133.66V197.059Z" fill="white"/>
<path opacity="0.5" d="M122.29 191.094H118.33V225.625H122.29V191.094Z" fill="white"/>
<path opacity="0.2" d="M237.27 231.84H97.68V271.089H237.27V231.84Z" fill="black"/>
<g opacity="0.5">
<path opacity="0.5" d="M185.73 238.2H177.8V271.099H185.73V238.2Z" fill="white"/>
<path opacity="0.5" d="M229.261 237.366L221.446 238.666L227.236 271.087L235.051 269.787L229.261 237.366Z" fill="white"/>
<path opacity="0.5" d="M157.21 242.533H149.28V271.099H157.21V242.533Z" fill="white"/>
<path opacity="0.5" d="M175.44 242.533H167.51V271.099H175.44V242.533Z" fill="white"/>
<path opacity="0.5" d="M221.44 242.533H213.51V271.099H221.44V242.533Z" fill="white"/>
<path opacity="0.5" d="M196.153 241.534L188.412 243.195L194.834 271.081L202.575 269.421L196.153 241.534Z" fill="white"/>
<path opacity="0.5" d="M164.06 236.559H160.1V271.089H164.06V236.559Z" fill="white"/>
<path opacity="0.5" d="M211.23 236.559H207.27V271.089H211.23V236.559Z" fill="white"/>
<path opacity="0.5" d="M138.037 237.373L130.222 238.673L136.012 271.094L143.827 269.794L138.037 237.373Z" fill="white"/>
<path opacity="0.5" d="M130.21 242.533H122.28V271.099H130.21V242.533Z" fill="white"/>
<path opacity="0.5" d="M104.926 241.546L97.1849 243.206L103.607 271.093L111.348 269.432L104.926 241.546Z" fill="white"/>
<path opacity="0.5" d="M120 236.559H116.04V271.089H120V236.559Z" fill="white"/>
</g>
<path opacity="0.2" d="M66.46 347.311H92.37L92.37 134.223H66.46L66.46 347.311Z" fill="black"/>
<path opacity="0.1" d="M236.23 278.057H170.16V338.442H236.23V278.057Z" fill="black"/>
<path opacity="0.1" d="M164.89 278.057H97.68V338.442H164.89V278.057Z" fill="black"/>
<path opacity="0.2" d="M160.87 305.185C160.87 305.792 160.683 306.385 160.334 306.89C159.985 307.395 159.488 307.788 158.907 308.02C158.326 308.253 157.686 308.313 157.07 308.195C156.453 308.077 155.886 307.784 155.441 307.355C154.997 306.926 154.694 306.379 154.571 305.784C154.448 305.188 154.511 304.571 154.752 304.011C154.993 303.45 155.4 302.971 155.923 302.633C156.446 302.296 157.061 302.116 157.69 302.116C158.533 302.116 159.342 302.44 159.939 303.015C160.535 303.591 160.87 304.371 160.87 305.185Z" fill="black"/>
<path opacity="0.2" d="M179.87 305.185C179.87 305.792 179.683 306.385 179.334 306.89C178.985 307.395 178.488 307.788 177.907 308.02C177.326 308.253 176.686 308.313 176.07 308.195C175.453 308.077 174.886 307.784 174.441 307.355C173.997 306.926 173.694 306.379 173.571 305.784C173.448 305.188 173.511 304.571 173.752 304.011C173.993 303.45 174.4 302.971 174.923 302.633C175.446 302.296 176.061 302.116 176.69 302.116C177.533 302.116 178.342 302.44 178.939 303.015C179.535 303.591 179.87 304.371 179.87 305.185Z" fill="black"/>
<path d="M359.04 154.75H346.19L349.61 190.254L329.29 193.198V195.668H372.09V193.198L363.32 190.254L359.04 154.75Z" fill="#263238"/>
<path d="M309.15 177.284C309.083 177.828 309.137 178.379 309.308 178.901C309.479 179.423 309.763 179.904 310.142 180.312C310.52 180.72 310.984 181.046 311.502 181.267C312.021 181.489 312.583 181.602 313.15 181.598H391C392.217 181.574 393.383 181.123 394.279 180.329C395.176 179.534 395.741 178.452 395.87 177.284L400.49 129.223C400.544 128.755 400.51 128.281 400.39 127.824C400.166 126.986 399.657 126.245 398.944 125.72C398.231 125.195 397.357 124.916 396.46 124.929H318.64C317.423 124.953 316.258 125.404 315.361 126.198C314.464 126.992 313.899 128.075 313.77 129.243L309.15 177.284Z" fill="#263238"/>
<path opacity="0.6" d="M391 179.186C391.594 179.164 392.16 178.939 392.597 178.549C393.033 178.16 393.311 177.633 393.38 177.063L398 129.002C398.037 128.807 398.037 128.608 398 128.413C397.923 128.09 397.73 127.804 397.456 127.604C397.182 127.405 396.843 127.305 396.5 127.323H318.64C318.047 127.345 317.482 127.571 317.047 127.96C316.612 128.35 316.337 128.877 316.27 129.446L311.65 177.507C311.621 177.724 311.64 177.944 311.705 178.154C311.771 178.363 311.882 178.557 312.03 178.723C312.177 178.876 312.357 178.997 312.557 179.077C312.758 179.157 312.973 179.194 313.19 179.186H391Z" fill="#7D8488"/>
<path d="M336.91 166.457C336.91 166.457 335.33 139.589 342.19 133.451C349.05 127.313 358.29 129.099 363.19 132.38C368.09 135.661 373.47 144.183 368.59 169.506L336.91 166.457Z" fill="#263238"/>
<path d="M368.41 179.185C368.404 179.143 368.404 179.101 368.41 179.06C369.003 177.226 369.67 175.247 370.41 173.124C370.96 171.512 371.55 169.804 372.21 167.999C368.285 166.79 364.275 165.858 360.21 165.21C355.934 164.479 351.61 164.04 347.27 163.898C341.66 163.849 335.22 164.458 335.22 164.458C335.22 164.458 334.3 164.67 333.73 170.412C333.53 172.478 333.33 175.344 333.22 179.185H368.41Z" fill="#263238"/>
<path d="M334.67 179.186L334.17 171.214L333.74 164.458C332.02 164.786 327.45 172.343 323.64 179.186H334.67Z" fill="white"/>
<path opacity="0.2" d="M334.67 179.185L334.17 171.214C332.083 173.623 330.368 176.311 329.08 179.195L334.67 179.185Z" fill="black"/>
<path d="M377.19 179.186C374.13 170.548 372.24 168 372.24 168L368.13 179.186H377.19Z" fill="white"/>
<path d="M349.7 170.036C356.8 169.158 358.94 166.234 358.94 166.234C354.43 162.132 358.18 155.02 358.18 155.02L349.63 156.554C349.826 157.703 349.936 158.864 349.96 160.028C350.02 165.037 347.68 165.095 347.68 165.095C346.18 167.807 349.7 170.036 349.7 170.036Z" fill="#EEC1BB"/>
<path opacity="0.2" d="M349.63 156.554C349.826 157.703 349.936 158.864 349.96 160.029C355.74 160.029 358.18 155.02 358.18 155.02L349.63 156.554Z" fill="black"/>
<path d="M354.35 133.48C346.92 133.094 344.35 136.809 343.35 144.173C342.15 153.37 343.9 160.048 353.35 158.562C366.07 156.555 366.7 134.146 354.35 133.48Z" fill="#EEC1BB"/>
<path d="M348.17 144.018C347.52 145.071 346.737 146.044 345.84 146.913C346.035 147.228 346.317 147.486 346.654 147.656C346.991 147.826 347.37 147.903 347.75 147.878L348.17 144.018Z" fill="#D4827D"/>
<path d="M353.11 138.729C353.701 138.69 354.294 138.783 354.842 139.001C355.39 139.218 355.878 139.554 356.27 139.983" stroke="#263238" stroke-width="0.72468" stroke-linecap="round" stroke-linejoin="round"/>
<path d="M347.73 138.141C347.229 137.989 346.699 137.948 346.18 138.022C345.66 138.096 345.165 138.281 344.73 138.565" stroke="#263238" stroke-width="0.72468" stroke-linecap="round" stroke-linejoin="round"/>
<path d="M348.68 150.677C348.984 151.505 349.225 152.353 349.4 153.215H349.88C352.06 153.119 353.04 152.385 353.46 151.594C353.66 151.204 353.756 150.773 353.74 150.339C353.748 150.092 353.717 149.844 353.65 149.605C352.337 150.249 350.892 150.605 349.42 150.648C349 150.677 348.68 150.677 348.68 150.677Z" fill="#263238"/>
<path d="M349.42 150.629L349.65 151.372C351.7 151.276 353.13 150.947 353.74 150.32C353.748 150.073 353.717 149.826 353.65 149.587C352.337 150.231 350.892 150.587 349.42 150.629Z" fill="white"/>
<path d="M349.88 153.197C352.06 153.1 353.04 152.366 353.46 151.574C352.634 151.624 351.825 151.817 351.07 152.144C350.57 152.367 350.154 152.735 349.88 153.197Z" fill="#DE5753"/>
<path d="M361.79 146.007C361.79 146.007 358.65 139.927 359.43 135.391C359.43 135.391 345.03 128.809 343.49 143.199C343.49 143.199 342.78 130.315 355.57 130.701C368.36 131.087 367.29 149.124 360.38 154.152C360.38 154.162 363.73 149.8 361.79 146.007Z" fill="#263238"/>
<path d="M360.49 147.453C360.612 146.629 361.065 145.884 361.752 145.38C362.439 144.876 363.304 144.653 364.16 144.761C366.45 145.128 367.29 149.75 361.5 150.551C360.67 150.658 360.25 149.856 360.49 147.453Z" fill="#EEC1BB"/>
<path d="M351.21 143.739C351.21 143.739 353.05 142.184 354.45 143.459C353.382 143.656 352.297 143.75 351.21 143.739Z" fill="#263238"/>
<path d="M347.7 143.652C347.7 143.652 346.03 141.933 344.5 143.063C345.544 143.359 346.616 143.556 347.7 143.652Z" fill="#263238"/>
<path d="M365.53 166.957C365.53 166.957 357.18 173.491 349.42 173.385C341.66 173.279 338.92 164.844 338.92 164.844C338.92 164.844 351 161.447 365.53 166.957Z" fill="#EEC1BB"/>
<path d="M369.63 179.185C370.38 175.325 371.24 171.464 372.23 168L364.82 165.761C362.576 169.998 360.954 174.516 360 179.185H369.63Z" fill="white"/>
<path d="M338.74 179.186C339.63 172.121 339.69 163.898 339.69 163.898L333.74 164.458C332.27 168.319 331.49 173.646 331.11 179.186H338.74Z" fill="white"/>
<path d="M351.21 131.839C349.148 132.009 347.192 132.791 345.61 134.079C344.029 135.366 342.9 137.096 342.38 139.029C344.561 137.787 347.108 137.281 349.62 137.591C350.074 136.681 350.606 135.809 351.21 134.985C350.765 135.822 350.471 136.726 350.34 137.658C351.691 137.804 353.029 138.053 354.34 138.401C354.711 137.705 355.171 137.056 355.71 136.471C355.438 137.183 355.286 137.932 355.26 138.691C356.256 138.975 357.234 139.313 358.19 139.704C358.557 137.914 359.321 136.222 360.43 134.744C360.43 134.744 358.55 131.183 351.21 131.839Z" fill="#263238"/>
<path d="M361.86 149.442C361.834 149.411 361.811 149.379 361.79 149.345C361.591 148.995 361.517 148.592 361.58 148.197C361.69 147.357 362.99 145.301 364 146.498C364.231 146.812 364.337 147.196 364.3 147.579C364.279 148.103 364.132 148.615 363.87 149.075C363.774 149.282 363.627 149.464 363.442 149.605C363.258 149.746 363.041 149.842 362.81 149.886C362.626 149.896 362.441 149.861 362.275 149.784C362.109 149.706 361.966 149.588 361.86 149.442Z" fill="#407BFF"/>
<path opacity="0.2" d="M361.86 149.442C361.834 149.411 361.811 149.379 361.79 149.345C361.591 148.995 361.517 148.592 361.58 148.197C361.69 147.357 362.99 145.301 364 146.498C364.231 146.812 364.337 147.196 364.3 147.579C364.279 148.103 364.132 148.615 363.87 149.075C363.774 149.282 363.627 149.464 363.442 149.605C363.258 149.746 363.041 149.842 362.81 149.886C362.626 149.896 362.441 149.861 362.275 149.784C362.109 149.706 361.966 149.588 361.86 149.442Z" fill="black"/>
<path d="M362 148.12C362 148.12 362.89 146.305 363.49 146.643C364.09 146.981 363.85 148.573 363.27 148.882C362.91 149.087 362.637 149.408 362.5 149.789C362.5 149.789 360.03 152.684 359.38 152.385V151.574C360.573 150.684 361.482 149.486 362 148.12Z" fill="#407BFF"/>
<path d="M346.24 350.476H352.37L363.38 202.588H355.25L346.24 350.476Z" fill="#263238"/>
<path opacity="0.4" d="M346.24 350.476H352.37L362.84 209.933L363.38 202.82H355.25L354.81 209.933L346.24 350.476Z" fill="white"/>
<path opacity="0.2" d="M354.81 209.577H362.84L363.38 202.82H355.25L354.81 209.577Z" fill="black"/>
<path d="M301.28 350.476H307.41L308.41 202.588H300.28L301.28 350.476Z" fill="#263238"/>
<path opacity="0.5" d="M300.28 202.82L300.44 226.687L301.28 350.476H307.41L308.25 226.687L308.41 202.82H300.28Z" fill="white"/>
<path opacity="0.2" d="M300.28 202.82L300.44 226.947H308.25L308.41 202.82H300.28Z" fill="black"/>
<path d="M236.24 350.476H242.37L253.38 202.588H245.25L236.24 350.476Z" fill="#263238"/>
<path opacity="0.5" d="M236.24 350.476H242.37L252.84 209.933L253.38 202.82H245.25L244.81 209.933L236.24 350.476Z" fill="white"/>
<path opacity="0.2" d="M244.81 209.577H252.84L253.38 202.82H245.25L244.81 209.577Z" fill="black"/>
<path d="M416.32 350.476H422.45L413.45 202.588H405.32L416.32 350.476Z" fill="#263238"/>
<path opacity="0.5" d="M405.32 202.82L405.86 209.933L416.33 350.476H422.45L413.89 209.933L413.45 202.82H405.32Z" fill="white"/>
<path opacity="0.2" d="M413.45 202.82H405.32L405.86 209.577H413.89L413.45 202.82Z" fill="black"/>
<path d="M417.69 206.284L240.96 206.284C240.676 206.284 240.396 206.23 240.133 206.125C239.871 206.02 239.633 205.867 239.433 205.673C239.232 205.48 239.073 205.25 238.964 204.997C238.856 204.744 238.8 204.473 238.8 204.199V198.881L419.88 198.881V204.199C419.88 204.475 419.823 204.749 419.713 205.004C419.602 205.259 419.441 205.49 419.237 205.684C419.033 205.878 418.791 206.031 418.526 206.134C418.26 206.237 417.976 206.288 417.69 206.284Z" fill="#407BFF"/>
<path opacity="0.6" d="M417.69 206.284L240.96 206.284C240.676 206.284 240.396 206.23 240.133 206.125C239.871 206.02 239.633 205.867 239.433 205.673C239.232 205.48 239.073 205.25 238.964 204.997C238.856 204.744 238.8 204.473 238.8 204.199V198.881L419.88 198.881V204.199C419.88 204.475 419.823 204.749 419.713 205.004C419.602 205.259 419.441 205.49 419.237 205.684C419.033 205.878 418.791 206.031 418.526 206.134C418.26 206.237 417.976 206.288 417.69 206.284Z" fill="white"/>
<path opacity="0.2" d="M238.8 202.579L419.88 202.579V198.872L238.8 198.872V202.579Z" fill="black"/>
<path d="M235 199.848H423.69C423.974 199.848 424.255 199.794 424.517 199.689C424.779 199.585 425.017 199.431 425.217 199.237C425.418 199.044 425.577 198.814 425.686 198.561C425.794 198.308 425.85 198.037 425.85 197.763C425.85 197.209 425.623 196.678 425.218 196.285C424.813 195.893 424.264 195.671 423.69 195.668H235C234.426 195.671 233.877 195.893 233.472 196.285C233.067 196.678 232.84 197.209 232.84 197.763C232.84 198.037 232.896 198.308 233.004 198.561C233.113 198.814 233.272 199.044 233.473 199.237C233.673 199.431 233.911 199.585 234.173 199.689C234.435 199.794 234.716 199.848 235 199.848Z" fill="#407BFF"/>
<path opacity="0.6" d="M235 199.848H423.69C423.974 199.848 424.255 199.794 424.517 199.689C424.779 199.585 425.017 199.431 425.217 199.237C425.418 199.044 425.577 198.814 425.686 198.561C425.794 198.308 425.85 198.037 425.85 197.763C425.85 197.209 425.623 196.678 425.218 196.285C424.813 195.893 424.264 195.671 423.69 195.668H235C234.426 195.671 233.877 195.893 233.472 196.285C233.067 196.678 232.84 197.209 232.84 197.763C232.84 198.037 232.896 198.308 233.004 198.561C233.113 198.814 233.272 199.044 233.473 199.237C233.673 199.431 233.911 199.585 234.173 199.689C234.435 199.794 234.716 199.848 235 199.848Z" fill="white"/>
<path d="M346.31 195.669L345.32 192.079H304.77L286.1 193.874L285.39 195.669H346.31Z" fill="#263238"/>
<path opacity="0.4" d="M304.77 192.079V195.669H346.31L345.32 192.079H304.77Z" fill="black"/>
<path d="M421.18 190.418C421.262 192.219 420.92 194.014 420.18 195.668H377.18V194.703H378.05V186.162H377.18V185.197H420.18C420.905 186.846 421.246 188.628 421.18 190.418Z" fill="#263238"/>
<path opacity="0.2" d="M421.18 190.418C421.262 192.219 420.92 194.014 420.18 195.668H377.18V194.703H378.05V186.162H377.18V185.197H420.18C420.905 186.846 421.246 188.628 421.18 190.418Z" fill="white"/>
<path opacity="0.2" d="M398.18 190.418C398.262 192.219 397.92 194.014 397.18 195.668H377.18V194.703H378.05V186.162H377.18V185.197H397.18C397.905 186.846 398.246 188.628 398.18 190.418Z" fill="black"/>
<path opacity="0.8" d="M396.06 190.418C396.127 191.881 395.85 193.339 395.25 194.684H378.06V186.143H395.25C395.842 187.493 396.118 188.953 396.06 190.418Z" fill="white"/>
<path opacity="0.6" d="M414.18 190.418C414.262 192.219 413.92 194.014 413.18 195.668H405.18C405.92 194.014 406.262 192.219 406.18 190.418C406.252 188.615 405.91 186.82 405.18 185.159H413.18C413.91 186.82 414.252 188.615 414.18 190.418Z" fill="white"/>
<g filter="url(#filter1_i)">
<path d="M425 179.909C425.082 181.71 424.74 183.505 424 185.159H381V184.194H381.87V175.643H381V174.678H424C424.726 176.33 425.068 178.116 425 179.909Z" fill="url(#paint1_linear)"/>
</g>
<path opacity="0.2" d="M402 179.909C402.082 181.71 401.74 183.505 401 185.159H381V184.194H381.87V175.643H381V174.678H401C401.726 176.33 402.068 178.116 402 179.909Z" fill="black"/>
<path opacity="0.8" d="M399.89 179.909C399.957 181.371 399.68 182.83 399.08 184.174H381.89V175.643H399.08C399.67 176.991 399.947 178.447 399.89 179.909Z" fill="white"/>
<path opacity="0.2" d="M418 179.909C418.082 181.709 417.74 183.504 417 185.159H409C409.74 183.504 410.082 181.709 410 179.909C410.072 178.106 409.73 176.31 409 174.649H417C417.73 176.31 418.072 178.106 418 179.909Z" fill="black"/>
<path opacity="0.6" d="M346.88 70.5469H316.81C315.137 70.5469 313.78 71.8561 313.78 73.4711V102.491C313.78 104.106 315.137 105.416 316.81 105.416H346.88C348.553 105.416 349.91 104.106 349.91 102.491V73.4711C349.91 71.8561 348.553 70.5469 346.88 70.5469Z" fill="#263238"/>
<path d="M327.71 102.298C327.71 102.298 329.55 112.122 343 116.552C343 116.552 335.36 109.43 335.36 102.298H327.71Z" fill="#788083"/>
<path d="M323.67 81.4526H340.03" stroke="white" stroke-width="2" stroke-miterlimit="10"/>
<path d="M329.11 77.6309C328.466 83.6973 329.967 89.7955 333.37 94.9341" stroke="white" stroke-width="2" stroke-miterlimit="10"/>
<path d="M335.69 93.8638C335.69 93.8638 340.03 93.1592 338.95 89.3373C338 85.9496 328.27 84.1352 325.8 90.0418C323.9 94.5587 328.49 93.8155 331.16 92.3968C335.82 89.9067 336.78 84.251 336.78 84.251" stroke="white" stroke-width="2" stroke-miterlimit="10"/>
<path d="M256.19 102.298C256.19 102.298 258.03 112.122 271.48 116.552C271.48 116.552 263.84 109.43 263.84 102.298H256.19Z" fill="#407BFF"/>
<path opacity="0.6" d="M256.19 102.298C256.19 102.298 258.03 112.122 271.48 116.552C271.48 116.552 263.84 109.43 263.84 102.298H256.19Z" fill="white"/>
<g filter="url(#filter2_i)">
<path d="M275.39 70.5469H245.32C243.647 70.5469 242.29 71.8561 242.29 73.4711V102.491C242.29 104.106 243.647 105.416 245.32 105.416H275.39C277.063 105.416 278.42 104.106 278.42 102.491V73.4711C278.42 71.8561 277.063 70.5469 275.39 70.5469Z" fill="url(#paint2_linear)"/>
</g>
<path d="M264 93.8633L262.78 90.5532H258.05L256.83 93.8633H254.13L259.19 80.1499H261.64L266.7 93.8633H264ZM260.41 84.1066L259 88.1212H261.95L260.41 84.1066Z" fill="white"/>
<g filter="url(#filter3_i)">
<path d="M348.69 179.098L336.35 190.119L338.06 191.46L350 180.469C350.177 180.289 350.276 180.051 350.276 179.803C350.276 179.555 350.177 179.317 350 179.137C349.823 178.98 349.593 178.889 349.353 178.882C349.112 178.875 348.877 178.952 348.69 179.098Z" fill="url(#paint3_linear)"/>
</g>
<path d="M331.32 188.063L338.57 184.879C338.57 184.879 344.64 183.788 347.14 184.329C349.64 184.869 355.19 192.136 355.06 193.014C354.93 193.892 345.45 196.073 345.24 196.073C345.03 196.073 340.93 193.825 340.93 193.825L334.22 196.073L331.32 188.063Z" fill="#E4897B"/>
<path d="M268.53 340.613L276.49 339.561L277.6 321.282L269.64 322.344L268.53 340.613Z" fill="#EBB376"/>
<path opacity="0.2" d="M269.64 322.343L277.6 321.292L276.96 331.744L269.02 332.41L269.64 322.343Z" fill="black"/>
<path d="M268.85 233.181L266.85 221.436L222.19 218.859C222.19 218.859 217.44 243.305 221.09 249.819C227.61 261.448 262.71 255.609 272.98 256.729C266.84 280.962 267.44 328.318 267.44 328.318L282.11 329.399C282.11 329.399 293.4 278.366 295.68 254.123C297.27 237.756 283.23 238.17 268.85 233.181Z" fill="#404B64"/>
<path d="M265.77 328.985L283.4 330.104L284.91 322.817L265.54 321.948L265.77 328.985Z" fill="#407BFF"/>
<path opacity="0.2" d="M265.77 328.985L283.4 330.104L284.91 322.817L265.54 321.948L265.77 328.985Z" fill="white"/>
<path d="M277.09 338.635L268.09 338.094C268.016 338.086 267.942 338.092 267.871 338.112C267.8 338.132 267.733 338.166 267.676 338.211C267.618 338.255 267.57 338.311 267.535 338.374C267.499 338.437 267.477 338.506 267.47 338.577L266.59 345.429C266.568 345.789 266.692 346.143 266.937 346.415C267.182 346.687 267.528 346.857 267.9 346.886C271.05 347.021 272.55 346.934 276.52 347.147C280.031 347.498 283.563 347.607 287.09 347.475C290.45 347.156 290.04 343.972 288.59 343.817C285.15 343.441 280.59 340.999 278.45 339.156C278.07 338.839 277.591 338.656 277.09 338.635Z" fill="#263238"/>
<path d="M286.9 340.545L294.92 341.114L299.95 323.464L291.94 322.904L286.9 340.545Z" fill="#EBB376"/>
<path d="M296 341.463C296 341.463 296 341.463 296 341.521H296.07C296.704 341.86 297.375 342.132 298.07 342.331C298.573 342.515 299.127 342.515 299.63 342.331C299.795 342.24 299.93 342.106 300.018 341.943C300.107 341.781 300.146 341.597 300.13 341.414C300.14 341.3 300.121 341.184 300.074 341.078C300.027 340.972 299.953 340.879 299.86 340.806C299.141 340.528 298.343 340.508 297.61 340.748C298.183 340.372 298.604 339.817 298.8 339.175C298.812 339.023 298.77 338.871 298.681 338.745C298.592 338.619 298.461 338.526 298.31 338.48C298.186 338.421 298.049 338.39 297.91 338.39C297.771 338.39 297.634 338.421 297.51 338.48C296.51 338.992 296.15 341.164 296.12 341.279C296.077 341.284 296.033 341.284 295.99 341.279C295.967 341.306 295.956 341.339 295.958 341.373C295.96 341.407 295.975 341.439 296 341.463ZM296.59 341.028L296.41 341.086C296.6 340.372 297.01 339.204 297.59 338.905C297.654 338.867 297.725 338.842 297.799 338.832C297.873 338.822 297.948 338.827 298.02 338.847H298.11C298.36 338.943 298.39 339.088 298.37 339.194C298.35 339.706 297.42 340.613 296.63 341.028H296.59ZM296.59 341.434C297.65 341.115 299.12 340.845 299.59 341.164C299.638 341.197 299.676 341.242 299.699 341.295C299.722 341.348 299.729 341.406 299.72 341.463C299.73 341.578 299.707 341.694 299.655 341.797C299.602 341.901 299.521 341.989 299.42 342.052C299 342.293 298 342.061 296.66 341.434H296.59Z" fill="#407BFF"/>
<path opacity="0.2" d="M291.94 322.904L299.94 323.473L297.07 333.558L289.15 332.622L291.94 322.904Z" fill="black"/>
<path d="M302.66 332.313L288.54 328.308C288.54 328.308 296.97 282.39 305.54 266.467C304.9 266.264 304.05 266.003 303 265.704C301.11 265.154 298.6 264.469 295.65 263.678C275.13 258.186 233.54 247.889 233.54 247.889L252.54 230.778C252.54 230.778 328.22 241.915 329.79 261.159C330.52 270.414 302.66 332.313 302.66 332.313Z" fill="#404B64"/>
<path d="M286.72 328.617L303.72 333.25L306.77 326.426L288.01 321.688L286.72 328.617Z" fill="#407BFF"/>
<path opacity="0.2" d="M286.72 328.617L303.72 333.25L306.77 326.426L288.01 321.688L286.72 328.617Z" fill="white"/>
<path d="M295.71 340.333L287 337.988C286.855 337.945 286.699 337.958 286.565 338.025C286.43 338.091 286.328 338.206 286.28 338.345L284 344.878C283.95 345.052 283.937 345.234 283.96 345.412C283.983 345.591 284.043 345.764 284.136 345.92C284.229 346.076 284.354 346.213 284.502 346.322C284.65 346.432 284.819 346.512 285 346.558C288 347.33 289.54 347.523 293.37 348.546C296.729 349.595 300.161 350.414 303.64 350.997C306.99 351.364 307.28 348.16 305.89 347.716C302.61 346.654 298.69 343.363 296.99 341.114C296.668 340.721 296.216 340.446 295.71 340.333Z" fill="#263238"/>
<path d="M277.29 339.581H277.45C277.45 339.581 277.63 339.639 277.66 339.658C277.69 339.678 277.66 339.658 277.66 339.658H277.73C278.41 339.862 279.111 339.995 279.82 340.054C280.35 340.15 280.897 340.046 281.35 339.765C281.485 339.645 281.584 339.491 281.635 339.321C281.686 339.151 281.688 338.97 281.64 338.799C281.624 338.684 281.58 338.575 281.51 338.481C281.44 338.386 281.348 338.31 281.24 338.259C280.458 338.159 279.664 338.33 279 338.741C279.478 338.265 279.759 337.637 279.79 336.975C279.76 336.818 279.676 336.675 279.554 336.569C279.431 336.462 279.275 336.398 279.11 336.386C278.955 336.36 278.797 336.365 278.644 336.4C278.491 336.435 278.347 336.499 278.22 336.589C277.38 337.284 277.22 339.485 277.22 339.61L277.29 339.581ZM278.15 339.137L277.98 339.224C277.939 338.383 278.177 337.551 278.66 336.849C278.715 336.8 278.779 336.762 278.85 336.737C278.92 336.712 278.995 336.701 279.07 336.704H279.16C279.43 336.704 279.49 336.878 279.5 336.984C279.322 337.831 278.845 338.592 278.15 339.137ZM278.26 339.514C279.26 339.002 280.61 338.432 281.12 338.664C281.173 338.687 281.219 338.723 281.252 338.769C281.286 338.815 281.306 338.869 281.31 338.925C281.341 339.036 281.342 339.153 281.312 339.265C281.282 339.377 281.223 339.479 281.14 339.562C280.74 339.9 279.68 339.871 278.26 339.514Z" fill="#407BFF"/>
<path d="M301.49 142.947C301.3 143.352 301.09 143.758 300.87 144.134C299.587 146.343 297.642 148.127 295.29 149.249C294.696 149.535 294.081 149.777 293.45 149.973C291.021 150.767 288.39 150.77 285.96 149.98C283.53 149.19 281.436 147.651 280 145.601C276.17 140.351 277.21 135.188 278.23 126.3C278.432 124.223 279.182 122.232 280.408 120.514C281.633 118.797 283.294 117.411 285.231 116.488C287.169 115.565 289.319 115.136 291.477 115.242C293.635 115.348 295.729 115.985 297.56 117.093C305.91 122.082 304.85 135.362 301.49 142.947Z" fill="#E4897B"/>
<path opacity="0.2" d="M295.29 149.249C294.696 149.535 294.081 149.777 293.45 149.973C291.787 150.504 290.022 150.671 288.284 150.462C286.546 150.253 284.878 149.674 283.4 148.766C283.993 147.777 284.715 146.865 285.55 146.054C289.047 146.195 292.428 147.304 295.29 149.249Z" fill="black"/>
<path d="M271.19 151.603C272.77 157.336 282.96 161.93 282.96 161.93C282.96 161.93 289.83 164.033 289.78 161.505C286.71 158.812 286.08 156.226 286.72 153.784C287.171 152.321 287.915 150.957 288.91 149.77C289.444 149.098 290.015 148.453 290.62 147.84L284.62 132.35C282.45 138.787 277.58 149.982 271.19 151.603Z" fill="#E4897B"/>
<path d="M300.19 123.529C300.19 123.529 302.77 131.916 293.86 137.938C293.86 137.938 290.12 145.659 288.03 146.624C285.94 147.589 281.22 147.01 279.63 146.624C278.04 146.238 269.81 139.656 272.19 124.176C274.57 108.696 288.03 113.56 288.03 113.56C288.03 113.56 292.63 109.7 301.18 114.525C308.32 118.521 306.92 125.99 300.19 123.529Z" fill="#263238"/>
<path d="M292.65 133.923C292.682 134.777 292.909 135.613 293.315 136.372C293.721 137.132 294.297 137.795 295 138.314C296.72 139.375 298.38 137.059 298.57 134.377C298.73 131.993 298.05 128.49 295.99 128.586C293.93 128.683 292.42 131.453 292.65 133.923Z" fill="#E4897B"/>
<path d="M301.29 162.798C301.29 162.798 288.65 149.133 271.76 150.542C254.87 151.951 238 164.545 229.53 184.329C221.06 204.113 218.58 234.021 218.58 234.021C218.58 234.021 245.91 241.577 273.7 234.687C279.505 209.635 288.785 185.455 301.29 162.798Z" fill="#263238"/>
<path d="M301.29 162.798C305.56 167.074 317.75 186.674 321.22 187.408C324.69 188.141 329.74 185.13 333.69 186.279C337.64 187.427 341.69 190.901 340.79 193.131C339.89 195.36 330.59 201.295 319.06 201.614C309.19 201.894 288.39 178.172 288.39 178.172C288.39 169.004 301.29 162.798 301.29 162.798Z" fill="#263238"/>
<path d="M301.82 146.537V145.572C302.057 145.565 302.29 145.512 302.505 145.416C302.72 145.32 302.913 145.183 303.073 145.014C303.232 144.845 303.355 144.647 303.434 144.431C303.512 144.215 303.545 143.986 303.53 143.758C303.53 142.32 299.83 139.213 297.53 137.591L298.11 136.81C298.77 137.263 304.58 141.365 304.57 143.758C304.586 144.116 304.527 144.474 304.396 144.81C304.265 145.146 304.066 145.453 303.809 145.713C303.552 145.973 303.243 146.179 302.902 146.321C302.56 146.463 302.192 146.536 301.82 146.537Z" fill="#263238"/>
<path d="M301.24 133.586C301.24 137.581 298.82 140.824 295.85 140.824C292.88 140.824 290.46 137.581 290.46 133.586C290.46 129.59 292.87 126.357 295.85 126.357C298.83 126.357 301.24 129.59 301.24 133.586Z" fill="#407BFF"/>
<g filter="url(#filter4_i)">
<path d="M301.24 133.586C301.24 137.581 298.82 140.824 295.85 140.824C292.88 140.824 290.46 137.581 290.46 133.586C290.46 129.59 292.87 126.357 295.85 126.357C298.83 126.357 301.24 129.59 301.24 133.586Z" fill="url(#paint4_linear)"/>
</g>
<g filter="url(#filter5_i)">
<path d="M297.74 138.353C299.701 138.353 301.29 136.219 301.29 133.585C301.29 130.952 299.701 128.818 297.74 128.818C295.779 128.818 294.19 130.952 294.19 133.585C294.19 136.219 295.779 138.353 297.74 138.353Z" fill="url(#paint5_linear)"/>
</g>
<g filter="url(#filter6_i)">
<path d="M299.43 130.131C299.43 130.131 299.71 109.265 283.43 112.865C283.43 112.865 295.6 114.284 296.43 130.7L299.43 130.131Z" fill="url(#paint6_linear)"/>
</g>
<path d="M302.083 145.285L301.256 145.423C300.978 145.469 300.792 145.724 300.84 145.992L300.918 146.429C300.966 146.697 301.23 146.877 301.508 146.831L302.336 146.692C302.613 146.646 302.799 146.391 302.751 146.123L302.673 145.686C302.625 145.418 302.361 145.238 302.083 145.285Z" fill="#263238"/>
<path d="M211.4 253.022H278.32C279.646 253.022 280.918 253.531 281.856 254.436C282.793 255.341 283.32 256.568 283.32 257.848V264.304H206.4V257.848C206.4 256.568 206.927 255.341 207.865 254.436C208.802 253.531 210.074 253.022 211.4 253.022Z" fill="#407BFF"/>
<g filter="url(#filter7_i)">
<path d="M211.4 253.022H278.32C279.646 253.022 280.918 253.531 281.856 254.436C282.793 255.341 283.32 256.568 283.32 257.848V264.304H206.4V257.848C206.4 256.568 206.927 255.341 207.865 254.436C208.802 253.531 210.074 253.022 211.4 253.022Z" fill="url(#paint7_linear)"/>
</g>
<path d="M198.5 209.816H226C234.052 209.816 240.58 203.516 240.58 195.745V185.362C240.58 177.591 234.052 171.291 226 171.291H198.5C190.448 171.291 183.92 177.591 183.92 185.362V195.745C183.92 203.516 190.448 209.816 198.5 209.816Z" fill="#263238"/>
<g opacity="0.3">
<path opacity="0.3" d="M198.58 211.496H226.08C234.132 211.496 240.66 205.196 240.66 197.425V187.041C240.66 179.27 234.132 172.97 226.08 172.97H198.58C190.528 172.97 184 179.27 184 187.041V197.425C184 205.196 190.528 211.496 198.58 211.496Z" fill="black"/>
</g>
<path d="M209.33 328.53L238.15 325.799V286.723H249.57V325.789L278.49 328.53C279.877 328.659 281.165 329.283 282.102 330.278C283.039 331.273 283.559 332.57 283.56 333.915V338.094H204.27V333.915C204.271 332.572 204.789 331.276 205.724 330.281C206.659 329.286 207.945 328.662 209.33 328.53Z" fill="#263238"/>
<path opacity="0.2" d="M209.33 328.53L238.15 325.799V286.723H249.57V325.789L278.49 328.53C279.877 328.659 281.165 329.283 282.102 330.278C283.039 331.273 283.559 332.57 283.56 333.915V338.094H204.27V333.915C204.271 332.572 204.789 331.276 205.724 330.281C206.659 329.286 207.945 328.662 209.33 328.53Z" fill="white"/>
<path d="M281.728 350.382C285.8 349.744 288.565 346.041 287.904 342.111C287.243 338.181 283.406 335.512 279.334 336.15C275.262 336.788 272.496 340.491 273.157 344.421C273.818 348.351 277.655 351.019 281.728 350.382Z" fill="#263238"/>
<path d="M212.608 348.375C215.525 345.56 215.525 340.995 212.608 338.18C209.691 335.365 204.961 335.365 202.044 338.18C199.127 340.995 199.127 345.56 202.044 348.375C204.961 351.19 209.691 351.19 212.608 348.375Z" fill="#263238"/>
<path d="M247.4 295.12H240.31C239.215 295.12 238.164 294.7 237.39 293.952C236.615 293.205 236.18 292.191 236.18 291.134V260.309H251.53V291.124C251.531 291.648 251.425 292.168 251.219 292.652C251.012 293.137 250.708 293.578 250.324 293.949C249.94 294.32 249.485 294.614 248.983 294.815C248.481 295.016 247.943 295.12 247.4 295.12Z" fill="#263238"/>
<path opacity="0.3" d="M247.4 295.12H240.31C239.215 295.12 238.164 294.7 237.39 293.952C236.615 293.205 236.18 292.191 236.18 291.134V260.309H251.53V291.124C251.531 291.648 251.425 292.168 251.219 292.652C251.012 293.137 250.708 293.578 250.324 293.949C249.94 294.32 249.485 294.614 248.983 294.815C248.481 295.016 247.943 295.12 247.4 295.12Z" fill="white"/>
<path d="M216.56 199.229C216.56 199.229 214.38 251.343 229.41 260.309H212.25C212.25 260.309 198.95 242.561 202.71 199.229H216.56Z" fill="#263238"/>
<path opacity="0.3" d="M216.56 199.229C216.56 199.229 214.38 251.343 229.41 260.309H212.25C212.25 260.309 198.95 242.561 202.71 199.229H216.56Z" fill="white"/>
<path d="M284.52 258.668H205.21C204.1 258.668 203.2 259.537 203.2 260.608V262.365C203.2 263.437 204.1 264.306 205.21 264.306H284.52C285.63 264.306 286.53 263.437 286.53 262.365V260.608C286.53 259.537 285.63 258.668 284.52 258.668Z" fill="#263238"/>
<path opacity="0.6" d="M284.52 258.668H205.21C204.1 258.668 203.2 259.537 203.2 260.608V262.365C203.2 263.437 204.1 264.306 205.21 264.306H284.52C285.63 264.306 286.53 263.437 286.53 262.365V260.608C286.53 259.537 285.63 258.668 284.52 258.668Z" fill="white"/>
<path d="M216.78 182.997H201.25C196.699 182.997 193.01 186.557 193.01 190.949V196.807C193.01 201.199 196.699 204.759 201.25 204.759H216.78C221.331 204.759 225.02 201.199 225.02 196.807V190.949C225.02 186.557 221.331 182.997 216.78 182.997Z" fill="#263238"/>
<path opacity="0.2" d="M216.78 182.997H201.25C196.699 182.997 193.01 186.557 193.01 190.949V196.807C193.01 201.199 196.699 204.759 201.25 204.759H216.78C221.331 204.759 225.02 201.199 225.02 196.807V190.949C225.02 186.557 221.331 182.997 216.78 182.997Z" fill="white"/>
<defs>
<filter id="filter0_i" x="65.45" y="134.213" width="177.12" height="215.538" filterUnits="userSpaceOnUse" color-interpolation-filters="sRGB">
<feFlood flood-opacity="0" result="BackgroundImageFix"/>
<feBlend mode="normal" in="SourceGraphic" in2="BackgroundImageFix" result="shape"/>
<feColorMatrix in="SourceAlpha" type="matrix" values="0 0 0 0 0 0 0 0 0 0 0 0 0 0 0 0 0 0 127 0" result="hardAlpha"/>
<feOffset dx="-1" dy="4"/>
<feGaussianBlur stdDeviation="1.5"/>
<feComposite in2="hardAlpha" operator="arithmetic" k2="-1" k3="1"/>
<feColorMatrix type="matrix" values="0 0 0 0 0 0 0 0 0 0 0 0 0 0 0 0 0 0 0.25 0"/>
<feBlend mode="overlay" in2="shape" result="effect1_innerShadow"/>
</filter>
<filter id="filter1_i" x="380" y="174.678" width="45.012" height="13.481" filterUnits="userSpaceOnUse" color-interpolation-filters="sRGB">
<feFlood flood-opacity="0" result="BackgroundImageFix"/>
<feBlend mode="normal" in="SourceGraphic" in2="BackgroundImageFix" result="shape"/>
<feColorMatrix in="SourceAlpha" type="matrix" values="0 0 0 0 0 0 0 0 0 0 0 0 0 0 0 0 0 0 127 0" result="hardAlpha"/>
<feOffset dx="-1" dy="4"/>
<feGaussianBlur stdDeviation="1.5"/>
<feComposite in2="hardAlpha" operator="arithmetic" k2="-1" k3="1"/>
<feColorMatrix type="matrix" values="0 0 0 0 0 0 0 0 0 0 0 0 0 0 0 0 0 0 0.25 0"/>
<feBlend mode="overlay" in2="shape" result="effect1_innerShadow"/>
</filter>
<filter id="filter2_i" x="241.29" y="70.5469" width="37.13" height="37.8687" filterUnits="userSpaceOnUse" color-interpolation-filters="sRGB">
<feFlood flood-opacity="0" result="BackgroundImageFix"/>
<feBlend mode="normal" in="SourceGraphic" in2="BackgroundImageFix" result="shape"/>
<feColorMatrix in="SourceAlpha" type="matrix" values="0 0 0 0 0 0 0 0 0 0 0 0 0 0 0 0 0 0 127 0" result="hardAlpha"/>
<feOffset dx="-1" dy="4"/>
<feGaussianBlur stdDeviation="1.5"/>
<feComposite in2="hardAlpha" operator="arithmetic" k2="-1" k3="1"/>
<feColorMatrix type="matrix" values="0 0 0 0 0 0 0 0 0 0 0 0 0 0 0 0 0 0 0.25 0"/>
<feBlend mode="overlay" in2="shape" result="effect1_innerShadow"/>
</filter>
<filter id="filter3_i" x="335.35" y="178.881" width="14.9263" height="15.5791" filterUnits="userSpaceOnUse" color-interpolation-filters="sRGB">
<feFlood flood-opacity="0" result="BackgroundImageFix"/>
<feBlend mode="normal" in="SourceGraphic" in2="BackgroundImageFix" result="shape"/>
<feColorMatrix in="SourceAlpha" type="matrix" values="0 0 0 0 0 0 0 0 0 0 0 0 0 0 0 0 0 0 127 0" result="hardAlpha"/>
<feOffset dx="-1" dy="4"/>
<feGaussianBlur stdDeviation="1.5"/>
<feComposite in2="hardAlpha" operator="arithmetic" k2="-1" k3="1"/>
<feColorMatrix type="matrix" values="0 0 0 0 0 0 0 0 0 0 0 0 0 0 0 0 0 0 0.25 0"/>
<feBlend mode="overlay" in2="shape" result="effect1_innerShadow"/>
</filter>
<filter id="filter4_i" x="289.46" y="126.357" width="11.78" height="17.4668" filterUnits="userSpaceOnUse" color-interpolation-filters="sRGB">
<feFlood flood-opacity="0" result="BackgroundImageFix"/>
<feBlend mode="normal" in="SourceGraphic" in2="BackgroundImageFix" result="shape"/>
<feColorMatrix in="SourceAlpha" type="matrix" values="0 0 0 0 0 0 0 0 0 0 0 0 0 0 0 0 0 0 127 0" result="hardAlpha"/>
<feOffset dx="-1" dy="4"/>
<feGaussianBlur stdDeviation="1.5"/>
<feComposite in2="hardAlpha" operator="arithmetic" k2="-1" k3="1"/>
<feColorMatrix type="matrix" values="0 0 0 0 0 0 0 0 0 0 0 0 0 0 0 0 0 0 0.25 0"/>
<feBlend mode="overlay" in2="shape" result="effect1_innerShadow"/>
</filter>
<filter id="filter5_i" x="293.19" y="128.818" width="8.09998" height="12.5352" filterUnits="userSpaceOnUse" color-interpolation-filters="sRGB">
<feFlood flood-opacity="0" result="BackgroundImageFix"/>
<feBlend mode="normal" in="SourceGraphic" in2="BackgroundImageFix" result="shape"/>
<feColorMatrix in="SourceAlpha" type="matrix" values="0 0 0 0 0 0 0 0 0 0 0 0 0 0 0 0 0 0 127 0" result="hardAlpha"/>
<feOffset dx="-1" dy="4"/>
<feGaussianBlur stdDeviation="1.5"/>
<feComposite in2="hardAlpha" operator="arithmetic" k2="-1" k3="1"/>
<feColorMatrix type="matrix" values="0 0 0 0 0 0 0 0 0 0 0 0 0 0 0 0 0 0 0.25 0"/>
<feBlend mode="overlay" in2="shape" result="effect1_innerShadow"/>
</filter>
<filter id="filter6_i" x="282.43" y="112.448" width="17.0002" height="21.2524" filterUnits="userSpaceOnUse" color-interpolation-filters="sRGB">
<feFlood flood-opacity="0" result="BackgroundImageFix"/>
<feBlend mode="normal" in="SourceGraphic" in2="BackgroundImageFix" result="shape"/>
<feColorMatrix in="SourceAlpha" type="matrix" values="0 0 0 0 0 0 0 0 0 0 0 0 0 0 0 0 0 0 127 0" result="hardAlpha"/>
<feOffset dx="-1" dy="4"/>
<feGaussianBlur stdDeviation="1.5"/>
<feComposite in2="hardAlpha" operator="arithmetic" k2="-1" k3="1"/>
<feColorMatrix type="matrix" values="0 0 0 0 0 0 0 0 0 0 0 0 0 0 0 0 0 0 0.25 0"/>
<feBlend mode="overlay" in2="shape" result="effect1_innerShadow"/>
</filter>
<filter id="filter7_i" x="205.4" y="253.022" width="77.92" height="14.2817" filterUnits="userSpaceOnUse" color-interpolation-filters="sRGB">
<feFlood flood-opacity="0" result="BackgroundImageFix"/>
<feBlend mode="normal" in="SourceGraphic" in2="BackgroundImageFix" result="shape"/>
<feColorMatrix in="SourceAlpha" type="matrix" values="0 0 0 0 0 0 0 0 0 0 0 0 0 0 0 0 0 0 127 0" result="hardAlpha"/>
<feOffset dx="-1" dy="4"/>
<feGaussianBlur stdDeviation="1.5"/>
<feComposite in2="hardAlpha" operator="arithmetic" k2="-1" k3="1"/>
<feColorMatrix type="matrix" values="0 0 0 0 0 0 0 0 0 0 0 0 0 0 0 0 0 0 0.25 0"/>
<feBlend mode="overlay" in2="shape" result="effect1_innerShadow"/>
</filter>
<linearGradient id="paint0_linear" x1="242.632" y1="305.639" x2="61.9747" y2="300.675" gradientUnits="userSpaceOnUse">
<stop stop-color="#29B67F"/>
<stop offset="1" stop-color="#3FC7F4"/>
</linearGradient>
<linearGradient id="paint1_linear" x1="425.027" y1="183.132" x2="380.707" y2="176.96" gradientUnits="userSpaceOnUse">
<stop stop-color="#29B67F"/>
<stop offset="1" stop-color="#3FC7F4"/>
</linearGradient>
<linearGradient id="paint2_linear" x1="283.298" y1="111.343" x2="241.199" y2="108.423" gradientUnits="userSpaceOnUse">
<stop stop-color="#29B67F"/>
<stop offset="1" stop-color="#3FC7F4"/>
</linearGradient>
<linearGradient id="paint3_linear" x1="350.281" y1="189.027" x2="336.005" y2="188.503" gradientUnits="userSpaceOnUse">
<stop stop-color="#29B67F"/>
<stop offset="1" stop-color="#3FC7F4"/>
</linearGradient>
<linearGradient id="paint4_linear" x1="310" y1="126.784" x2="304.689" y2="143.065" gradientUnits="userSpaceOnUse">
<stop stop-color="#29B67F"/>
<stop offset="1" stop-color="#3FC7F4"/>
</linearGradient>
<linearGradient id="paint5_linear" x1="301.293" y1="136.509" x2="294.009" y2="136.329" gradientUnits="userSpaceOnUse">
<stop stop-color="#29B67F"/>
<stop offset="1" stop-color="#3FC7F4"/>
</linearGradient>
<linearGradient id="paint6_linear" x1="299.436" y1="127.17" x2="283.025" y2="126.693" gradientUnits="userSpaceOnUse">
<stop stop-color="#29B67F"/>
<stop offset="1" stop-color="#3FC7F4"/>
</linearGradient>
<linearGradient id="paint7_linear" x1="283.347" y1="262.122" x2="208.226" y2="245.138" gradientUnits="userSpaceOnUse">
<stop stop-color="#29B67F"/>
<stop offset="1" stop-color="#3FC7F4"/>
</linearGradient>
</defs>
</svg>
