<svg width="41" height="46" viewBox="0 0 41 46" fill="none" xmlns="http://www.w3.org/2000/svg">
<g clip-path="url(#clip0)">
<path d="M20.6307 5.74707H20.8588C22.9651 5.7557 33.6379 5.84195 36.5156 6.7102C37.3856 6.97518 38.1783 7.49169 38.8146 8.20809C39.4509 8.9245 39.9085 9.81572 40.1416 10.7927C40.4004 11.8852 40.5823 13.3313 40.7053 14.8234L40.7309 15.1224L40.7873 15.8699L40.8078 16.1689C40.9744 18.7967 40.9949 21.2577 40.9974 21.7953V22.0109C40.9949 22.5687 40.9718 25.1964 40.7873 27.9334L40.7668 28.2353L40.7438 28.5343C40.6156 30.1788 40.426 31.8118 40.1416 33.0136C39.9092 33.9909 39.4518 34.8826 38.8154 35.5991C38.179 36.3156 37.3859 36.8319 36.5156 37.0961C33.5431 37.9931 22.2451 38.0563 20.6794 38.0592H20.3155C19.5237 38.0592 16.2488 38.042 12.8151 37.9097L12.3794 37.8925L12.1565 37.881L11.7183 37.8608L11.2801 37.8407C8.43575 37.6998 5.72719 37.4727 4.47925 37.0932C3.60926 36.8293 2.81635 36.3135 2.17998 35.5975C1.54361 34.8815 1.08611 33.9904 0.853313 33.0136C0.568875 31.8147 0.37925 30.1788 0.251125 28.5343L0.230625 28.2324L0.210125 27.9334C0.0836595 25.9853 0.0135809 24.0332 0 22.0799L0 21.7263C0.005125 21.1082 0.025625 18.9721 0.164 16.6146L0.181938 16.3184L0.189625 16.1689L0.210125 15.8699L0.2665 15.1224L0.292125 14.8234C0.415125 13.3313 0.597063 11.8823 0.855875 10.7927C1.08828 9.81533 1.5456 8.92369 2.182 8.20716C2.8184 7.49063 3.61151 6.97439 4.48181 6.7102C5.72975 6.33645 8.43831 6.10645 11.2827 5.9627L11.7183 5.94257L12.1591 5.92532L12.3794 5.9167L12.8176 5.89657C15.2564 5.80852 17.6961 5.75964 20.1361 5.74995H20.6307V5.74707ZM16.4 14.9758V28.8276L27.0523 21.9046L16.4 14.9758Z" fill="#1C2B4A"/>
</g>
<defs>
<clipPath id="clip0">
<rect width="41" height="46" fill="white"/>
</clipPath>
</defs>
</svg>
